{
  "_id": "LuYsx4C0NbXm79WU",
  "name": "Colour-Blighted",
  "permission": {
    "default": 0
  },
  "type": "feat",
  "data": {
    "description": {
      "value": "<p><strong>Acquired/Inherited Template</strong>&nbsp;Acquired<br><strong>Simple Template</strong>&nbsp;Yes<br><strong>Usable with Summons</strong>&nbsp;Yes<br><br>A creature with the colour-blighted simple template appears hideously deformed and glows with the same unnamable color as the creature that blighted it. A colour-blighted creature’s quick and rebuild rules are the same.<br><br><strong>Rebuild Rules:</strong> A colour-blighted creature’s ability scores suffer drain as a result of being fed upon by a colour out of space, but once a creature gains this template, it becomes immune to further feed attacks from colours out of space until it loses the colour-blighted simple template. A Charisma score drained to 0 by a colour out of space’s feed attack is raised to 1; other ability scores are not altered. In order to remove this simple template from a creature, one need only restore all of its drained ability scores to normal. As long as a creature suffers the colour-blighted template, it becomes strangely aggressive toward creatures that do not exude the colors of a colour out of space, and gains a +1 bonus on attack rolls and weapon damage rolls against such targets. Every 24 hours, a creature suffering from this simple template must make a DC 12 Fortitude save to resist crumbling into fine white ash—such a doom means instant death and, for many color-blighted creatures, their only chance at escape from a life filled with pain.</p>",
      "chat": "",
      "unidentified": ""
    },
    "tags": [],
    "activation": {
      "cost": 1,
      "type": ""
    },
    "unchainedAction": {
      "activation": {
        "cost": 1,
        "type": ""
      }
    },
    "duration": {
      "value": null,
      "units": ""
    },
    "target": {
      "value": ""
    },
    "range": {
      "value": null,
      "units": "",
      "maxIncrements": 1,
      "minValue": null,
      "minUnits": "",
      "long": null
    },
    "uses": {
      "value": 0,
      "max": 0,
      "per": null,
      "autoDeductCharges": true,
      "autoDeductChargesCost": "1"
    },
    "measureTemplate": {
      "type": "",
      "size": "0",
      "overrideColor": false,
      "customColor": "",
      "overrideTexture": false,
      "customTexture": ""
    },
    "attackName": "",
    "actionType": "",
    "attackBonus": "",
    "critConfirmBonus": "",
    "damage": {
      "parts": [],
      "critParts": [],
      "nonCritParts": []
    },
    "attackParts": [],
    "formula": "",
    "ability": {
      "attack": null,
      "damage": null,
      "damageMult": 1,
      "critRange": 20,
      "critMult": 2
    },
    "save": {
      "dc": 0,
      "type": "",
      "description": ""
    },
    "effectNotes": "",
    "attackNotes": "",
    "soundEffect": "",
    "changes": [],
    "changeFlags": {
      "loseDexToAC": false,
      "noStr": false,
      "noDex": false,
      "oneInt": false,
      "oneWis": false,
      "oneCha": false,
      "noEncumbrance": false,
      "mediumArmorFullSpeed": false,
      "heavyArmorFullSpeed": false
    },
    "contextNotes": [],
    "links": {
      "children": [],
      "charges": []
    },
    "tag": "",
    "useCustomTag": false,
    "armorProf": {
      "value": [],
      "custom": ""
    },
    "weaponProf": {
      "value": [],
      "custom": ""
    },
    "featType": "template",
    "associations": {
      "classes": []
    },
    "showInQuickbar": false,
    "nonlethal": false,
    "abilityType": "none",
    "crOffset": "0",
    "attack": {
      "parts": []
    }
  },
  "flags": {},
  "img": "systems/pf1/icons/skills/violet_07.jpg",
  "effects": []
}