{
  "_id": "bBZEesM8WLIGPhKw",
  "name": "Giant (Quick)",
  "permission": {
    "default": 0
  },
  "type": "feat",
  "data": {
    "description": {
      "value": "<p><strong>Acquired/Inherited Template</strong>&nbsp;Acquired<br><strong>Simple Template&nbsp;</strong>Yes<br><strong>Usable with Summons&nbsp;</strong>No<br><br>Creatures with the giant template are larger and stronger than their normal-sized kin. This template cannot be applied to creatures that are Colossal.<br><br><strong>Quick Rules:</strong> +2 to all rolls based on Str or Con, +2 hp/ HD, –1 penalty on all rolls based on Dex.<br><br><strong>Rebuild Rules</strong>:&nbsp;Size&nbsp;increase by one category;&nbsp;AC&nbsp;increase natural armor by +3;&nbsp;Attacks&nbsp;increase dice rolled by 1 step;&nbsp;Ability Scores&nbsp;+4 size bonus to Str and Con, –2 Dex.</p>",
      "chat": "",
      "unidentified": ""
    },
    "tags": [],
    "activation": {
      "cost": 1,
      "type": ""
    },
    "unchainedAction": {
      "activation": {
        "cost": 1,
        "type": ""
      }
    },
    "duration": {
      "value": null,
      "units": ""
    },
    "target": {
      "value": ""
    },
    "range": {
      "value": null,
      "units": "",
      "maxIncrements": 1,
      "minValue": null,
      "minUnits": "",
      "long": null
    },
    "uses": {
      "value": 0,
      "max": 0,
      "per": null,
      "autoDeductCharges": true,
      "autoDeductChargesCost": "1"
    },
    "measureTemplate": {
      "type": "",
      "size": "0",
      "overrideColor": false,
      "customColor": "",
      "overrideTexture": false,
      "customTexture": ""
    },
    "attackName": "",
    "actionType": "",
    "attackBonus": "",
    "critConfirmBonus": "",
    "damage": {
      "parts": [],
      "critParts": [],
      "nonCritParts": []
    },
    "attackParts": [],
    "formula": "",
    "ability": {
      "attack": null,
      "damage": null,
      "damageMult": 1,
      "critRange": 20,
      "critMult": 2
    },
    "save": {
      "dc": 0,
      "type": "",
      "description": ""
    },
    "effectNotes": "",
    "attackNotes": "",
    "soundEffect": "",
    "changes": [
      {
        "_id": "qxkfuu5q",
        "formula": "2*(@attributes.hd.total)",
        "operator": "+",
        "target": "misc",
        "subTarget": "mhp",
        "modifier": "untyped",
        "priority": 0,
        "value": 0
      },
      {
        "_id": "9i8nuhea",
        "formula": "2",
        "operator": "+",
        "target": "attack",
        "subTarget": "mattack",
        "modifier": "untyped",
        "priority": 0,
        "value": 0
      },
      {
        "_id": "j71rtfd6",
        "formula": "2",
        "operator": "+",
        "target": "damage",
        "subTarget": "wdamage",
        "modifier": "untyped",
        "priority": 0,
        "value": 0
      },
      {
        "_id": "57nhhdor",
        "formula": "2",
        "operator": "+",
        "target": "skills",
        "subTarget": "strSkills",
        "modifier": "untyped",
        "priority": 0,
        "value": 0
      },
      {
        "_id": "12rizvbj",
        "formula": "2",
        "operator": "+",
        "target": "abilityChecks",
        "subTarget": "strChecks",
        "modifier": "untyped",
        "priority": 0,
        "value": 0
      },
      {
        "_id": "ez6le8xi",
        "formula": "2",
        "operator": "+",
        "target": "savingThrows",
        "subTarget": "fort",
        "modifier": "untyped",
        "priority": 0,
        "value": 0
      },
      {
        "_id": "p5hqrcg9",
        "formula": "2",
        "operator": "+",
        "target": "skills",
        "subTarget": "conSkills",
        "modifier": "untyped",
        "priority": 0,
        "value": 0
      },
      {
        "_id": "u5aufd41",
        "formula": "2",
        "operator": "+",
        "target": "abilityChecks",
        "subTarget": "conChecks",
        "modifier": "untyped",
        "priority": 0,
        "value": 0
      },
      {
        "_id": "z6gzyn3g",
        "formula": "-1",
        "operator": "+",
        "target": "savingThrows",
        "subTarget": "ref",
        "modifier": "untyped",
        "priority": 0,
        "value": 0
      },
      {
        "_id": "dpwp7xwy",
        "formula": "-1",
        "operator": "+",
        "target": "skills",
        "subTarget": "dexSkills",
        "modifier": "untyped",
        "priority": 0,
        "value": 0
      },
      {
        "_id": "07utsybe",
        "formula": "-1",
        "operator": "+",
        "target": "abilityChecks",
        "subTarget": "dexChecks",
        "modifier": "untyped",
        "priority": 0,
        "value": 0
      }
    ],
    "changeFlags": {
      "loseDexToAC": false,
      "noStr": false,
      "noDex": false,
      "oneInt": false,
      "oneWis": false,
      "oneCha": false,
      "noEncumbrance": false,
      "mediumArmorFullSpeed": false,
      "heavyArmorFullSpeed": false
    },
    "contextNotes": [],
    "links": {
      "children": [],
      "charges": []
    },
    "tag": "",
    "useCustomTag": false,
    "armorProf": {
      "value": [],
      "custom": ""
    },
    "weaponProf": {
      "value": [],
      "custom": ""
    },
    "featType": "template",
    "associations": {
      "classes": []
    },
    "showInQuickbar": false,
    "nonlethal": false,
    "abilityType": "none",
    "crOffset": "1",
    "attack": {
      "parts": []
    }
  },
  "flags": {},
  "img": "systems/pf1/icons/skills/violet_07.jpg",
  "effects": []
}