{
  "_id": "es3RMR9PqdUJfoxn",
  "name": "Trompe l'Oleil",
  "permission": {
    "default": 0
  },
  "type": "feat",
  "data": {
    "description": {
      "value": "<p><strong>Acquired/Inherited Template&nbsp;</strong>Inherited<br><strong>Simple Template&nbsp;</strong>No<br><strong>Usable with Summons</strong>&nbsp;No<br><br>Trompe l’oeil creatures are life-sized portraits animated by powerful magic or occult phenomena. Able to move and talk, these constructs can also step out of their frames to become three-dimensional beings. Born from artistic masterpieces, trompe l’oeils can easily pass for their original models, though close examination reveals that they are not flesh and blood, but only layers of paint. Trompe l’oeils can be created to act as guardians and spies, or on occasion, a painting will animate spontaneously. Rarely, a portrait is so lifelike, a nascent spirit is able to inhabit it. Believing itself to be as good as or better than the original, such a trompe l’oeil seeks to eliminate and replace the painting’s subject.<br><br>“Trompe l’oeil” is an inherited template that can be added to any corporeal creature that has an Intelligence score (referred to hereafter as the base creature).<br><br><strong>Challenge Rating:</strong> Base creature’s CR + 1.<br><br><strong>Alignment:</strong> A trompe l’oeil usually has the same alignment as its creator or the base creature. A trompe l’oeil that seeks to destroy its original model, however, has an evil alignment (but the same alignment on the chaotic/lawful axis).<br><br><strong>Type: </strong>The creature’s type changes to construct. Do not recalculate BAB, saves, or skill ranks.<br><br><strong>Armor Class:</strong> A trompe l’oeil gains a bonus to AC based on its HD, as noted in the following table. If it is depicted wearing armor or a shield, these items are masterwork and gain an enhancement bonus (or equivalent armor special abilities) when worn by the trompe l’oeil, as indicated in the table. If the trompe l’oeil is depicted without armor, add the armor enhancement bonus to its natural armor bonus instead. Armor and shields equipped by a trompe l’oeil melt into puddles of nonmagical paint when the creature is destroyed.</p>\n<hr>\n<table class=\"inner\" style=\"border-color: white; color: #ffffff; font-family: 'Century Gothic', CenturyGothic, AppleGothic, sans-serif; font-size: 15px; background-color: #0f0f0f;\">\n<tbody style=\"margin-top: 0px;\">\n<tr style=\"margin-top: 0px;\">\n<td style=\"margin: 0px; border: 1px solid white; padding: 1px 5px; text-align: center;\"><strong style=\"margin-top: 0px;\">Trompe l'Oeil HD</strong></td>\n<td style=\"border: 1px solid white; padding: 1px 5px; margin: 0px; text-align: center;\"><strong style=\"margin-top: 0px;\">Armor Enhancement Bonus</strong></td>\n<td style=\"border: 1px solid white; padding: 1px 5px; margin: 0px; text-align: center;\"><strong style=\"margin-top: 0px;\">Shield Enhancement Bonus</strong></td>\n</tr>\n<tr>\n<td style=\"margin: 0px; border: 1px solid white; padding: 1px 5px; text-align: center;\">1-4</td>\n<td style=\"border: 1px solid white; padding: 1px 5px; margin: 0px; text-align: center;\">—</td>\n<td style=\"border: 1px solid white; padding: 1px 5px; margin: 0px; text-align: center;\">—</td>\n</tr>\n<tr>\n<td style=\"margin: 0px; border: 1px solid white; padding: 1px 5px; text-align: center;\">5-8</td>\n<td style=\"border: 1px solid white; padding: 1px 5px; margin: 0px; text-align: center;\">+1</td>\n<td style=\"border: 1px solid white; padding: 1px 5px; margin: 0px; text-align: center;\">—</td>\n</tr>\n<tr>\n<td style=\"margin: 0px; border: 1px solid white; padding: 1px 5px; text-align: center;\">9-12</td>\n<td style=\"border: 1px solid white; padding: 1px 5px; margin: 0px; text-align: center;\">+2</td>\n<td style=\"border: 1px solid white; padding: 1px 5px; margin: 0px; text-align: center;\">+1</td>\n</tr>\n<tr>\n<td style=\"margin: 0px; border: 1px solid white; padding: 1px 5px; text-align: center;\">13-16</td>\n<td style=\"border: 1px solid white; padding: 1px 5px; margin: 0px; text-align: center;\">+3</td>\n<td style=\"border: 1px solid white; padding: 1px 5px; margin: 0px; text-align: center;\">+1</td>\n</tr>\n<tr>\n<td style=\"margin: 0px; border: 1px solid white; padding: 1px 5px; text-align: center;\">17+</td>\n<td style=\"border: 1px solid white; padding: 1px 5px; margin: 0px; text-align: center;\">+4</td>\n<td style=\"border: 1px solid white; padding: 1px 5px; margin: 0px; text-align: center;\">+2</td>\n</tr>\n</tbody>\n</table>\n<p><br style=\"color: #ffffff; font-family: 'Century Gothic', CenturyGothic, AppleGothic, sans-serif; font-size: 15px; background-color: #0f0f0f;\"><strong>Hit Dice: </strong>Change all of the creature’s racial Hit Dice to d10s. All Hit Dice derived from class levels remain unchanged. As constructs, trompe l’oeils gain a number of additional hit points as noted in the following table.</p>\n<hr>\n<table class=\"inner\" style=\"border-color: white; color: #ffffff; font-family: 'Century Gothic', CenturyGothic, AppleGothic, sans-serif; font-size: 15px; background-color: #0f0f0f;\">\n<tbody style=\"margin-top: 0px;\">\n<tr style=\"margin-top: 0px;\">\n<td style=\"margin: 0px; border: 1px solid white; padding: 1px 5px; text-align: center;\"><strong style=\"margin-top: 0px;\">Tromp l'Oeil Size</strong></td>\n<td style=\"border: 1px solid white; padding: 1px 5px; margin: 0px; text-align: center;\"><strong style=\"margin-top: 0px;\">Bonus Hit Points</strong></td>\n</tr>\n<tr>\n<td style=\"margin: 0px; border: 1px solid white; padding: 1px 5px; text-align: center;\">Tiny or smaller</td>\n<td style=\"border: 1px solid white; padding: 1px 5px; margin: 0px; text-align: center;\">—</td>\n</tr>\n<tr>\n<td style=\"margin: 0px; border: 1px solid white; padding: 1px 5px; text-align: center;\">Small</td>\n<td style=\"border: 1px solid white; padding: 1px 5px; margin: 0px; text-align: center;\">+10</td>\n</tr>\n<tr>\n<td style=\"margin: 0px; border: 1px solid white; padding: 1px 5px; text-align: center;\">Medium</td>\n<td style=\"border: 1px solid white; padding: 1px 5px; margin: 0px; text-align: center;\">+20</td>\n</tr>\n<tr>\n<td style=\"margin: 0px; border: 1px solid white; padding: 1px 5px; text-align: center;\">Large</td>\n<td style=\"border: 1px solid white; padding: 1px 5px; margin: 0px; text-align: center;\">+30</td>\n</tr>\n<tr>\n<td style=\"margin: 0px; border: 1px solid white; padding: 1px 5px; text-align: center;\">Huge</td>\n<td style=\"border: 1px solid white; padding: 1px 5px; margin: 0px; text-align: center;\">+40</td>\n</tr>\n<tr>\n<td style=\"margin: 0px; border: 1px solid white; padding: 1px 5px; text-align: center;\">Gargantuan</td>\n<td style=\"border: 1px solid white; padding: 1px 5px; margin: 0px; text-align: center;\">+60</td>\n</tr>\n<tr>\n<td style=\"margin: 0px; border: 1px solid white; padding: 1px 5px; text-align: center;\">Colossal</td>\n<td style=\"border: 1px solid white; padding: 1px 5px; margin: 0px; text-align: center;\">+80</td>\n</tr>\n</tbody>\n</table>\n<p><br style=\"color: #ffffff; font-family: 'Century Gothic', CenturyGothic, AppleGothic, sans-serif; font-size: 15px; background-color: #0f0f0f;\"><strong>Defensive Abilities:</strong> A trompe l’oeil gains the standard immunities and traits of construct creatures. In addition, it gains rejuvenation.<br><br><em>Rejuvenation (Su):</em> When a trompe l’oeil is destroyed, it reforms 2d4 days later on its original canvas (see page 243). The only way to permanently destroy a trompe l’oeil is to destroy the original canvas before the creature reforms.<br><br><strong>Attacks:</strong> A trompe l’oeil retains all weapon proficiencies and natural weapons. If it’s depicted wielding any manufactured weapons, the weapons are masterwork and gain an enhancement bonus (or equivalent weapon special abilities) when wielded by it. The bonus is based on its HD, as noted in the following table. A trompe l’oeil’s weapons melt into puddles of nonmagical paint when the creature is destroyed.</p>\n<hr>\n<table class=\"inner\" style=\"border-color: white; color: #ffffff; font-family: 'Century Gothic', CenturyGothic, AppleGothic, sans-serif; font-size: 15px; background-color: #0f0f0f;\">\n<tbody style=\"margin-top: 0px;\">\n<tr style=\"margin-top: 0px;\">\n<td style=\"margin: 0px; border: 1px solid white; padding: 1px 5px; text-align: center;\"><strong style=\"margin-top: 0px;\">Trompe l'Oeil HD</strong></td>\n<td style=\"border: 1px solid white; padding: 1px 5px; margin: 0px; text-align: center;\"><strong style=\"margin-top: 0px;\">Weapon Enhancement Bonus</strong></td>\n</tr>\n<tr>\n<td style=\"margin: 0px; border: 1px solid white; padding: 1px 5px; text-align: center;\">1-3</td>\n<td style=\"border: 1px solid white; padding: 1px 5px; margin: 0px; text-align: center;\">—</td>\n</tr>\n<tr>\n<td style=\"margin: 0px; border: 1px solid white; padding: 1px 5px; text-align: center;\">4-6</td>\n<td style=\"border: 1px solid white; padding: 1px 5px; margin: 0px; text-align: center;\">+1</td>\n</tr>\n<tr>\n<td style=\"margin: 0px; border: 1px solid white; padding: 1px 5px; text-align: center;\">7-9</td>\n<td style=\"border: 1px solid white; padding: 1px 5px; margin: 0px; text-align: center;\">+2</td>\n</tr>\n<tr>\n<td style=\"margin: 0px; border: 1px solid white; padding: 1px 5px; text-align: center;\">10-12</td>\n<td style=\"border: 1px solid white; padding: 1px 5px; margin: 0px; text-align: center;\">+3</td>\n</tr>\n<tr>\n<td style=\"margin: 0px; border: 1px solid white; padding: 1px 5px; text-align: center;\">13-15</td>\n<td style=\"border: 1px solid white; padding: 1px 5px; margin: 0px; text-align: center;\">+4</td>\n</tr>\n<tr>\n<td style=\"margin: 0px; border: 1px solid white; padding: 1px 5px; text-align: center;\">16+</td>\n<td style=\"border: 1px solid white; padding: 1px 5px; margin: 0px; text-align: center;\">+5</td>\n</tr>\n</tbody>\n</table>\n<p><br style=\"color: #ffffff; font-family: 'Century Gothic', CenturyGothic, AppleGothic, sans-serif; font-size: 15px; background-color: #0f0f0f;\"><strong>Abilities:</strong> A trompe l’oeil has no Constitution score.<br><br><strong>Skills:</strong> A trompe l’oeil gains a +10 racial bonus on Disguise checks to appear as the base creature. It also receives a +5 bonus on Bluff checks to pretend to be the base creature and a +5 bonus on Stealth checks to appear as part of a painting.<br><br><strong>Special Qualities:</strong> A trompe l’oeil gains the following special qualities.<br><br><em>Autotelic (Ex):</em> A trompe l’oeil uses its Charisma score in place of its Constitution score when calculating hit points, Fortitude saves, and any special ability that relies on Constitution (such as when calculating a breath weapon’s DC).<br><br><em>Enter Painting (Su):</em> As a standard action, a trompe l’oeil can enter a painting it touches. When it does so, its physical body disappears, and its image appears in the painting. The trompe l’oeil can use its normal senses and attempt Perception checks to notice anything occurring near the painting. While within a painting, the trompe l’oeil can talk and move anywhere within the picture or even temporarily alter it (such as by picking a flower in the painting). It cannot use any spells or other abilities while within an image. In addition, the trompe l’oeil gains the freeze universal monster ability to appear as part of the painting. The trompe l’oeil can leave the painting as a move action. Once it leaves the painting, the image immediately reverts to the appearance it had before the trompe l’oeil entered. If someone destroys or damages the painting, the trompe l’oeil is unharmed, but exits the image.</p>",
      "chat": "",
      "unidentified": ""
    },
    "tags": [],
    "activation": {
      "cost": 1,
      "type": ""
    },
    "unchainedAction": {
      "activation": {
        "cost": 1,
        "type": ""
      }
    },
    "duration": {
      "value": null,
      "units": ""
    },
    "target": {
      "value": ""
    },
    "range": {
      "value": null,
      "units": "",
      "maxIncrements": 1,
      "minValue": null,
      "minUnits": "",
      "long": null
    },
    "uses": {
      "value": 0,
      "max": 0,
      "per": null,
      "autoDeductCharges": true,
      "autoDeductChargesCost": "1"
    },
    "measureTemplate": {
      "type": "",
      "size": "0",
      "overrideColor": false,
      "customColor": "",
      "overrideTexture": false,
      "customTexture": ""
    },
    "attackName": "",
    "actionType": "",
    "attackBonus": "",
    "critConfirmBonus": "",
    "damage": {
      "parts": [],
      "critParts": [],
      "nonCritParts": []
    },
    "attackParts": [],
    "formula": "",
    "ability": {
      "attack": null,
      "damage": null,
      "damageMult": 1,
      "critRange": 20,
      "critMult": 2
    },
    "save": {
      "dc": 0,
      "type": "",
      "description": ""
    },
    "effectNotes": "",
    "attackNotes": "",
    "soundEffect": "",
    "changes": [
      {
        "_id": "d4pzl47v",
        "formula": "max(0, ceil(@attributes.hd.total/4-1))",
        "operator": "add",
        "target": "ac",
        "subTarget": "aac",
        "modifier": "untyped",
        "priority": 0,
        "value": 0
      },
      {
        "_id": "19d9kfhn",
        "formula": "(@attributes.hd.total >= 17) ? 2 : ((@attributes.hd.total >= 9 && @attributes.hd.total < 17) ? 1 : 0)",
        "operator": "add",
        "target": "ac",
        "subTarget": "sac",
        "modifier": "untyped",
        "priority": 0,
        "value": 0
      }
    ],
    "changeFlags": {
      "loseDexToAC": false,
      "noStr": false,
      "noDex": false,
      "oneInt": false,
      "oneWis": false,
      "oneCha": false,
      "noEncumbrance": false,
      "mediumArmorFullSpeed": false,
      "heavyArmorFullSpeed": false
    },
    "contextNotes": [],
    "links": {
      "children": [],
      "charges": []
    },
    "tag": "",
    "useCustomTag": false,
    "armorProf": {
      "value": [],
      "custom": ""
    },
    "weaponProf": {
      "value": [],
      "custom": ""
    },
    "featType": "template",
    "associations": {
      "classes": []
    },
    "showInQuickbar": false,
    "nonlethal": false,
    "abilityType": "none",
    "crOffset": "1",
    "attack": {
      "parts": []
    }
  },
  "flags": {},
  "img": "systems/pf1/icons/skills/violet_07.jpg",
  "effects": []
}