{
  "_id": "AbOSfjvKMqpNihdM",
  "name": "Plant",
  "permission": {
    "default": 0
  },
  "type": "class",
  "data": {
    "description": {
      "value": "<p>This type comprises vegetable creatures. Note that regular plants, such as one finds growing in gardens and fields, lack Wisdom and&nbsp;<a href=\"https://www.d20pfsrd.com/basics-ability-scores/ability-scores/#Charisma_Cha\">Charisma</a>&nbsp;scores and are not creatures, but objects, even though they are alive.</p>\n<h2><span id=\"Features\">Features</span></h2>\n<p>A plant creature has the following features.</p>\n<ul>\n<li>d8 Hit Die.</li>\n<li>Base attack bonus equal to 3/4 total Hit Dice (medium progression).</li>\n<li>Good&nbsp;<a href=\"https://www.d20pfsrd.com/gamemastering/combat#TOC-Fortitude\">Fortitude</a>&nbsp;saves.</li>\n<li>Skill points equal to 2 + Int modifier (minimum 1) per Hit Die. Some plant creatures, however, are mindless and gain no skill points or feats. The following are class skills for plants: <a href=\"https://www.d20pfsrd.com/skills/perception\">Perception</a> and <a href=\"https://www.d20pfsrd.com/skills/stealth\">Stealth</a>.</li>\n</ul>\n<h2><span id=\"Traits\">Traits</span></h2>\n<p>A plant creature possesses the following traits (unless otherwise noted in a creature’s entry).</p>\n<ul>\n<li>Low-light vision.</li>\n<li>Immunity to all mind-affecting effects (charms, compulsions, morale effects, patterns, and phantasms).</li>\n<li>Immunity to paralysis, poison, polymorph, sleep effects, and stunning.</li>\n<li>Proficient with its natural weapons only.</li>\n<li>Not proficient with armor.</li>\n<li>Plants breathe and eat, but do not sleep.</li>\n</ul>",
      "chat": "",
      "unidentified": ""
    },
    "tags": [],
    "changes": [],
    "changeFlags": {
      "loseDexToAC": false,
      "noStr": false,
      "noDex": false,
      "oneInt": false,
      "oneWis": false,
      "oneCha": false,
      "noEncumbrance": false,
      "mediumArmorFullSpeed": false,
      "heavyArmorFullSpeed": false
    },
    "links": "",
    "tag": "plant",
    "useCustomTag": false,
    "armorProf": {
      "value": [],
      "custom": ""
    },
    "weaponProf": {
      "value": [],
      "custom": ""
    },
    "classType": "racial",
    "levels": 1,
    "level": 1,
    "hd": 8,
    "hp": 8,
    "bab": "med",
    "skillsPerLevel": 2,
    "savingThrows": {
      "fort": {
        "value": "high"
      },
      "ref": {
        "value": "low"
      },
      "will": {
        "value": "low"
      }
    },
    "fc": {
      "hp": {
        "value": 0
      },
      "skill": {
        "value": 0
      },
      "alt": {
        "value": 0
      }
    },
    "classSkills": {
      "acr": false,
      "apr": false,
      "art": false,
      "blf": false,
      "clm": false,
      "crf": false,
      "dip": false,
      "dev": false,
      "dis": false,
      "esc": false,
      "fly": false,
      "han": false,
      "hea": false,
      "int": false,
      "kar": false,
      "kdu": false,
      "ken": false,
      "kge": false,
      "khi": false,
      "klo": false,
      "kna": false,
      "kno": false,
      "kpl": false,
      "kre": false,
      "lin": false,
      "lor": false,
      "per": true,
      "prf": false,
      "pro": false,
      "rid": false,
      "sen": false,
      "slt": false,
      "spl": false,
      "ste": true,
      "sur": false,
      "swm": false,
      "umd": false
    },
    "damage": {
      "parts": []
    }
  },
  "flags": {},
  "img": "systems/pf1/icons/skills/nature_06.jpg",
  "effects": []
}