{
  "name": "Extra Rogue Talent",
  "permission": {
    "default": 0
  },
  "type": "feat",
  "data": {
    "description": {
      "value": "<div>\n<div>\n<div>\n<div>\n<p>Through constant practice, you have learned how to perform a special trick.</p>\n<p>Prerequisite:&nbsp;<a href=\"https://www.d20pfsrd.com/classes/core-classes/rogue#TOC-Rogue-Talents\">Rogue talent class feature</a>.</p>\n<p>Benefit: You gain one additional&nbsp;<a href=\"https://www.d20pfsrd.com/classes/core-classes/rogue\">rogue</a>&nbsp;talent. You must meet all of the prerequisites for this&nbsp;<a href=\"https://www.d20pfsrd.com/classes/core-classes/rogue\">rogue</a>&nbsp;talent.</p>\n<p>Special: You can gain Extra&nbsp;<a href=\"https://www.d20pfsrd.com/classes/core-classes/rogue\">Rogue</a>&nbsp;Talent multiple times.</p>\n</div>\n</div>\n</div>\n</div>",
      "chat": "",
      "unidentified": ""
    },
    "tags": [],
    "activation": {
      "cost": 1,
      "type": ""
    },
    "unchainedAction": {
      "activation": {
        "cost": 1,
        "type": ""
      }
    },
    "duration": {
      "value": null,
      "units": ""
    },
    "target": {
      "value": ""
    },
    "range": {
      "value": null,
      "units": "",
      "maxIncrements": 1,
      "minValue": null,
      "minUnits": ""
    },
    "uses": {
      "value": 0,
      "max": 0,
      "per": null,
      "autoDeductCharges": true,
      "autoDeductChargesCost": "1"
    },
    "measureTemplate": {
      "type": "",
      "size": "",
      "overrideColor": false,
      "customColor": "",
      "overrideTexture": false,
      "customTexture": ""
    },
    "attackName": "",
    "actionType": "",
    "attackBonus": "",
    "critConfirmBonus": "",
    "damage": {
      "parts": [],
      "critParts": [],
      "nonCritParts": []
    },
    "attackParts": [],
    "formulaicAttacks": {
      "count": {
        "formula": "",
        "value": null
      },
      "bonus": {
        "formula": ""
      },
      "label": null
    },
    "formula": "",
    "ability": {
      "attack": null,
      "damage": null,
      "damageMult": 1,
      "critRange": 20,
      "critMult": 2
    },
    "save": {
      "dc": 0,
      "type": "",
      "description": ""
    },
    "effectNotes": "",
    "attackNotes": "",
    "soundEffect": "",
    "changes": [],
    "changeFlags": {
      "loseDexToAC": false,
      "noEncumbrance": false,
      "mediumArmorFullSpeed": false,
      "heavyArmorFullSpeed": false
    },
    "contextNotes": [],
    "links": {
      "children": [],
      "charges": []
    },
    "tag": "extraRogueTalent",
    "useCustomTag": false,
    "armorProf": {
      "value": [],
      "custom": ""
    },
    "weaponProf": {
      "value": [],
      "custom": ""
    },
    "flags": {
      "boolean": [],
      "dictionary": []
    },
    "featType": "feat",
    "associations": {
      "classes": []
    },
    "showInQuickbar": false,
    "nonlethal": false,
    "abilityType": "none",
    "crOffset": "",
    "attack": {
      "parts": []
    }
  },
  "flags": {},
  "img": "icons/environment/traps/spike-skull-white-brown.webp",
  "effects": [],
  "_id": "jGYtflqD2m71KaEg"
}