{
  "_id": "QnbMu8d1Sjeiv5GM",
  "name": "Bec de Corbin",
  "permission": {
    "default": 0
  },
  "type": "weapon",
  "data": {
    "description": {
      "value": "<p><em>The bec de corbin is a polearm very similar to the lucerne hammer, but the hammer head is slightly blunter and the spike is stouter and more hooked. You primarily attack with the spike.</em></p>\n<p>You gain a +2 bonus on combat maneuver checks to sunder medium or heavy armor with a bec de corbin.</p>",
      "chat": "",
      "unidentified": ""
    },
    "tags": [],
    "quantity": 1,
    "weight": 12,
    "price": 15,
    "identified": true,
    "hp": {
      "max": 10,
      "value": 10
    },
    "hardness": 5,
    "carried": true,
    "unidentified": {
      "price": 0,
      "name": ""
    },
    "identifiedName": "",
    "cl": 0,
    "aura": {
      "custom": false,
      "school": ""
    },
    "changes": [],
    "changeFlags": {
      "loseDexToAC": false,
      "noStr": false,
      "noDex": false,
      "oneInt": false,
      "oneWis": false,
      "oneCha": false,
      "noEncumbrance": false,
      "mediumArmorFullSpeed": false,
      "heavyArmorFullSpeed": false
    },
    "contextNotes": [],
    "links": {
      "children": []
    },
    "equipped": true,
    "masterwork": false,
    "weaponType": "martial",
    "weaponSubtype": "2h",
    "properties": {
      "blc": false,
      "brc": true,
      "dbl": false,
      "dis": false,
      "fin": false,
      "frg": false,
      "imp": false,
      "mnk": false,
      "nnl": false,
      "prf": false,
      "rch": true,
      "thr": false,
      "trp": false
    },
    "enh": null,
    "weaponData": {
      "damageRoll": "1d10",
      "damageType": "B or P",
      "critRange": "20",
      "critMult": "3",
      "range": null,
      "attackFormula": "",
      "damageFormula": "",
      "size": "med",
      "maxRangeIncrements": 1
    },
    "broken": false,
    "bonus": {
      "value": 0,
      "_deprecated": true
    },
    "damageType": {
      "value": "",
      "_deprecated": true
    },
    "damage2": {
      "value": "",
      "_deprecated": true
    },
    "damage2Type": {
      "value": "",
      "_deprecated": true
    },
    "damage": {
      "parts": []
    }
  },
  "flags": {},
  "img": "systems/pf1/icons/items/weapons/bec-de-corbin.png",
  "effects": []
}