{
  "_id": "vyRDu111njgEV8xw",
  "name": "Double Crossbow",
  "permission": {
    "default": 0
  },
  "type": "weapon",
  "data": {
    "description": {
      "value": "<p><em>This heavy weapon fires a pair of iron-tipped bolts with a single squeeze of the trigger.</em></p>\n<p>Due to its size and weight, you take a –4 penalty on your attack roll if you’re proficient with it, or –8 if you’re not. If the attack hits, the target takes damage from both bolts. Critical hits, sneak attack damage, and other precision-based damage apply to only the first bolt.</p>\n<p>Reloading one bolt is a standard action; the&nbsp;<a href=\"https://www.d20pfsrd.com/feats/combat-feats/rapid-reload-combat/\">Rapid Reload</a>&nbsp;feat reduces this to a move action.&nbsp;<a href=\"https://www.d20pfsrd.com/feats/combat-feats/crossbow-mastery-combat/\">Crossbow Mastery</a>&nbsp;allows you to reload both bolts as a move action.</p>\n<p>A double crossbow fires crossbow bolts.</p>",
      "chat": "",
      "unidentified": ""
    },
    "tags": [],
    "quantity": 1,
    "weight": 18,
    "price": 300,
    "identified": true,
    "hp": {
      "max": 5,
      "value": 5
    },
    "hardness": 5,
    "carried": true,
    "unidentified": {
      "price": 0,
      "name": ""
    },
    "identifiedName": "",
    "cl": 0,
    "aura": {
      "custom": false,
      "school": ""
    },
    "changes": [],
    "changeFlags": {
      "loseDexToAC": false,
      "noStr": false,
      "noDex": false,
      "oneInt": false,
      "oneWis": false,
      "oneCha": false,
      "noEncumbrance": false,
      "mediumArmorFullSpeed": false,
      "heavyArmorFullSpeed": false
    },
    "contextNotes": [],
    "links": {
      "children": []
    },
    "equipped": true,
    "masterwork": false,
    "weaponType": "exotic",
    "weaponSubtype": "ranged",
    "properties": {
      "blc": false,
      "brc": false,
      "dbl": false,
      "dis": false,
      "fin": false,
      "frg": false,
      "imp": false,
      "mnk": false,
      "nnl": false,
      "prf": false,
      "rch": false,
      "thr": false,
      "trp": false
    },
    "enh": null,
    "weaponData": {
      "damageRoll": "1d8",
      "damageType": "P",
      "critRange": "19",
      "critMult": "2",
      "range": 80,
      "attackFormula": "",
      "damageFormula": "",
      "size": "med",
      "maxRangeIncrements": 10
    },
    "broken": false,
    "bonus": {
      "value": 0,
      "_deprecated": true
    },
    "damageType": {
      "value": "",
      "_deprecated": true
    },
    "damage2": {
      "value": "",
      "_deprecated": true
    },
    "damage2Type": {
      "value": "",
      "_deprecated": true
    },
    "damage": {
      "parts": []
    },
    "uses": {
      "value": 0,
      "max": 0
    }
  },
  "flags": {},
  "img": "systems/pf1/icons/items/weapons/crossbow-double.PNG",
  "effects": []
}