{
  "_id": "eYmic2XB4xFI0WqY",
  "name": "Kobold Tail Attachment (Spiked)",
  "permission": {
    "default": 0
  },
  "type": "weapon",
  "data": {
    "description": {
      "value": "<p><em>This narrow spike tapers to a sharp point.</em></p>\n<p>A kobold with the&nbsp;<a href=\"https://www.d20pfsrd.com/feats/racial-feats/tail-terror-combat-kobold\">Tail Terror</a>&nbsp;feat can slip this device over the tip of his tail to augment his&nbsp;<a href=\"https://www.d20pfsrd.com/bestiary/rules-for-monsters/universal-monster-rules#TOC-Natural-Attacks\">natural attack</a>. Each tail attachment provides just enough weight, balance, and striking power to increase the damage of his tail slap. While a kobold is wearing a kobold tail attachment, its tail attack deals the tail attachment damage, and some attachments gain a special feature. Tail attachments are light weapons and can be improved by feats that can improve weapon attacks (such as&nbsp;<a href=\"https://www.d20pfsrd.com/feats/combat-feats/weapon-focus-combat\">Weapon Focus</a>&nbsp;and&nbsp;<a href=\"https://www.d20pfsrd.com/feats/combat-feats/weapon-specialization-combat\">Weapon Specialization</a>).</p>\n<p>There are five types of common tail attachments. All kobold tail attachments make up a kobold tail attachment weapon group that can be improved by the&nbsp;<a href=\"https://www.d20pfsrd.com/classes/core-classes/fighter\">fighter’s</a>&nbsp;<a href=\"https://www.d20pfsrd.com/classes/core-classes/rogue/rogue-talents/paizo-rogue-talents/weapon-training\">weapon training</a>&nbsp;class ability. Tail attachments can be constructed of special material and made into masterwork or magic items.</p>\n<p>It takes a&nbsp;<a href=\"https://www.d20pfsrd.com/gamemastering/combat#TOC-Full-Round-Actions\">full-round action</a>&nbsp;to slip on a kobold tail attachment, and the kobold gains a +4 bonus against&nbsp;<a href=\"https://www.d20pfsrd.com/gamemastering/combat#TOC-Disarm\">disarm</a>&nbsp;attempts made to remove his tail attachment.</p>",
      "chat": "",
      "unidentified": ""
    },
    "tags": [],
    "quantity": 1,
    "weight": 2,
    "price": 3,
    "identified": true,
    "hp": {
      "max": 2,
      "value": 2
    },
    "hardness": 10,
    "carried": true,
    "unidentified": {
      "price": 0,
      "name": ""
    },
    "identifiedName": "",
    "cl": 0,
    "aura": {
      "custom": false,
      "school": ""
    },
    "changes": [],
    "changeFlags": {
      "loseDexToAC": false,
      "noStr": false,
      "noDex": false,
      "oneInt": false,
      "oneWis": false,
      "oneCha": false,
      "noEncumbrance": false,
      "mediumArmorFullSpeed": false,
      "heavyArmorFullSpeed": false
    },
    "contextNotes": [],
    "links": {
      "children": []
    },
    "equipped": true,
    "masterwork": false,
    "weaponType": "martial",
    "weaponSubtype": "light",
    "properties": {
      "blc": false,
      "brc": false,
      "dbl": false,
      "dis": false,
      "fin": false,
      "frg": false,
      "imp": false,
      "mnk": false,
      "nnl": false,
      "prf": false,
      "rch": false,
      "thr": false,
      "trp": false
    },
    "enh": null,
    "weaponData": {
      "damageRoll": "1d8",
      "damageType": "P",
      "critRange": "20",
      "critMult": "2",
      "range": null,
      "attackFormula": "",
      "damageFormula": "",
      "size": "med",
      "maxRangeIncrements": 1
    },
    "broken": false,
    "bonus": {
      "value": 0,
      "_deprecated": true
    },
    "damageType": {
      "value": "",
      "_deprecated": true
    },
    "damage2": {
      "value": "",
      "_deprecated": true
    },
    "damage2Type": {
      "value": "",
      "_deprecated": true
    },
    "damage": {
      "parts": []
    }
  },
  "flags": {},
  "img": "systems/pf1/icons/items/weapons/kobold-tail-attachment.png",
  "effects": []
}