{
  "_id": "gIEY6TLpLfVIzcCA",
  "name": "Softstone Sling Bullet",
  "permission": {
    "default": 0
  },
  "type": "loot",
  "data": {
    "description": {
      "value": "<p>These tight bundles of elastic fibers deal&nbsp;<a href=\"https://www.d20pfsrd.com/gamemastering/combat#TOC-Nonlethal-Damage\">nonlethal damage</a>&nbsp;when fired from a sling.</p>",
      "chat": "",
      "unidentified": ""
    },
    "tags": [],
    "quantity": 1,
    "weight": 0.4,
    "price": 0.01,
    "identified": true,
    "hp": {
      "max": 1,
      "value": 1
    },
    "hardness": 10,
    "carried": true,
    "unidentified": {
      "price": 0.01,
      "name": ""
    },
    "identifiedName": "Softstone Sling Bullet",
    "cl": 0,
    "aura": {
      "custom": false,
      "school": ""
    },
    "changes": [],
    "changeFlags": {
      "loseDexToAC": false,
      "noStr": false,
      "noDex": false,
      "oneInt": false,
      "oneWis": false,
      "oneCha": false,
      "noEncumbrance": false,
      "mediumArmorFullSpeed": false,
      "heavyArmorFullSpeed": false
    },
    "contextNotes": [],
    "links": {
      "children": []
    },
    "subType": "ammo",
    "equipped": false,
    "damage": {
      "parts": [],
      "critParts": []
    }
  },
  "flags": {},
  "img": "systems/pf1/icons/items/weapons/bullet.png",
  "effects": []
}