{
  "_id": "cy4pO52j4iAedcHZ",
  "name": "Stonebow",
  "permission": {
    "default": 0
  },
  "type": "weapon",
  "data": {
    "description": {
      "value": "<p><em>A stonebow, or bullet crossbow, resembles a&nbsp;<a href=\"https://www.d20pfsrd.com/equipment/weapons/weapon-descriptions/crossbow-light\">light crossbow</a>&nbsp;except for the distinct U-shaped bend in the stock.</em></p>\n<p>Instead of bolts, the stonebow shoots&nbsp;<a href=\"https://www.d20pfsrd.com/equipment/weapons/weapon-descriptions/sling\">sling</a>&nbsp;bullets. The bow has two strings with a leather pocket between them to hold the bullet.</p>\n<p><strong>Loading</strong>:&nbsp;Loading a stonebow is a&nbsp;<a href=\"https://www.d20pfsrd.com/gamemastering/combat#TOC-Move-Actions\">move action</a>&nbsp;(a&nbsp;<a href=\"https://www.d20pfsrd.com/gamemastering/combat#TOC-Free-Actions\">free action</a>&nbsp;if you have the&nbsp;<a href=\"https://www.d20pfsrd.com/feats/combat-feats/rapid-reload-combat\">Rapid Reload</a>&nbsp;feat) that provokes&nbsp;<a href=\"https://www.d20pfsrd.com/gamemastering/combat#TOC-Attacks-of-Opportunity\">attacks of opportunity</a>.</p>\n<p><strong>Firing</strong>:&nbsp;You can shoot, but not load, a stonebow with one hand, but doing so imposes a &ndash;2 penalty on your&nbsp;<a href=\"https://www.d20pfsrd.com/gamemastering/combat#TOC-Attack-Roll\">attack rolls</a>. You can shoot a stonebow with each hand, but you take a penalty on attack rolls as if attacking with two light weapons. This penalty is cumulative with the penalty for firing one-handed.</p>\n<p>You can shoot ordinary stones with a stonebow, but stones aren&rsquo;t as dense or as round as bullets. When using stones, you take a &ndash;1 penalty on attack rolls and deal damage as if the weapon were designed for a creature one size category smaller than you.</p>",
      "chat": "",
      "unidentified": ""
    },
    "tags": [],
    "quantity": 1,
    "weight": 4,
    "price": 35,
    "identified": true,
    "hp": {
      "max": 5,
      "value": 5
    },
    "hardness": 5,
    "carried": true,
    "unidentified": {
      "price": 0,
      "name": ""
    },
    "identifiedName": "",
    "cl": 0,
    "aura": {
      "custom": false,
      "school": ""
    },
    "changes": [],
    "changeFlags": {
      "loseDexToAC": false,
      "noStr": false,
      "noDex": false,
      "oneInt": false,
      "oneWis": false,
      "oneCha": false,
      "noEncumbrance": false,
      "mediumArmorFullSpeed": false,
      "heavyArmorFullSpeed": false
    },
    "contextNotes": [],
    "links": {
      "children": []
    },
    "equipped": true,
    "masterwork": false,
    "weaponType": "simple",
    "weaponSubtype": "ranged",
    "properties": {
      "blc": false,
      "brc": false,
      "dbl": false,
      "dis": false,
      "fin": false,
      "frg": false,
      "imp": false,
      "mnk": false,
      "nnl": false,
      "prf": false,
      "rch": false,
      "thr": false,
      "trp": false
    },
    "enh": null,
    "weaponData": {
      "damageRoll": "1d6",
      "damageType": "B",
      "critRange": "20",
      "critMult": "2",
      "range": 50,
      "attackFormula": "",
      "damageFormula": "",
      "size": "med",
      "maxRangeIncrements": 10
    },
    "broken": false,
    "bonus": {
      "value": 0,
      "_deprecated": true
    },
    "damageType": {
      "value": "",
      "_deprecated": true
    },
    "damage2": {
      "value": "",
      "_deprecated": true
    },
    "damage2Type": {
      "value": "",
      "_deprecated": true
    },
    "damage": {
      "parts": []
    },
    "uses": {
      "value": 0,
      "max": 0
    }
  },
  "flags": {},
  "img": "systems/pf1/icons/items/weapons/stonebow.PNG",
  "effects": []
}