{
  "_id": "uhhmhncqoqxoxdcs",
  "name": "Alchemical Coal",
  "permission": {
    "default": 0
  },
  "type": "loot",
  "data": {
    "description": {
      "value": "\r\n<p class=\"source\"><b>Source</b> <a title=\"PZO1121\" href=\"http://www.amazon.com/gp/product/1601253907/ref=as_li_qf_sp_asin_il_tl?ie=UTF8&amp;camp=1789&amp;creative=9325&amp;creativeASIN=1601253907&amp;linkCode=as2&amp;tag=httpwwwd20pfs-20\" target=\"_blank\" rel=\"noopener\">PZO1121</a></p>\r\n<p>A kobold who chews and swallows this alchemically treated piece of coal (a <a href=\"https://www.d20pfsrd.com/gamemastering/combat#TOC-Full-Round-Actions\">full-round action</a>) can make one <a href=\"https://www.d20pfsrd.com/bestiary/rules-for-monsters/universal-monster-rules#TOC-Breath-Weapon-Su-\">breath weapon</a> attack during the next minute. If the kobold fails to make a breath attack before this minute expires, it is <a href=\"https://www.d20pfsrd.com/gamemastering/conditions#TOC-Sickened\">sickened</a> for 1 hour. Other <a href=\"https://www.d20pfsrd.com/bestiary/rules-for-monsters/creature-types#TOC-Humanoid\">humanoid</a> creatures that eat alchemical coal are <a href=\"https://www.d20pfsrd.com/gamemastering/conditions#TOC-Sickened\">sickened</a> for 1 hour (though certain other creatures may be able to use them, at the GM's discretion). Creatures that are immune to <a href=\"https://www.d20pfsrd.com/gamemastering/afflictions/poison\">poison</a> are immune to the <a href=\"https://www.d20pfsrd.com/gamemastering/conditions#TOC-Sickened\">sickened</a> effect. The type of <a href=\"https://www.d20pfsrd.com/bestiary/rules-for-monsters/universal-monster-rules#TOC-Breath-Weapon-Su-\">breath weapon</a> depends on the type of alchemical coal that is chewed by the kobold.</p>\r\n<div style=\"margin-left: 40px\">\r\n<p><i>Blinding Cinders</i>: This jagged bit of dusty red coal allows a kobold to breathe a 30-foot line of coarse cinders. The <a href=\"https://www.d20pfsrd.com/bestiary/rules-for-monsters/universal-monster-rules#TOC-Breath-Weapon-Su-\">breath weapon</a> deals 1d6 points of fire damage and blinds creatures in the area for 1 round. A creature that succeeds at a DC 15 <a href=\"https://www.d20pfsrd.com/gamemastering/combat#TOC-Reflex\">Reflex</a> saving throw takes half damage and is not <a href=\"https://www.d20pfsrd.com/gamemastering/conditions#TOC-Blinded\">blinded</a>.</p>\r\n<p><i>Choking Smoke</i>: This crumbling chunk of chalky white coal allows a kobold to breathe a 15-foot cone of foul vapor that deals 1d6 points of acid damage and sickens a creature for 1d4 rounds. A creature that succeeds at a DC 15 <a href=\"https://www.d20pfsrd.com/gamemastering/combat#TOC-Reflex\">Reflex</a> saving throw takes half damage and is not <a href=\"https://www.d20pfsrd.com/gamemastering/conditions#TOC-Sickened\">sickened</a>.</p>\r\n</div>\r\n",
      "chat": "",
      "unidentified": ""
    },
    "tags": [],
    "quantity": 1,
    "weight": 0,
    "price": 100,
    "identified": true,
    "hp": {
      "max": 10,
      "value": 10
    },
    "hardness": 0,
    "carried": true,
    "unidentified": {
      "price": 0,
      "name": ""
    },
    "identifiedName": "",
    "cl": 0,
    "aura": {
      "custom": false,
      "school": ""
    },
    "changes": [],
    "changeFlags": {
      "loseDexToAC": false,
      "noStr": false,
      "noDex": false,
      "oneInt": false,
      "oneWis": false,
      "oneCha": false,
      "noEncumbrance": false,
      "mediumArmorFullSpeed": false,
      "heavyArmorFullSpeed": false
    },
    "contextNotes": [],
    "links": {
      "children": []
    },
    "tag": "",
    "useCustomTag": false,
    "subType": "gear",
    "equipped": false,
    "damage": {
      "parts": []
    }
  },
  "flags": {},
  "img": "systems/pf1/icons/items/inventory/dice.jpg",
  "effects": []
}