{
  "_id": "peojhfvvysmdjwqr",
  "name": "Book Of War Prayers",
  "permission": {
    "default": 0
  },
  "type": "loot",
  "data": {
    "description": {
      "value": "\r\n<p><b>Book of War Prayers</b> This small, leather-bound collection of war prayers features pages of fine vellum. If you have a <a href=\"https://www.d20pfsrd.com/basics-ability-scores/ability-scores#TOC-Charisma-Cha-\">Charisma</a> of 13 or higher, or at least 1 rank in <a href=\"https://www.d20pfsrd.com/skills/perform\">Perform</a> (oratory), you can read aloud prayers from the book before battle to hearten others for the trials to come. Reading prayers for this effect takes 10 minutes. You grant those who hear your prayers a +2 <a href=\"https://www.d20pfsrd.com/basics-ability-scores/glossary#TOC-Morale-Bonus\">morale bonus</a> on the next saving throw against fear they attempt, as long as that saving throw is made in the next 24 hours. <b>Price</b> 50 gp; <b>Weight</b> 1/2 lb. <b>Source</b> <a title=\"PZO1129\" href=\"http://www.amazon.com/gp/product/160125671X/ref=as_li_qf_sp_asin_il_tl?ie=UTF8&amp;camp=1789&amp;creative=9325&amp;creativeASIN=160125671X&amp;linkCode=as2&amp;tag=httpwwwd20pfs-20&amp;linkId=HSOKQ6X2XAS2GTU6\" target=\"_blank\" rel=\"noopener\">PZO1129</a></p>\r\n",
      "chat": "",
      "unidentified": ""
    },
    "tags": [],
    "quantity": 1,
    "weight": 0.5,
    "price": 50,
    "identified": true,
    "hp": {
      "max": 10,
      "value": 10
    },
    "hardness": 0,
    "carried": true,
    "unidentified": {
      "price": 0,
      "name": ""
    },
    "identifiedName": "",
    "cl": 0,
    "aura": {
      "custom": false,
      "school": ""
    },
    "changes": [],
    "changeFlags": {
      "loseDexToAC": false,
      "noStr": false,
      "noDex": false,
      "oneInt": false,
      "oneWis": false,
      "oneCha": false,
      "noEncumbrance": false,
      "mediumArmorFullSpeed": false,
      "heavyArmorFullSpeed": false
    },
    "contextNotes": [],
    "links": {
      "children": []
    },
    "tag": "",
    "useCustomTag": false,
    "subType": "gear",
    "equipped": false,
    "damage": {
      "parts": []
    }
  },
  "flags": {},
  "img": "systems/pf1/icons/items/inventory/dice.jpg",
  "effects": []
}