{
  "_id": "bbjekcgrpijjwszb",
  "name": "Dream Lichen",
  "permission": {
    "default": 0
  },
  "type": "loot",
  "data": {
    "description": {
      "value": "\r\n<p class=\"source\"><b>Source</b> <a href=\"http://amzn.to/2z71S07\" target=\"_blank\" rel=\"noopener\">PZO1140</a></p>\r\n<p><b>Price</b> 2,000 gp</p>\r\n<p>This multicolored, shimmering lichen grows in places where powerful magical creatures have slept and dreamt.</p>\r\n<p><b>Gather</b> DC 30; <b>Yield</b> 1 dose</p>\r\n<p><b>Terrain</b> anywhere the boundaries between the <a href=\"https://www.d20pfsrd.com/gamemastering/environment/the-planes#TOC-Material-Plane1\">Material Plane</a> and the Dimension of Dreams grow thin</p>\r\n<p><b>Preparation</b> The fibrous outer layer of the lichen must be gently scrubbed away, exposing the soft interior, which must then be allowed to dry after being sprinkled with various alchemical powders. This requires a successful DC 25 <a href=\"https://www.d20pfsrd.com/skills/craft\">Craft</a> (alchemy) check and 8 hours of work.</p>\r\n<p><b>Use</b> A creature that sleeps for at least 8 hours with a dose of <a class=\"spell\" href=\"https://www.d20pfsrd.com/magic/all-spells/d/dream\">dream</a> lichen in contact with its body has vivid dreams in which it endures and recovers from a supernatural affliction. Upon waking, the creature can attempt a new saving throw against a single curse or <a href=\"https://www.d20pfsrd.com/magic#TOC-Magic-Descriptor-Mind-Affecting\">mind-affecting</a> effect from which it is currently suffering. Alternatively, the user automatically succeeds at a saving throw to remove a temporary <a href=\"https://www.d20pfsrd.com/gamemastering/special-abilities#TOC-Energy-Drain-and-Negative-Levels\">negative level</a>.</p>\r\n",
      "chat": "",
      "unidentified": ""
    },
    "tags": [],
    "quantity": 1,
    "weight": 0,
    "price": 2000,
    "identified": true,
    "hp": {
      "max": 10,
      "value": 10
    },
    "hardness": 0,
    "carried": true,
    "unidentified": {
      "price": 0,
      "name": ""
    },
    "identifiedName": "",
    "cl": 0,
    "aura": {
      "custom": false,
      "school": ""
    },
    "changes": [],
    "changeFlags": {
      "loseDexToAC": false,
      "noStr": false,
      "noDex": false,
      "oneInt": false,
      "oneWis": false,
      "oneCha": false,
      "noEncumbrance": false,
      "mediumArmorFullSpeed": false,
      "heavyArmorFullSpeed": false
    },
    "contextNotes": [],
    "links": {
      "children": []
    },
    "tag": "",
    "useCustomTag": false,
    "subType": "gear",
    "equipped": false,
    "damage": {
      "parts": []
    }
  },
  "flags": {},
  "img": "systems/pf1/icons/items/inventory/dice.jpg",
  "effects": []
}