{
  "_id": "UGXnzXJCs1DhuB43",
  "name": "Drill",
  "permission": {
    "default": 0
  },
  "type": "loot",
  "data": {
    "description": {
      "value": "<p>Source&nbsp;<a href=\"http://paizo.com/products/btpy8tmc?Pathfinder-Roleplaying-Game-Ultimate-Equipment\" target=\"_blank\" rel=\"noopener\">Ultimate Equipment pg. 56</a>,&nbsp;<a href=\"http://paizo.com/pathfinderRPG/v5748btpy8fo1\" target=\"_blank\" rel=\"noopener\">Advanced Player's Guide pg. 184</a>,&nbsp;<a href=\"http://paizo.com/store/downloads/pathfinder/pathfinderCompanion/pathfinderRPG/v5748btpy8dmf\" target=\"_blank\" rel=\"noopener\">Adventurer's Armory pg. 19</a><br>Price&nbsp;5 sp;&nbsp;Weight&nbsp;1 lb.<br>Category&nbsp;Adventuring Gear</p>\n<h3>Description</h3>\n<p>A drill can create a 1-inch-diameter hole in stone, wood, or metal as a standard action. Harder materials wear down or break the drill more quickly. Hearing the sound of drilling requires a DC 15 Perception check.</p>",
      "chat": "",
      "unidentified": ""
    },
    "tags": [],
    "quantity": 1,
    "weight": 1,
    "price": 0.5,
    "identified": true,
    "hp": {
      "max": 10,
      "value": 10
    },
    "hardness": 0,
    "carried": true,
    "unidentified": {
      "price": 0,
      "name": ""
    },
    "identifiedName": "Drill",
    "cl": 0,
    "aura": {
      "custom": false,
      "school": ""
    },
    "changes": [],
    "changeFlags": {
      "loseDexToAC": false,
      "noStr": false,
      "noDex": false,
      "oneInt": false,
      "oneWis": false,
      "oneCha": false,
      "noEncumbrance": false,
      "mediumArmorFullSpeed": false,
      "heavyArmorFullSpeed": false
    },
    "contextNotes": [],
    "links": {
      "children": []
    },
    "tag": "",
    "useCustomTag": false,
    "subType": "gear",
    "equipped": false,
    "damage": {
      "parts": []
    }
  },
  "flags": {},
  "img": "systems/pf1/icons/items/inventory/dice.jpg",
  "effects": []
}