{
  "_id": "hyejdmfkqdzyajbc",
  "name": "Fungal Stun Vial",
  "permission": {
    "default": 0
  },
  "type": "loot",
  "data": {
    "description": {
      "value": "\r\n<p><b>Price</b> 75 gp; <b>Weight</b> 1/2 lb.</p>\r\n<p>Harvested from a rare fungus, these small vials emit a bright blue glow, and are commonly used in intertribal <a href=\"https://www.d20pfsrd.com/races/other-races/featured-races/arg-kobold\">kobold</a> disputes. When broken, a fungal stun vial releases a flash of bright blue light in a 10-foot radius and dim light in a 20-foot radius. All creatures within the flash area must make a <a href=\"https://www.d20pfsrd.com/gamemastering/combat#TOC-Will\">Will</a> save (DC 20). Creatures that fail are <a href=\"https://www.d20pfsrd.com/gamemastering/conditions#TOC-Stunned\">stunned</a> for 1d2 rounds if they're in the area of bright light, or are <a href=\"https://www.d20pfsrd.com/gamemastering/conditions#TOC-Confused\">confused</a> for 1 round if in the area of dim light.</p>\r\n<p><b>Create</b>: <a href=\"https://www.d20pfsrd.com/skills/craft\">Craft</a> (alchemy) DC 30</p>\r\n",
      "chat": "",
      "unidentified": ""
    },
    "tags": [],
    "quantity": 1,
    "weight": 0.5,
    "price": 75,
    "identified": true,
    "hp": {
      "max": 10,
      "value": 10
    },
    "hardness": 0,
    "carried": true,
    "unidentified": {
      "price": 0,
      "name": ""
    },
    "identifiedName": "",
    "cl": 0,
    "aura": {
      "custom": false,
      "school": ""
    },
    "changes": [],
    "changeFlags": {
      "loseDexToAC": false,
      "noStr": false,
      "noDex": false,
      "oneInt": false,
      "oneWis": false,
      "oneCha": false,
      "noEncumbrance": false,
      "mediumArmorFullSpeed": false,
      "heavyArmorFullSpeed": false
    },
    "contextNotes": [],
    "links": {
      "children": []
    },
    "tag": "",
    "useCustomTag": false,
    "subType": "gear",
    "equipped": false,
    "damage": {
      "parts": []
    }
  },
  "flags": {},
  "img": "systems/pf1/icons/items/inventory/dice.jpg",
  "effects": []
}