{
  "_id": "xkunfssqoyoupryi",
  "name": "Kit, Alchemy Crafting",
  "permission": {
    "default": 0
  },
  "type": "loot",
  "data": {
    "description": {
      "value": "<p>An @Compendium[pf1.classes.JcaqlAawhf14q1lq]{Alchemist} with an alchemy crafting kit is assumed to have all the material <a href=\"https://www.d20pfsrd.com/magic#TOC-Components\">components</a> needed for his extracts, mutagens, and bombs, except for those <a href=\"https://www.d20pfsrd.com/magic#TOC-Components\">components</a> that have a specific cost. An alchemy crafting kit provides no bonuses on @Compendium[pf1.skills.L6LEhHRrn53cMuhE]{Craft (alchemy)} checks. (This item was previously called an \"alchemist's kit\", and was renamed to avoid confusion with the set of adventuring gear called an \"alchemist's kit.\")</p>",
      "chat": "",
      "unidentified": ""
    },
    "tags": [],
    "quantity": 1,
    "weight": 5,
    "price": 25,
    "identified": true,
    "hp": {
      "max": 10,
      "value": 10
    },
    "hardness": 0,
    "carried": true,
    "unidentified": {
      "price": 0,
      "name": ""
    },
    "identifiedName": "Kit, Alchemy Crafting",
    "cl": 0,
    "aura": {
      "custom": false,
      "school": ""
    },
    "changes": [],
    "changeFlags": {
      "loseDexToAC": false,
      "noStr": false,
      "noDex": false,
      "oneInt": false,
      "oneWis": false,
      "oneCha": false,
      "noEncumbrance": false,
      "mediumArmorFullSpeed": false,
      "heavyArmorFullSpeed": false
    },
    "contextNotes": [],
    "links": {
      "children": []
    },
    "tag": "",
    "useCustomTag": false,
    "subType": "gear",
    "equipped": false,
    "damage": {
      "parts": [],
      "critParts": [],
      "nonCritParts": []
    }
  },
  "flags": {},
  "img": "systems/pf1/icons/items/inventory/chest-stone.jpg",
  "effects": []
}