{
  "_id": "bloffifhzfkoxfpo",
  "name": "Locket, Poisoned",
  "permission": {
    "default": 0
  },
  "type": "loot",
  "data": {
    "description": {
      "value": " \n<p class=\"source\"><b>Source</b> PPC:P&amp;P</p> \n<p><b>Price</b> 75 gp; <b>Weight</b> -</p> \n<p>This heart-shaped locket is attached to a thin metal chain made of looped strands of gold or silver. Inside the locket is a small, spring-loaded vial that can hold a single dose of powdered <a href=\"https://www.d20pfsrd.com/gamemastering/afflictions/poison\">poison</a>. Loading the locket with poison carries the same risks as applying poison to a weapon. When the locket is opened, the vial is shattered by a ball bearing, releasing the powder into the air and treating the poison's type as if it were inhaled. The airborne poison affects all creatures within 10 feet of the locket.</p> \n",
      "chat": "",
      "unidentified": ""
    },
    "tags": [],
    "quantity": 1,
    "weight": 0,
    "price": 75,
    "identified": true,
    "hp": {
      "max": 10,
      "value": 10
    },
    "hardness": 0,
    "carried": true,
    "unidentified": {
      "price": 0,
      "name": ""
    },
    "identifiedName": "",
    "cl": 0,
    "aura": {
      "custom": false,
      "school": ""
    },
    "changes": [],
    "changeFlags": {
      "loseDexToAC": false,
      "noStr": false,
      "noDex": false,
      "oneInt": false,
      "oneWis": false,
      "oneCha": false,
      "noEncumbrance": false,
      "mediumArmorFullSpeed": false,
      "heavyArmorFullSpeed": false
    },
    "contextNotes": [],
    "links": {
      "children": []
    },
    "tag": "",
    "useCustomTag": false,
    "subType": "gear",
    "equipped": false,
    "damage": {
      "parts": []
    }
  },
  "flags": {},
  "img": "systems/pf1/icons/items/inventory/dice.jpg",
  "effects": []
}