{
  "_id": "mpyngunfovxthhsz",
  "name": "Oil, Quick Freeze",
  "permission": {
    "default": 0
  },
  "type": "loot",
  "data": {
    "description": {
      "value": "\r\n<p class=\"source\"><b>Source</b> <a href=\"http://www.amazon.com/gp/product/1601255101/ref=as_li_qf_sp_asin_il_tl?ie=UTF8&amp;camp=1789&amp;creative=9325&amp;creativeASIN=1601255101&amp;linkCode=as2&amp;tag=httpwwwd20pfs-20\" target=\"_blank\" rel=\"noopener\">PZO9430</a></p>\r\n<p><b>Price</b> 50 gp; <b>Weight</b> 1 lb.</p>\r\n<p>This bottle of viscous blue oil sublimates slightly when exposed to air. When poured over water, the oil pools on the surface and takes 1 round to spread out from the point of origin in a 20-foot radius. At the end of this round, the oil flash-freezes the surface of the water, creating an ice sheet over the affected area. Any 5-foot square of this ice can support up to 200 pounds of weight. Weight in excess of this amount causes the entire sheet to crack and quickly break up. This ice sheet becomes unstable and breaks up on its own after 1 hour, or 20 minutes in a hot climate. Any creature whose bare skin comes in contact with this oil takes 1d6 points of <a href=\"https://www.d20pfsrd.com/gamemastering/combat#TOC-Nonlethal-Damage\">nonlethal damage</a> each round because of the chemical's volatile nature, but the oil is ineffective as a <a href=\"https://www.d20pfsrd.com/gamemastering/combat#TOC-Throw-Splash-Weapon\">splash weapon</a>.</p>\r\n",
      "chat": "",
      "unidentified": ""
    },
    "tags": [],
    "quantity": 1,
    "weight": 1,
    "price": 50,
    "identified": true,
    "hp": {
      "max": 10,
      "value": 10
    },
    "hardness": 0,
    "carried": true,
    "unidentified": {
      "price": 0,
      "name": ""
    },
    "identifiedName": "",
    "cl": 0,
    "aura": {
      "custom": false,
      "school": ""
    },
    "changes": [],
    "changeFlags": {
      "loseDexToAC": false,
      "noStr": false,
      "noDex": false,
      "oneInt": false,
      "oneWis": false,
      "oneCha": false,
      "noEncumbrance": false,
      "mediumArmorFullSpeed": false,
      "heavyArmorFullSpeed": false
    },
    "contextNotes": [],
    "links": {
      "children": []
    },
    "tag": "",
    "useCustomTag": false,
    "subType": "gear",
    "equipped": false,
    "damage": {
      "parts": []
    }
  },
  "flags": {},
  "img": "systems/pf1/icons/items/inventory/dice.jpg",
  "effects": []
}