{
  "_id": "5bPq9fmGxiqBXFzc",
  "name": "Outfit, Companion Cold-Weather",
  "permission": {
    "default": 0
  },
  "type": "equipment",
  "data": {
    "description": {
      "value": "<p style=\"box-sizing: border-box; user-select: text; color: #191813; font-size: 13px;\">This vestment works just like a cold-weather outfit, granting a +5&nbsp;<a style=\"box-sizing: border-box; user-select: text;\" href=\"https://www.d20pfsrd.com/basics-ability-scores/glossary#TOC-Circumstance-Bonus\">circumstance bonus</a>&nbsp;on&nbsp;<a style=\"box-sizing: border-box; user-select: text;\" href=\"https://www.d20pfsrd.com/gamemastering/combat#TOC-Fortitude\">Fortitude</a>&nbsp;saving throws against exposure to cold weather, except it is custom made for an&nbsp;<a style=\"box-sizing: border-box; user-select: text;\" href=\"https://www.d20pfsrd.com/classes/core-classes/druid/animal-companions\">animal companion</a>. The added cost represents custom tailoring to ensure that the furs used don't cause unwanted reactions from the&nbsp;<a style=\"box-sizing: border-box; user-select: text;\" href=\"https://www.d20pfsrd.com/bestiary/rules-for-monsters/creature-types#TOC-Animal\">animal</a>&nbsp;wearing the outfit.</p>",
      "chat": "",
      "unidentified": ""
    },
    "tags": [],
    "quantity": 1,
    "weight": 6,
    "price": 15,
    "identified": true,
    "hp": {
      "max": 10,
      "value": 10
    },
    "hardness": 0,
    "carried": true,
    "unidentified": {
      "price": 0,
      "name": ""
    },
    "identifiedName": "Outfit, Companion Cold-Weather",
    "cl": 0,
    "aura": {
      "custom": false,
      "school": ""
    },
    "activation": {
      "cost": null,
      "type": ""
    },
    "unchainedAction": {
      "activation": {
        "cost": 1,
        "type": ""
      }
    },
    "duration": {
      "value": null,
      "units": ""
    },
    "target": {
      "value": ""
    },
    "range": {
      "value": null,
      "units": "",
      "maxIncrements": 1,
      "minValue": null,
      "minUnits": ""
    },
    "uses": {
      "value": 0,
      "max": 0,
      "per": null,
      "autoDeductCharges": true,
      "autoDeductChargesCost": "1"
    },
    "changes": [],
    "changeFlags": {
      "loseDexToAC": false,
      "noStr": false,
      "noDex": false,
      "oneInt": false,
      "oneWis": false,
      "oneCha": false,
      "noEncumbrance": false,
      "mediumArmorFullSpeed": false,
      "heavyArmorFullSpeed": false
    },
    "contextNotes": [
      {
        "text": "+[[5]] <b>Circumstance</b> vs cold weather effects",
        "target": "savingThrows",
        "subTarget": "fort"
      }
    ],
    "measureTemplate": {
      "type": "",
      "size": "",
      "overrideColor": false,
      "customColor": "",
      "overrideTexture": false,
      "customTexture": ""
    },
    "attackName": "",
    "actionType": null,
    "attackBonus": "",
    "critConfirmBonus": "",
    "damage": {
      "parts": [],
      "critParts": [],
      "nonCritParts": []
    },
    "attackParts": [],
    "formula": "",
    "ability": {
      "attack": null,
      "damage": null,
      "damageMult": 1,
      "critRange": 20,
      "critMult": 2
    },
    "save": {
      "dc": 0,
      "type": "",
      "description": ""
    },
    "effectNotes": "",
    "attackNotes": "",
    "soundEffect": "",
    "links": {
      "children": [],
      "charges": []
    },
    "tag": "",
    "useCustomTag": false,
    "equipped": true,
    "equipmentType": "misc",
    "equipmentSubtype": "clothing",
    "armor": {
      "value": 0,
      "dex": null,
      "acp": 0,
      "enh": 0
    },
    "spellFailure": 0,
    "slot": "body",
    "masterwork": false,
    "size": "med",
    "broken": false,
    "nonlethal": false,
    "attack": {
      "parts": []
    }
  },
  "flags": {},
  "img": "systems/pf1/icons/items/equipment/cloak-fur.jpg",
  "effects": []
}