{
  "_id": "gtwonlvknrijuisz",
  "name": "Poison Caps",
  "permission": {
    "default": 0
  },
  "type": "loot",
  "data": {
    "description": {
      "value": "\r\n<p class=\"source\"><b>Source</b> <a href=\"http://www.amazon.com/gp/product/1601254881/ref=as_li_qf_sp_asin_il_tl?ie=UTF8&amp;camp=1789&amp;creative=9325&amp;creativeASIN=1601254881&amp;linkCode=as2&amp;tag=httpwwwd20pfs-20\" target=\"_blank\" rel=\"noopener\">PPZO9410</a></p>\r\n<p><b>Price</b> 25 gp; <b>Weight</b> 1/2 lb.</p>\r\n<p>These small rubber cones attach to a creature's fangs and allow it to potentially <a href=\"https://www.d20pfsrd.com/gamemastering/afflictions/poison\">poison</a> those it bites. Poison caps must be filled with an injury <a href=\"https://www.d20pfsrd.com/gamemastering/afflictions/poison\">poison</a>, and must be attached to a creature's teeth prior to use. A creature equipped with poison caps deals bite damage as a creature one size smaller than usual, but the next time the creature makes a successful bite attack, it also injects the poison from the caps into its target. The price and weight listed above are for a pair of poison caps; both must be used simultaneously in order to be effective. A pair of poison caps can only be used once; they are effectively destroyed after a successful bite attack. The cost of the <a href=\"https://www.d20pfsrd.com/gamemastering/afflictions/poison\">poison</a> is not included in the cost of the poison caps.</p>\r\n\r\n",
      "chat": "",
      "unidentified": ""
    },
    "tags": [],
    "quantity": 1,
    "weight": 0.5,
    "price": 25,
    "identified": true,
    "hp": {
      "max": 10,
      "value": 10
    },
    "hardness": 0,
    "carried": true,
    "unidentified": {
      "price": 0,
      "name": ""
    },
    "identifiedName": "",
    "cl": 0,
    "aura": {
      "custom": false,
      "school": ""
    },
    "changes": [],
    "changeFlags": {
      "loseDexToAC": false,
      "noStr": false,
      "noDex": false,
      "oneInt": false,
      "oneWis": false,
      "oneCha": false,
      "noEncumbrance": false,
      "mediumArmorFullSpeed": false,
      "heavyArmorFullSpeed": false
    },
    "contextNotes": [],
    "links": {
      "children": []
    },
    "tag": "",
    "useCustomTag": false,
    "subType": "gear",
    "equipped": false,
    "damage": {
      "parts": []
    }
  },
  "flags": {},
  "img": "systems/pf1/icons/items/inventory/dice.jpg",
  "effects": []
}