{
  "_id": "avdskczyslzefify",
  "name": "Scent Cloak",
  "permission": {
    "default": 0
  },
  "type": "loot",
  "data": {
    "description": {
      "value": "\r\n<p><b>Price</b> 20 gp; <b>Weight</b> 2 lbs.</p>\r\n<p>This collection of coarsely ground spices, seeds, and alchemical reagents overrides your scent, increasing the DC of tracking you by scent by +10 for 24 hours. Because you still have a smell, creatures with <a href=\"https://www.d20pfsrd.com/gamemastering/special-abilities#TOC-Scent\">scent</a> can still detect and pinpoint if you are cloaked; they just can't identify your smell as something unique. Washing for 1 full round removes the scent cloak.</p>\r\n",
      "chat": "",
      "unidentified": ""
    },
    "tags": [],
    "quantity": 1,
    "weight": 2,
    "price": 20,
    "identified": true,
    "hp": {
      "max": 10,
      "value": 10
    },
    "hardness": 0,
    "carried": true,
    "unidentified": {
      "price": 0,
      "name": ""
    },
    "identifiedName": "",
    "cl": 0,
    "aura": {
      "custom": false,
      "school": ""
    },
    "changes": [],
    "changeFlags": {
      "loseDexToAC": false,
      "noStr": false,
      "noDex": false,
      "oneInt": false,
      "oneWis": false,
      "oneCha": false,
      "noEncumbrance": false,
      "mediumArmorFullSpeed": false,
      "heavyArmorFullSpeed": false
    },
    "contextNotes": [],
    "links": {
      "children": []
    },
    "tag": "",
    "useCustomTag": false,
    "subType": "gear",
    "equipped": false,
    "damage": {
      "parts": []
    }
  },
  "flags": {},
  "img": "systems/pf1/icons/items/inventory/dice.jpg",
  "effects": []
}