{
  "_id": "hohcxwqncmetform",
  "name": "Soothe Syrup",
  "permission": {
    "default": 0
  },
  "type": "loot",
  "data": {
    "description": {
      "value": "\r\n<p class=\"source\"><b>Source</b> <a title=\"PZO1115\" href=\"http://www.amazon.com/gp/product/1601252463/ref=as_li_qf_sp_asin_il_tl?ie=UTF8&amp;camp=1789&amp;creative=9325&amp;creativeASIN=1601252463&amp;linkCode=as2&amp;tag=httpwwwd20pfs-20\" target=\"_blank\" rel=\"noopener\">PZO1115</a></p>\r\n<p>This sweet and wholesome-tasting blue liquid creates a sense of warmth and comfort. Soothe syrup coats your stomach and makes it much more difficult for you to succumb to queasiness. For 1 hour after drinking soothe syrup you gain a +5 <a href=\"https://www.d20pfsrd.com/basics-ability-scores/glossary#TOC-Bonus-Alchemical-\">alchemical bonus</a> on <a href=\"https://www.d20pfsrd.com/gamemastering/combat#TOC-Saving-Throws\">saving throws</a> made to resist effects that would make you <a href=\"https://www.d20pfsrd.com/gamemastering/conditions#TOC-Nauseated\">nauseated</a> or <a href=\"https://www.d20pfsrd.com/gamemastering/conditions#TOC-Sickened\">sickened</a>.</p>\r\n<p><b>Create</b>: <a href=\"https://www.d20pfsrd.com/skills/craft\">Craft</a> (alchemy) DC 15</p>\r\n",
      "chat": "",
      "unidentified": ""
    },
    "tags": [],
    "quantity": 1,
    "weight": 0.5,
    "price": 25,
    "identified": true,
    "hp": {
      "max": 10,
      "value": 10
    },
    "hardness": 0,
    "carried": true,
    "unidentified": {
      "price": 0,
      "name": ""
    },
    "identifiedName": "",
    "cl": 0,
    "aura": {
      "custom": false,
      "school": ""
    },
    "changes": [],
    "changeFlags": {
      "loseDexToAC": false,
      "noStr": false,
      "noDex": false,
      "oneInt": false,
      "oneWis": false,
      "oneCha": false,
      "noEncumbrance": false,
      "mediumArmorFullSpeed": false,
      "heavyArmorFullSpeed": false
    },
    "contextNotes": [],
    "links": {
      "children": []
    },
    "tag": "",
    "useCustomTag": false,
    "subType": "gear",
    "equipped": false,
    "damage": {
      "parts": []
    }
  },
  "flags": {},
  "img": "systems/pf1/icons/items/inventory/dice.jpg",
  "effects": []
}