{
  "_id": "xyblokpjiuenfbqe",
  "name": "Tattoo",
  "permission": {
    "default": 0
  },
  "type": "loot",
  "data": {
    "description": {
      "value": " \n<p class=\"source\"><b>Source</b> <a title=\"PZO1115\" href=\"http://www.amazon.com/gp/product/1601252463/ref=as_li_qf_sp_asin_il_tl?ie=UTF8&amp;camp=1789&amp;creative=9325&amp;creativeASIN=1601252463&amp;linkCode=as2&amp;tag=httpwwwd20pfs-20\" target=\"_blank\" rel=\"noopener\">PZO1115</a></p> \n<p>The cost of a tattoo depends on the quality, size, and number of colors used. A coin-sized tattoo in blue ink that will blur over a decade may cost 1 cp, a hand-sized one in black ink that won't fade costs 1 sp, and a tattoo covering an entire back takes several sessions and costs 10 gp. Each additional color costs as much as a single tattoo of its size.</p> \n<p><a name=\"table-bags-boxes\"></a></p> \n<h3 style=\"margin-top: 30px;border-bottom-style: solid;border-bottom-width: thin\"><a name=\"TOC-Bags-Barrels-Boxes-Chests-Pouches\"></a>Bags, Barrels, Boxes, Chests &amp; Pouches</h3> \n<p>All containers are empty unless stated otherwise (price and weight are for container only.)</p> \n<table border=\"1\" cellpadding=\"5\"> \n <thead> \n  <tr> \n   <th colspan=\"4\" class=\"text\">Bags and Pouches</th> \n  </tr> \n  <tr> \n   <th class=\"text\">Item</th> \n   <th class=\"text\">Price</th> \n   <th class=\"text\">Weight</th> \n   <th class=\"text\">Source</th> \n  </tr> \n </thead> \n <tbody> \n  <tr> \n   <td class=\"text\"><a href=\"https://www.d20pfsrd.com/equipment/goods-and-services/hunting-camping-survival-geaR/#TOC-Backpack\">Backpack, common</a></td> \n   <td class=\"money number\">2 gp</td> \n   <td class=\"text\">2 lbs.<sup style=\"font-size: 10px\">1</sup></td> \n   <td class=\"source text\"><a title=\"PZO1123\" href=\"http://www.amazon.com/gp/product/1601254490/ref=as_li_qf_sp_asin_il_tl?ie=UTF8&amp;camp=1789&amp;creative=9325&amp;creativeASIN=1601254490&amp;linkCode=as2&amp;tag=httpwwwd20pfs-20\" target=\"_blank\" rel=\"noopener\">PZO1123</a></td> \n  </tr> \n  <tr> \n   <td class=\"text\"><a href=\"https://www.d20pfsrd.com/equipment/goods-and-services/hunting-camping-survival-geaR/#TOC-Backpack\">Backpack, masterwork</a></td> \n   <td class=\"money number\">50 gp</td> \n   <td class=\"text\">4 lbs.<sup style=\"font-size: 10px\">1</sup></td> \n   <td class=\"source text\"><a title=\"PZO1123\" href=\"http://www.amazon.com/gp/product/1601254490/ref=as_li_qf_sp_asin_il_tl?ie=UTF8&amp;camp=1789&amp;creative=9325&amp;creativeASIN=1601254490&amp;linkCode=as2&amp;tag=httpwwwd20pfs-20\" target=\"_blank\" rel=\"noopener\">PZO1123</a></td> \n  </tr> \n  <tr> \n   <td class=\"text\"><a href=\"https://www.d20pfsrd.com/equipment/goods-and-services/hunting-camping-survival-geaR/#TOC-Bag\">Bag, waterproof</a></td> \n   <td class=\"money number\">5 sp</td> \n   <td class=\"money text\">1/2 lb.</td> \n   <td class=\"source text\"><a title=\"PZO1123\" href=\"http://www.amazon.com/gp/product/1601254490/ref=as_li_qf_sp_asin_il_tl?ie=UTF8&amp;camp=1789&amp;creative=9325&amp;creativeASIN=1601254490&amp;linkCode=as2&amp;tag=httpwwwd20pfs-20\" target=\"_blank\" rel=\"noopener\">PZO1123</a></td> \n  </tr> \n  <tr> \n   <td class=\"text\"><a href=\"https://www.d20pfsrd.com/equipment/goods-and-services/hunting-camping-survival-geaR/#TOC-Bandolier\">Bandolier</a></td> \n   <td class=\"money number\">5 sp</td> \n   <td class=\"marker\">-</td> \n   <td class=\"source text\"><a title=\"PZO1123\" href=\"http://www.amazon.com/gp/product/1601254490/ref=as_li_qf_sp_asin_il_tl?ie=UTF8&amp;camp=1789&amp;creative=9325&amp;creativeASIN=1601254490&amp;linkCode=as2&amp;tag=httpwwwd20pfs-20\" target=\"_blank\" rel=\"noopener\">PZO1123</a></td> \n  </tr> \n  <tr> \n   <td class=\"text\"><a href=\"https://www.d20pfsrd.com/equipment/goods-and-services/hunting-camping-survival-geaR/#TOC-Pocket-inside\">Pocket, inside</a></td> \n   <td class=\"number\">4 gp</td> \n   <td class=\"marker\">-</td> \n   <td class=\"source text\"><a href=\"http://amzn.to/2z71S07\" target=\"_blank\" rel=\"noopener\">PZO1140</a></td> \n  </tr> \n  <tr> \n   <td class=\"text\"><a href=\"https://www.d20pfsrd.com/equipment/goods-and-services/hunting-camping-survival-geaR/#TOC-Pouch\">Pouch, belt</a></td> \n   <td class=\"money number\">1 gp</td> \n   <td class=\"text\">1/2 lb.<sup style=\"font-size: 10px\">1</sup></td> \n   <td class=\"source text\"><a title=\"PZO1123\" href=\"http://www.amazon.com/gp/product/1601254490/ref=as_li_qf_sp_asin_il_tl?ie=UTF8&amp;camp=1789&amp;creative=9325&amp;creativeASIN=1601254490&amp;linkCode=as2&amp;tag=httpwwwd20pfs-20\" target=\"_blank\" rel=\"noopener\">PZO1123</a></td> \n  </tr> \n  <tr> \n   <td class=\"text\"><a href=\"https://www.d20pfsrd.com/equipment/goods-and-services/hunting-camping-survival-geaR/#TOC-Pouch\">Pouch, spell components</a></td> \n   <td class=\"money number\">5 gp</td> \n   <td class=\"money text\">2 lbs.</td> \n   <td class=\"source text\"><a title=\"PZO1110\" href=\"http://www.amazon.com/gp/product/1601251505/ref=as_li_qf_sp_asin_il_tl?ie=UTF8&amp;camp=1789&amp;creative=9325&amp;creativeASIN=1601251505&amp;linkCode=as2&amp;tag=httpwwwd20pfs-20\" target=\"_blank\" rel=\"noopener\">PZO1110</a></td> \n  </tr> \n  <tr> \n   <td class=\"text\"><a href=\"https://www.d20pfsrd.com/equipment/goods-and-services/hunting-camping-survival-geaR/#TOC-Pouch-waist\">Pouch, waist</a></td> \n   <td class=\"number\">5 sp</td> \n   <td class=\"text\">1/2 lb.</td> \n   <td class=\"source text\"><a href=\"http://amzn.to/2z71S07\" target=\"_blank\" rel=\"noopener\">PZO1140</a></td> \n  </tr> \n  <tr> \n   <td class=\"text\"><a href=\"https://www.d20pfsrd.com/equipment/goods-and-services/hunting-camping-survival-geaR/#TOC-Pouch\">Pouch, war spirit</a></td> \n   <td class=\"money number\">50 gp</td> \n   <td class=\"marker\">-</td> \n   <td class=\"source text\"><a title=\"PZO1121\" href=\"http://www.amazon.com/gp/product/1601253907/ref=as_li_qf_sp_asin_il_tl?ie=UTF8&amp;camp=1789&amp;creative=9325&amp;creativeASIN=1601253907&amp;linkCode=as2&amp;tag=httpwwwd20pfs-20\" target=\"_blank\" rel=\"noopener\">PZO1121</a></td> \n  </tr> \n  <tr> \n   <td class=\"text\"><a href=\"https://www.d20pfsrd.com/equipment/goods-and-services/hunting-camping-survival-geaR/#TOC-Sack\">Sack</a></td> \n   <td class=\"money number\">1 sp</td> \n   <td class=\"text\">1/2 lb.<sup style=\"font-size: 10px\">1</sup></td> \n   <td class=\"source text\"><a title=\"PZO1110\" href=\"http://www.amazon.com/gp/product/1601251505/ref=as_li_qf_sp_asin_il_tl?ie=UTF8&amp;camp=1789&amp;creative=9325&amp;creativeASIN=1601251505&amp;linkCode=as2&amp;tag=httpwwwd20pfs-20\" target=\"_blank\" rel=\"noopener\">PZO1110</a></td> \n  </tr> \n  <tr> \n   <td class=\"text\"><a href=\"https://www.d20pfsrd.com/equipment/goods-and-services/hunting-camping-survival-geaR/#TOC-Familiar-Satchel\">Satchel, familiar</a></td> \n   <td class=\"money number\">25 gp</td> \n   <td class=\"money text\">6 lbs.</td> \n   <td class=\"source text\"><a title=\"PZO1123\" href=\"http://www.amazon.com/gp/product/1601254490/ref=as_li_qf_sp_asin_il_tl?ie=UTF8&amp;camp=1789&amp;creative=9325&amp;creativeASIN=1601254490&amp;linkCode=as2&amp;tag=httpwwwd20pfs-20\" target=\"_blank\" rel=\"noopener\">PZO1123</a></td> \n  </tr> \n  <tr> \n   <td class=\"text\"><a href=\"https://www.d20pfsrd.com/equipment/goods-and-services/hunting-camping-survival-geaR/#TOC-Waterskin\">Waterskin</a></td> \n   <td class=\"money number\">1 gp</td> \n   <td class=\"text\">4 lbs.<sup style=\"font-size: 10px\">1</sup></td> \n   <td class=\"source text\"><a title=\"PZO1110\" href=\"http://www.amazon.com/gp/product/1601251505/ref=as_li_qf_sp_asin_il_tl?ie=UTF8&amp;camp=1789&amp;creative=9325&amp;creativeASIN=1601251505&amp;linkCode=as2&amp;tag=httpwwwd20pfs-20\" target=\"_blank\" rel=\"noopener\">PZO1110</a></td> \n  </tr> \n </tbody> \n</table> \n<table border=\"1\" cellpadding=\"5\"> \n <thead> \n  <tr> \n   <th colspan=\"4\" class=\"text\">Barrels, Boxes, and Chests</th> \n  </tr> \n  <tr> \n   <th class=\"text\">Item</th> \n   <th class=\"text\">Price</th> \n   <th class=\"text\">Weight</th> \n   <th class=\"text\">Source</th> \n  </tr> \n </thead> \n <tbody> \n  <tr> \n   <td class=\"text\"><a href=\"https://www.d20pfsrd.com/equipment/goods-and-services/hunting-camping-survival-geaR/#TOC-Barrel\">Barrel</a></td> \n   <td class=\"money number\">2 gp</td> \n   <td class=\"money text\">30 lbs.</td> \n   <td class=\"source text\"><a title=\"PZO1123\" href=\"http://www.amazon.com/gp/product/1601254490/ref=as_li_qf_sp_asin_il_tl?ie=UTF8&amp;camp=1789&amp;creative=9325&amp;creativeASIN=1601254490&amp;linkCode=as2&amp;tag=httpwwwd20pfs-20\" target=\"_blank\" rel=\"noopener\">PZO1123</a></td> \n  </tr> \n  <tr> \n   <td class=\"text\"><a href=\"https://www.d20pfsrd.com/equipment/goods-and-services/hunting-camping-survival-geaR/#TOC-Basket\">Basket</a></td> \n   <td class=\"money number\">4 sp</td> \n   <td class=\"money text\">1 lb.</td> \n   <td class=\"source text\"><a title=\"PZO1123\" href=\"http://www.amazon.com/gp/product/1601254490/ref=as_li_qf_sp_asin_il_tl?ie=UTF8&amp;camp=1789&amp;creative=9325&amp;creativeASIN=1601254490&amp;linkCode=as2&amp;tag=httpwwwd20pfs-20\" target=\"_blank\" rel=\"noopener\">PZO1123</a></td> \n  </tr> \n  <tr> \n   <td class=\"text\"><a href=\"https://www.d20pfsrd.com/equipment/goods-and-services/hunting-camping-survival-geaR/#TOC-Bottle\">Bottle</a></td> \n   <td class=\"money number\">2 gp</td> \n   <td class=\"money text\">1 lb.</td> \n   <td class=\"source text\"><a title=\"PZO1123\" href=\"http://www.amazon.com/gp/product/1601254490/ref=as_li_qf_sp_asin_il_tl?ie=UTF8&amp;camp=1789&amp;creative=9325&amp;creativeASIN=1601254490&amp;linkCode=as2&amp;tag=httpwwwd20pfs-20\" target=\"_blank\" rel=\"noopener\">PZO1123</a></td> \n  </tr> \n  <tr> \n   <td class=\"text\"><a href=\"https://www.d20pfsrd.com/equipment/goods-and-services/hunting-camping-survival-geaR/#TOC-Box-Scroll\">Box, scroll</a></td> \n   <td class=\"money number\">5 gp</td> \n   <td class=\"money text\">1 lb.</td> \n   <td class=\"source text\"><a title=\"PZO1123\" href=\"http://www.amazon.com/gp/product/1601254490/ref=as_li_qf_sp_asin_il_tl?ie=UTF8&amp;camp=1789&amp;creative=9325&amp;creativeASIN=1601254490&amp;linkCode=as2&amp;tag=httpwwwd20pfs-20\" target=\"_blank\" rel=\"noopener\">PZO1123</a></td> \n  </tr> \n  <tr> \n   <td class=\"text\"><a href=\"https://www.d20pfsrd.com/equipment/goods-and-services/hunting-camping-survival-geaR/#TOC-Bucket\">Bucket</a></td> \n   <td class=\"money number\">5 sp</td> \n   <td class=\"money text\">2 lbs.</td> \n   <td class=\"source text\"><a title=\"PZO1123\" href=\"http://www.amazon.com/gp/product/1601254490/ref=as_li_qf_sp_asin_il_tl?ie=UTF8&amp;camp=1789&amp;creative=9325&amp;creativeASIN=1601254490&amp;linkCode=as2&amp;tag=httpwwwd20pfs-20\" target=\"_blank\" rel=\"noopener\">PZO1123</a></td> \n  </tr> \n  <tr> \n   <td class=\"text\"><a href=\"https://www.d20pfsrd.com/equipment/goods-and-services/hunting-camping-survival-geaR/#TOC-Canteen\">Canteen</a></td> \n   <td class=\"money number\">2 gp</td> \n   <td class=\"money text\">1 lb.</td> \n   <td class=\"source text\"><a title=\"PZO1123\" href=\"http://www.amazon.com/gp/product/1601254490/ref=as_li_qf_sp_asin_il_tl?ie=UTF8&amp;camp=1789&amp;creative=9325&amp;creativeASIN=1601254490&amp;linkCode=as2&amp;tag=httpwwwd20pfs-20\" target=\"_blank\" rel=\"noopener\">PZO1123</a></td> \n  </tr> \n  <tr> \n   <td class=\"text\"><a href=\"https://www.d20pfsrd.com/equipment/goods-and-services/hunting-camping-survival-geaR/#TOC-Case-Scroll\">Case, scroll</a></td> \n   <td class=\"money number\">1 gp</td> \n   <td class=\"money text\">1/2 lb.</td> \n   <td class=\"source text\"><a title=\"PZO1123\" href=\"http://www.amazon.com/gp/product/1601254490/ref=as_li_qf_sp_asin_il_tl?ie=UTF8&amp;camp=1789&amp;creative=9325&amp;creativeASIN=1601254490&amp;linkCode=as2&amp;tag=httpwwwd20pfs-20\" target=\"_blank\" rel=\"noopener\">PZO1123</a></td> \n  </tr> \n  <tr> \n   <td class=\"text\"><a href=\"https://www.d20pfsrd.com/equipment/goods-and-services/hunting-camping-survival-geaR/#TOC-Cauldron\">Cauldron</a></td> \n   <td class=\"money number\">1 gp</td> \n   <td class=\"money text\">5 lbs.</td> \n   <td class=\"source text\"><a title=\"PZO1123\" href=\"http://www.amazon.com/gp/product/1601254490/ref=as_li_qf_sp_asin_il_tl?ie=UTF8&amp;camp=1789&amp;creative=9325&amp;creativeASIN=1601254490&amp;linkCode=as2&amp;tag=httpwwwd20pfs-20\" target=\"_blank\" rel=\"noopener\">PZO1123</a></td> \n  </tr> \n  <tr> \n   <td class=\"text\"><a href=\"https://www.d20pfsrd.com/equipment/goods-and-services/hunting-camping-survival-geaR/#TOC-Cauldron\">Cauldron, mithral</a></td> \n   <td class=\"money number\">2,501 gp</td> \n   <td class=\"money text\">2-1/2 lbs.</td> \n   <td class=\"source text\"><a title=\"PZO1123\" href=\"http://www.amazon.com/gp/product/1601254490/ref=as_li_qf_sp_asin_il_tl?ie=UTF8&amp;camp=1789&amp;creative=9325&amp;creativeASIN=1601254490&amp;linkCode=as2&amp;tag=httpwwwd20pfs-20\" target=\"_blank\" rel=\"noopener\">PZO1123</a></td> \n  </tr> \n  <tr> \n   <td class=\"text\"><a href=\"https://www.d20pfsrd.com/equipment/goods-and-services/hunting-camping-survival-geaR/#TOC-Chest\">Chest</a>, Small / Small treasure chest</td> \n   <td class=\"money number\">2 gp / 3 gp</td> \n   <td class=\"money text\">25 lbs.</td> \n   <td class=\"source text\"><a title=\"PZO9410\" href=\"http://www.amazon.com/gp/product/1601252226/ref=as_li_qf_sp_asin_il_tl?ie=UTF8&amp;camp=1789&amp;creative=9325&amp;creativeASIN=1601252226&amp;linkCode=as2&amp;tag=httpwwwd20pfs-20\" target=\"_blank\" rel=\"noopener\">PZO9410</a>/<a title=\"PPC:PotIS\" href=\"http://www.amazon.com/gp/product/1601254059/ref=as_li_qf_sp_asin_il_tl?ie=UTF8&amp;camp=1789&amp;creative=9325&amp;creativeASIN=1601254059&amp;linkCode=as2&amp;tag=httpwwwd20pfs-20\" target=\"_blank\" rel=\"noopener\">PoIS</a></td> \n  </tr> \n  <tr> \n   <td class=\"text\"><a href=\"https://www.d20pfsrd.com/equipment/goods-and-services/hunting-camping-survival-geaR/#TOC-Chest\">Chest</a>, Medium / Medium treasure chest</td> \n   <td class=\"money number\">5 gp / 7 gp</td> \n   <td class=\"money text\">50 lbs.</td> \n   <td class=\"source text\"><a title=\"PZO1110\" href=\"http://www.amazon.com/gp/product/1601251505/ref=as_li_qf_sp_asin_il_tl?ie=UTF8&amp;camp=1789&amp;creative=9325&amp;creativeASIN=1601251505&amp;linkCode=as2&amp;tag=httpwwwd20pfs-20\" target=\"_blank\" rel=\"noopener\">PZO1110</a>/<a title=\"PPC:PotIS\" href=\"http://www.amazon.com/gp/product/1601254059/ref=as_li_qf_sp_asin_il_tl?ie=UTF8&amp;camp=1789&amp;creative=9325&amp;creativeASIN=1601254059&amp;linkCode=as2&amp;tag=httpwwwd20pfs-20\" target=\"_blank\" rel=\"noopener\">PoIS</a></td> \n  </tr> \n  <tr> \n   <td class=\"text\"><a href=\"https://www.d20pfsrd.com/equipment/goods-and-services/hunting-camping-survival-geaR/#TOC-Chest\">Chest</a>, Large / Large treasure chest</td> \n   <td class=\"money number\">10 gp / 15 gp</td> \n   <td class=\"money text\">100 lbs.</td> \n   <td class=\"source text\"><a title=\"PZO1110\" href=\"http://www.amazon.com/gp/product/1601251505/ref=as_li_qf_sp_asin_il_tl?ie=UTF8&amp;camp=1789&amp;creative=9325&amp;creativeASIN=1601251505&amp;linkCode=as2&amp;tag=httpwwwd20pfs-20\" target=\"_blank\" rel=\"noopener\">PZO1110</a>/<a title=\"PPC:PotIS\" href=\"http://www.amazon.com/gp/product/1601254059/ref=as_li_qf_sp_asin_il_tl?ie=UTF8&amp;camp=1789&amp;creative=9325&amp;creativeASIN=1601254059&amp;linkCode=as2&amp;tag=httpwwwd20pfs-20\" target=\"_blank\" rel=\"noopener\">PoIS</a></td> \n  </tr> \n  <tr> \n   <td class=\"text\"><a href=\"https://www.d20pfsrd.com/equipment/goods-and-services/hunting-camping-survival-geaR/#TOC-Chest\">Chest</a>, Huge / Huge treasure chest</td> \n   <td class=\"money number\">25 gp / 37 gp</td> \n   <td class=\"money text\">250 lbs.</td> \n   <td class=\"source text\"><a title=\"PZO1110\" href=\"http://www.amazon.com/gp/product/1601251505/ref=as_li_qf_sp_asin_il_tl?ie=UTF8&amp;camp=1789&amp;creative=9325&amp;creativeASIN=1601251505&amp;linkCode=as2&amp;tag=httpwwwd20pfs-20\" target=\"_blank\" rel=\"noopener\">PZO1110</a>/<a title=\"PPC:PotIS\" href=\"http://www.amazon.com/gp/product/1601254059/ref=as_li_qf_sp_asin_il_tl?ie=UTF8&amp;camp=1789&amp;creative=9325&amp;creativeASIN=1601254059&amp;linkCode=as2&amp;tag=httpwwwd20pfs-20\" target=\"_blank\" rel=\"noopener\">PoIS</a></td> \n  </tr> \n  <tr> \n   <td class=\"text\"><a href=\"https://www.d20pfsrd.com/equipment/goods-and-services/hunting-camping-survival-geaR/#TOC-Chest-Cooler\">Cooler</a></td> \n   <td class=\"money number\">25 gp</td> \n   <td class=\"money text\">60 lbs.</td> \n  </tr> \n  <tr> \n   <td class=\"text\"><a href=\"https://www.d20pfsrd.com/equipment/goods-and-services/hunting-camping-survival-geaR/#TOC-Chest\">Chest</a>, false bottomed</td> \n   <td class=\"money number\">52 gp</td> \n   <td class=\"money text\">25 lbs.</td> \n   <td class=\"source text\"><a title=\"PZO9410\" href=\"http://www.amazon.com/gp/product/1601252226/ref=as_li_qf_sp_asin_il_tl?ie=UTF8&amp;camp=1789&amp;creative=9325&amp;creativeASIN=1601252226&amp;linkCode=as2&amp;tag=httpwwwd20pfs-20\" target=\"_blank\" rel=\"noopener\">PZO9410</a></td> \n  </tr> \n  <tr> \n   <td class=\"text\"><a href=\"https://www.d20pfsrd.com/equipment/goods-and-services/hunting-camping-survival-geaR/#TOC-Coffee-Pot\">Coffee pot</a></td> \n   <td class=\"money number\">3 gp</td> \n   <td class=\"money text\">4 lbs.</td> \n   <td class=\"source text\"><a title=\"PZO1123\" href=\"http://www.amazon.com/gp/product/1601254490/ref=as_li_qf_sp_asin_il_tl?ie=UTF8&amp;camp=1789&amp;creative=9325&amp;creativeASIN=1601254490&amp;linkCode=as2&amp;tag=httpwwwd20pfs-20\" target=\"_blank\" rel=\"noopener\">PZO1123</a></td> \n  </tr> \n  <tr> \n   <td class=\"text\"><a href=\"https://www.d20pfsrd.com/equipment/goods-and-services/hunting-camping-survival-geaR/#TOC-Coffin\">Coffin, common</a></td> \n   <td class=\"money number\">10 gp</td> \n   <td class=\"text\">30 lbs.<sup style=\"font-size: 10px\">1</sup></td> \n   <td class=\"source text\"><a title=\"PZO1123\" href=\"http://www.amazon.com/gp/product/1601254490/ref=as_li_qf_sp_asin_il_tl?ie=UTF8&amp;camp=1789&amp;creative=9325&amp;creativeASIN=1601254490&amp;linkCode=as2&amp;tag=httpwwwd20pfs-20\" target=\"_blank\" rel=\"noopener\">PZO1123</a></td> \n  </tr> \n  <tr> \n   <td class=\"text\"><a href=\"https://www.d20pfsrd.com/equipment/goods-and-services/hunting-camping-survival-geaR/#TOC-Coffin\">Coffin, ornate</a></td> \n   <td class=\"money number\">100 gp</td> \n   <td class=\"text\">50 lbs.<sup style=\"font-size: 10px\">1</sup></td> \n   <td class=\"source text\"><a title=\"PZO1123\" href=\"http://www.amazon.com/gp/product/1601254490/ref=as_li_qf_sp_asin_il_tl?ie=UTF8&amp;camp=1789&amp;creative=9325&amp;creativeASIN=1601254490&amp;linkCode=as2&amp;tag=httpwwwd20pfs-20\" target=\"_blank\" rel=\"noopener\">PZO1123</a></td> \n  </tr> \n  <tr> \n   <td class=\"text\"><a href=\"https://www.d20pfsrd.com/equipment/goods-and-services/hunting-camping-survival-geaR/#TOC-Cup\">Cup</a></td> \n   <td class=\"money number\">1 gp</td> \n   <td class=\"marker\">-</td> \n   <td class=\"source text\"><a title=\"PZO9410\" href=\"http://www.amazon.com/gp/product/1601252226/ref=as_li_qf_sp_asin_il_tl?ie=UTF8&amp;camp=1789&amp;creative=9325&amp;creativeASIN=1601252226&amp;linkCode=as2&amp;tag=httpwwwd20pfs-20\" target=\"_blank\" rel=\"noopener\">PZO9410</a></td> \n  </tr> \n  <tr> \n   <td class=\"text\"><a href=\"https://www.d20pfsrd.com/equipment/goods-and-services/hunting-camping-survival-geaR/#TOC-Cup\">Cup, false bottomed</a></td> \n   <td class=\"money number\">1 gp</td> \n   <td class=\"marker\">-</td> \n   <td class=\"source text\"><a title=\"PZO1123\" href=\"http://www.amazon.com/gp/product/1601254490/ref=as_li_qf_sp_asin_il_tl?ie=UTF8&amp;camp=1789&amp;creative=9325&amp;creativeASIN=1601254490&amp;linkCode=as2&amp;tag=httpwwwd20pfs-20\" target=\"_blank\" rel=\"noopener\">PZO1123</a></td> \n  </tr> \n  <tr> \n   <td class=\"text\"><a href=\"https://www.d20pfsrd.com/equipment/goods-and-services/hunting-camping-survival-geaR/#TOC-Flask\">Flask</a></td> \n   <td class=\"money number\">3 cp</td> \n   <td class=\"money text\">1-1/2 lbs.</td> \n   <td class=\"source text\"><a title=\"PZO1123\" href=\"http://www.amazon.com/gp/product/1601254490/ref=as_li_qf_sp_asin_il_tl?ie=UTF8&amp;camp=1789&amp;creative=9325&amp;creativeASIN=1601254490&amp;linkCode=as2&amp;tag=httpwwwd20pfs-20\" target=\"_blank\" rel=\"noopener\">PZO1123</a></td> \n  </tr> \n  <tr> \n   <td class=\"text\"><a href=\"https://www.d20pfsrd.com/equipment/goods-and-services/hunting-camping-survival-geaR/#TOC-Flask\">Flask, hip</a></td> \n   <td class=\"money number\">1 gp</td> \n   <td class=\"text\">1/2 lb.<sup style=\"font-size: 10px\">1</sup></td> \n   <td class=\"source text\"><a title=\"PZO1123\" href=\"http://www.amazon.com/gp/product/1601254490/ref=as_li_qf_sp_asin_il_tl?ie=UTF8&amp;camp=1789&amp;creative=9325&amp;creativeASIN=1601254490&amp;linkCode=as2&amp;tag=httpwwwd20pfs-20\" target=\"_blank\" rel=\"noopener\">PZO1123</a></td> \n  </tr> \n  <tr> \n   <td class=\"text\">Goblet, poisoner's</td> \n   <td class=\"money number\">100 gp</td> \n   <td class=\"money text\">2 lbs.</td> \n   <td class=\"text\">PPC:P&amp;P</td> \n  </tr> \n  <tr> \n   <td class=\"text\"><a href=\"https://www.d20pfsrd.com/equipment/goods-and-services/hunting-camping-survival-geaR/#TOC-Jug\">Jug</a></td> \n   <td class=\"money number\">3 cp</td> \n   <td class=\"money text\">9 lbs.</td> \n   <td class=\"source text\"><a title=\"PZO1123\" href=\"http://www.amazon.com/gp/product/1601254490/ref=as_li_qf_sp_asin_il_tl?ie=UTF8&amp;camp=1789&amp;creative=9325&amp;creativeASIN=1601254490&amp;linkCode=as2&amp;tag=httpwwwd20pfs-20\" target=\"_blank\" rel=\"noopener\">PZO1123</a></td> \n  </tr> \n  <tr> \n   <td class=\"text\"><a href=\"https://www.d20pfsrd.com/equipment/goods-and-services/hunting-camping-survival-geaR/#TOC-Mug\">Mug/Tankard, clay</a></td> \n   <td class=\"money number\">2 cp</td> \n   <td class=\"money text\">1 lbs.</td> \n   <td class=\"source text\"><a title=\"PZO1110\" href=\"http://www.amazon.com/gp/product/1601251505/ref=as_li_qf_sp_asin_il_tl?ie=UTF8&amp;camp=1789&amp;creative=9325&amp;creativeASIN=1601251505&amp;linkCode=as2&amp;tag=httpwwwd20pfs-20\" target=\"_blank\" rel=\"noopener\">PZO1110</a></td> \n  </tr> \n  <tr> \n   <td class=\"text\"><a href=\"https://www.d20pfsrd.com/equipment/goods-and-services/hunting-camping-survival-geaR/#TOC-Pitcher\">Pitcher</a></td> \n   <td class=\"money number\">2 cp</td> \n   <td class=\"money text\">5 lbs.</td> \n   <td class=\"source text\"><a title=\"PZO1123\" href=\"http://www.amazon.com/gp/product/1601254490/ref=as_li_qf_sp_asin_il_tl?ie=UTF8&amp;camp=1789&amp;creative=9325&amp;creativeASIN=1601254490&amp;linkCode=as2&amp;tag=httpwwwd20pfs-20\" target=\"_blank\" rel=\"noopener\">PZO1123</a></td> \n  </tr> \n  <tr> \n   <td class=\"text\"><a href=\"https://www.d20pfsrd.com/equipment/goods-and-services/hunting-camping-survival-geaR/#TOC-Pot\">Pot, iron</a></td> \n   <td class=\"money number\">8 sp</td> \n   <td class=\"money text\">4 lbs.</td> \n   <td class=\"source text\"><a title=\"PZO1110\" href=\"http://www.amazon.com/gp/product/1601251505/ref=as_li_qf_sp_asin_il_tl?ie=UTF8&amp;camp=1789&amp;creative=9325&amp;creativeASIN=1601251505&amp;linkCode=as2&amp;tag=httpwwwd20pfs-20\" target=\"_blank\" rel=\"noopener\">PZO1110</a></td> \n  </tr> \n  <tr> \n   <td class=\"text\">Pot, mithral</td> \n   <td class=\"money number\">2,001 gp</td> \n   <td class=\"money text\">2 lbs.</td> \n   <td class=\"source text\">PZO1123</td> \n  </tr> \n  <tr> \n   <td class=\"text\"><a href=\"https://www.d20pfsrd.com/equipment/goods-and-services/hunting-camping-survival-geaR/#TOC-Potion-Sponge\">Potion Sponge</a></td> \n   <td class=\"money number\">2 gp</td> \n   <td class=\"marker\">-</td> \n   <td class=\"source text\"><a title=\"PZO1121\" href=\"http://www.amazon.com/gp/product/1601253907/ref=as_li_qf_sp_asin_il_tl?ie=UTF8&amp;camp=1789&amp;creative=9325&amp;creativeASIN=1601253907&amp;linkCode=as2&amp;tag=httpwwwd20pfs-20\" target=\"_blank\" rel=\"noopener\">PZO1121</a></td> \n  </tr> \n  <tr> \n   <td class=\"text\"><a href=\"https://www.d20pfsrd.com/equipment/goods-and-services/hunting-camping-survival-geaR/#TOC-Vial\">Vial</a> (for ink or potions)</td> \n   <td class=\"money number\">1 gp</td> \n   <td class=\"marker\">-</td> \n   <td class=\"source text\"><a title=\"PZO1123\" href=\"http://www.amazon.com/gp/product/1601254490/ref=as_li_qf_sp_asin_il_tl?ie=UTF8&amp;camp=1789&amp;creative=9325&amp;creativeASIN=1601254490&amp;linkCode=as2&amp;tag=httpwwwd20pfs-20\" target=\"_blank\" rel=\"noopener\">PZO1123</a></td> \n  </tr> \n  <tr> \n   <td class=\"text\"><a href=\"https://www.d20pfsrd.com/equipment/goods-and-services/hunting-camping-survival-geaR/#TOC-Vial\">Vial, iron</a></td> \n   <td class=\"money number\">1 sp</td> \n   <td class=\"money text\">1 lb.</td> \n   <td class=\"source text\"><a title=\"PZO1123\" href=\"http://www.amazon.com/gp/product/1601254490/ref=as_li_qf_sp_asin_il_tl?ie=UTF8&amp;camp=1789&amp;creative=9325&amp;creativeASIN=1601254490&amp;linkCode=as2&amp;tag=httpwwwd20pfs-20\" target=\"_blank\" rel=\"noopener\">PZO1123</a></td> \n  </tr> \n </tbody> \n</table> \n<table border=\"1\" cellpadding=\"5\"> \n <thead> \n  <tr> \n   <th colspan=\"4\" class=\"text\">Other Containers</th> \n  </tr> \n  <tr> \n   <th class=\"text\">Item</th> \n   <th class=\"text\">Price</th> \n   <th class=\"text\">Weight</th> \n   <th class=\"text\">Source</th> \n  </tr> \n </thead> \n <tbody> \n  <tr> \n   <td class=\"text\"><a href=\"https://www.d20pfsrd.com/equipment/goods-and-services/hunting-camping-survival-geaR/#TOC-Aquarian-Ball\">Aquarium ball</a></td> \n   <td class=\"money number\">80 gp</td> \n   <td class=\"money text\">20 lbs.</td> \n   <td class=\"source text\"><a title=\"PPC:FF\" href=\"http://www.amazon.com/gp/product/1601257317/ref=as_li_qf_sp_asin_il_tl?ie=UTF8&amp;camp=1789&amp;creative=9325&amp;creativeASIN=1601257317&amp;linkCode=as2&amp;tag=httpwwwd20pfs-20&amp;linkId=AAR3V2AZDSYEVIBQ\" target=\"_blank\" rel=\"noopener\">PPC:FF</a></td> \n  </tr> \n  <tr> \n   <td class=\"text\">Rockshard canister</td> \n   <td class=\"money number\">50 gp</td> \n   <td class=\"money text\">25 lbs.</td> \n   <td class=\"text\"><a href=\"http://www.amazon.com/gp/product/1601257325/ref=as_li_qf_sp_asin_il_tl?ie=UTF8&amp;camp=1789&amp;creative=9325&amp;creativeASIN=1601257325&amp;linkCode=as2&amp;tag=httpwwwd20pfs-20&amp;linkId=RTYNEYJM7WKLVCFB\" target=\"_blank\" rel=\"noopener\">MTT</a></td> \n  </tr> \n </tbody> \n</table> \n<p class=\"source\"><sup style=\"font-size: 10px\">1</sup> These items weigh one-quarter this amount when made for Small characters. Containers for Small characters also carry one-quarter the normal amount.<br><sup style=\"font-size: 10px\">2</sup> These items weigh approximately three-quarters this amount when made for Small characters. Containers for Small characters also carry one-quarter the normal amount.</p> \n",
      "chat": "",
      "unidentified": ""
    },
    "tags": [],
    "quantity": 1,
    "weight": 0,
    "price": 0.01,
    "identified": true,
    "hp": {
      "max": 10,
      "value": 10
    },
    "hardness": 0,
    "carried": true,
    "unidentified": {
      "price": 0,
      "name": ""
    },
    "identifiedName": "",
    "cl": 0,
    "aura": {
      "custom": false,
      "school": ""
    },
    "changes": [],
    "changeFlags": {
      "loseDexToAC": false,
      "noStr": false,
      "noDex": false,
      "oneInt": false,
      "oneWis": false,
      "oneCha": false,
      "noEncumbrance": false,
      "mediumArmorFullSpeed": false,
      "heavyArmorFullSpeed": false
    },
    "contextNotes": [],
    "links": {
      "children": []
    },
    "tag": "",
    "useCustomTag": false,
    "subType": "gear",
    "equipped": false,
    "damage": {
      "parts": []
    }
  },
  "flags": {},
  "img": "systems/pf1/icons/items/inventory/dice.jpg",
  "effects": []
}