{
  "_id": "raviqbfzysuedqle",
  "name": "Tea, Ceremonial",
  "permission": {
    "default": 0
  },
  "type": "loot",
  "data": {
    "description": {
      "value": "<h4><span id=\"Tea_Ceremonial\"><a name=\"TOC-Tea-Ceremonial\"></a>Tea, Ceremonial</span></h4>\r\n<p class=\"source\"><b>Source</b> <a title=\"PPZO9410\" href=\"http://www.amazon.com/gp/product/1601252226/ref=as_li_qf_sp_asin_il_tl?ie=UTF8&amp;camp=1789&amp;creative=9325&amp;creativeASIN=1601252226&amp;linkCode=as2&amp;tag=httpwwwd20pfs-20\" target=\"_blank\" rel=\"noopener\">PPZO9410</a></p>\r\n<p>This dark, hot tea comes from the east, and its brewing is part of the classical tea ceremony. Knowing the proper steps of preparing and participating in a tea ceremony requires a successful DC 15 <a href=\"https://www.d20pfsrd.com/skills/knowledge\">Knowledge</a> (nobility) skill check. A ceremonial tea set includes a tray, teapot, and four tiny cups and spoons.</p>\r\n<p>The listed prices are for a tavern or restaurant in an average city.</p>\r\n<h3><span id=\"Foods\"><a name=\"TOC-Foods\"></a>Foods</span></h3>\r\n",
      "chat": "",
      "unidentified": ""
    },
    "tags": [],
    "quantity": 1,
    "weight": 0,
    "price": 0,
    "identified": true,
    "hp": {
      "max": 10,
      "value": 10
    },
    "hardness": 0,
    "carried": true,
    "unidentified": {
      "price": 0,
      "name": ""
    },
    "identifiedName": "",
    "cl": 0,
    "aura": {
      "custom": false,
      "school": ""
    },
    "changes": [],
    "changeFlags": {
      "loseDexToAC": false,
      "noStr": false,
      "noDex": false,
      "oneInt": false,
      "oneWis": false,
      "oneCha": false,
      "noEncumbrance": false,
      "mediumArmorFullSpeed": false,
      "heavyArmorFullSpeed": false
    },
    "contextNotes": [],
    "links": {
      "children": []
    },
    "tag": "",
    "useCustomTag": false,
    "subType": "gear",
    "equipped": false,
    "damage": {
      "parts": []
    }
  },
  "flags": {},
  "img": "systems/pf1/icons/items/inventory/dice.jpg",
  "effects": []
}