{
  "_id": "qcwmcvcgcjmqhkzl",
  "name": "Trap, Decoy Trap Door",
  "permission": {
    "default": 0
  },
  "type": "loot",
  "data": {
    "description": {
      "value": "\r\n<p><b>Price</b> 120 gp; <b>Weight</b> &#8211;</p>\r\n<p><b>Type</b> mechanical; <a href=\"https://www.d20pfsrd.com/skills/perception\">Perception</a> DC 10; <a href=\"https://www.d20pfsrd.com/skills/sense-motive\">Sense Motive</a> DC 28</p>\r\n<p class=\"divider\">EFFECTS</p>\r\n<p><b>Trap</b> <a href=\"https://www.d20pfsrd.com/skills/perception\">Perception</a> DC +9, <b>CR Modifier</b>: +3</p>\r\n\r\n",
      "chat": "",
      "unidentified": ""
    },
    "tags": [],
    "quantity": 1,
    "weight": 0,
    "price": 120,
    "identified": true,
    "hp": {
      "max": 10,
      "value": 10
    },
    "hardness": 0,
    "carried": true,
    "unidentified": {
      "price": 0,
      "name": ""
    },
    "identifiedName": "",
    "cl": 0,
    "aura": {
      "custom": false,
      "school": ""
    },
    "changes": [],
    "changeFlags": {
      "loseDexToAC": false,
      "noStr": false,
      "noDex": false,
      "oneInt": false,
      "oneWis": false,
      "oneCha": false,
      "noEncumbrance": false,
      "mediumArmorFullSpeed": false,
      "heavyArmorFullSpeed": false
    },
    "contextNotes": [],
    "links": {
      "children": []
    },
    "tag": "",
    "useCustomTag": false,
    "subType": "gear",
    "equipped": false,
    "damage": {
      "parts": []
    }
  },
  "flags": {},
  "img": "systems/pf1/icons/items/inventory/dice.jpg",
  "effects": []
}