{
  "_id": "esvjgijycbjithsj",
  "name": "Trap, Trapped Scroll Case",
  "permission": {
    "default": 0
  },
  "type": "loot",
  "data": {
    "description": {
      "value": "\r\n<p>This seemingly innocuous scroll case contains a glass pellet filled with gaseous <a href=\"https://www.d20pfsrd.com/gamemastering/afflictions/poison\">poison</a>. This pellet breaks when the case is opened, filling a 5-foot square with toxic gas. This poisonous cloud disperses after 1 round.</p>\r\n<p><b>Type</b> mechanical; <a href=\"https://www.d20pfsrd.com/skills/perception\">Perception</a> DC 20; <a href=\"https://www.d20pfsrd.com/skills/disable-device\">Disable Device</a> DC 20</p>\r\n<p class=\"divider\">EFFECTS</p>\r\n<p><b>Trigger</b> touch; <b>Reset</b> none <b>Effect</b> <a href=\"https://www.d20pfsrd.com/gamemastering/afflictions/poison\">poison</a> gas (Ungol dust)</p>\r\n\r\n",
      "chat": "",
      "unidentified": ""
    },
    "tags": [],
    "quantity": 1,
    "weight": 0,
    "price": 0,
    "identified": true,
    "hp": {
      "max": 10,
      "value": 10
    },
    "hardness": 0,
    "carried": true,
    "unidentified": {
      "price": 0,
      "name": ""
    },
    "identifiedName": "",
    "cl": 0,
    "aura": {
      "custom": false,
      "school": ""
    },
    "changes": [],
    "changeFlags": {
      "loseDexToAC": false,
      "noStr": false,
      "noDex": false,
      "oneInt": false,
      "oneWis": false,
      "oneCha": false,
      "noEncumbrance": false,
      "mediumArmorFullSpeed": false,
      "heavyArmorFullSpeed": false
    },
    "contextNotes": [],
    "links": {
      "children": []
    },
    "tag": "",
    "useCustomTag": false,
    "subType": "gear",
    "equipped": false,
    "damage": {
      "parts": []
    }
  },
  "flags": {},
  "img": "systems/pf1/icons/items/inventory/dice.jpg",
  "effects": []
}