{
  "_id": "Vj6dDCcXeZla58sw",
  "name": "Weapon Blanch",
  "permission": {
    "default": 0
  },
  "type": "loot",
  "data": {
    "description": {
      "value": "<p class=\"source\"><strong>Source</strong> <a title=\"PZO1115\" href=\"http://www.amazon.com/gp/product/1601252463/ref=as_li_qf_sp_asin_il_tl?ie=UTF8&amp;camp=1789&amp;creative=9325&amp;creativeASIN=1601252463&amp;linkCode=as2&amp;tag=httpwwwd20pfs-20\" target=\"_blank\" rel=\"noopener\">PZO1115</a></p>\n<p>These alchemical powders have a gritty consistency. When poured on a weapon and placed over a hot flame for a full round, they melt and form a temporary coating on the weapon. The blanching gives the weapon the ability to bypass one kind of material-based <a href=\"https://www.d20pfsrd.com/gamemastering/special-abilities#TOC-Damage-Reduction\">damage reduction</a>, such as <a href=\"https://www.d20pfsrd.com/equipment/special-materials#TOC-Adamantine\">adamantine</a>, cold iron, or silver. The blanching remains effective until the weapon makes a successful attack. Each dose of blanching can coat one weapon or up to 10 pieces of ammunition. Only one kind of weapon blanch can be on a weapon at one time, though a weapon made of one special material (such as <a href=\"https://www.d20pfsrd.com/equipment/special-materials#TOC-Adamantine\">adamantine</a>) can have a different material blanch (such as silver), and counts as both materials for the first successful hit.</p>\n<p style=\"margin-left: 40px;\"><em>Ghost Salt</em>: This gritty alchemical powder is made from exotic minerals mixed with an infusion crafted from the ectoplasmic remains of destroyed <a href=\"https://www.d20pfsrd.com/bestiary/rules-for-monsters/creature-types#TOC-Incorporeal\">incorporeal</a> <a href=\"https://www.d20pfsrd.com/bestiary/rules-for-monsters/creature-types#TOC-Undead\">undead</a>. When rubbed onto a weapon that is then placed over a hot flame for a full round, ghost salt melts and forms a temporary coating on the weapon. The blanching gives the weapon the ability to do full damage to <a href=\"https://www.d20pfsrd.com/bestiary/rules-for-monsters/creature-types#TOC-Incorporeal\">incorporeal</a> creatures, even if the weapon itself is non-magical. An application of ghost salt remains effective until the weapon makes a successful attack. Each dose of weapon blanch can coat one weapon or up to 10 pieces of ammunition. Only one kind of weapon blanch can be on a weapon at one time.</p>\n<table border=\"1\" cellpadding=\"5\">\n<thead>\n<tr>\n<th class=\"text\">Type</th>\n<th class=\"text\" style=\"text-align: center;\">Price</th>\n<th class=\"text\" style=\"text-align: center;\">Craft (alchemy) DC</th>\n<th class=\"text\" style=\"text-align: center;\">Weight</th>\n<th class=\"text\" style=\"text-align: center;\">Source</th>\n</tr>\n</thead>\n<tbody>\n<tr>\n<td class=\"text\">Adamantine</td>\n<td class=\"money number\" style=\"text-align: center;\">100 gp</td>\n<td class=\"number\" style=\"text-align: center;\">25</td>\n<td class=\"text\" style=\"text-align: center;\">1/2 lb.</td>\n<td class=\"source text\" style=\"text-align: center;\"><a title=\"PZO1123\" href=\"http://www.amazon.com/gp/product/1601254490/ref=as_li_qf_sp_asin_il_tl?ie=UTF8&amp;camp=1789&amp;creative=9325&amp;creativeASIN=1601254490&amp;linkCode=as2&amp;tag=httpwwwd20pfs-20\" target=\"_blank\" rel=\"noopener\">PZO1123</a></td>\n</tr>\n<tr>\n<td class=\"text\">Cold iron</td>\n<td class=\"money number\" style=\"text-align: center;\">20 gp</td>\n<td class=\"number\" style=\"text-align: center;\">20</td>\n<td class=\"text\" style=\"text-align: center;\">1/2 lb.</td>\n<td class=\"source text\" style=\"text-align: center;\"><a title=\"PZO1123\" href=\"http://www.amazon.com/gp/product/1601254490/ref=as_li_qf_sp_asin_il_tl?ie=UTF8&amp;camp=1789&amp;creative=9325&amp;creativeASIN=1601254490&amp;linkCode=as2&amp;tag=httpwwwd20pfs-20\" target=\"_blank\" rel=\"noopener\">PZO1123</a></td>\n</tr>\n<tr>\n<td class=\"text\">Ghost salt</td>\n<td class=\"money number\" style=\"text-align: center;\">200 gp</td>\n<td class=\"marker\" style=\"text-align: center;\">–</td>\n<td class=\"text\" style=\"text-align: center;\">1/2 lb.</td>\n<td class=\"source text\" style=\"text-align: center;\"><a title=\"PZO9235\" href=\"http://www.amazon.com/gp/product/1601253052/ref=as_li_qf_sp_asin_il_tl?ie=UTF8&amp;camp=1789&amp;creative=9325&amp;creativeASIN=1601253052&amp;linkCode=as2&amp;tag=httpwwwd20pfs-20\" target=\"_blank\" rel=\"noopener\">PZO9235</a></td>\n</tr>\n<tr>\n<td class=\"text\">Silver</td>\n<td class=\"money number\" style=\"text-align: center;\">5 gp</td>\n<td class=\"number\" style=\"text-align: center;\">20</td>\n<td class=\"text\" style=\"text-align: center;\">1/2 lb.</td>\n<td class=\"source text\" style=\"text-align: center;\"><a title=\"PZO1123\" href=\"http://www.amazon.com/gp/product/1601254490/ref=as_li_qf_sp_asin_il_tl?ie=UTF8&amp;camp=1789&amp;creative=9325&amp;creativeASIN=1601254490&amp;linkCode=as2&amp;tag=httpwwwd20pfs-20\" target=\"_blank\" rel=\"noopener\">PZO1123</a></td>\n</tr>\n</tbody>\n</table>\n<p>These silver, alchemical powders have a gritty consistency, appearing at first glance to be simple metal shavings. When poured on a weapon and placed over a hot flame for a full round, however, they melt and form a temporary coating on the weapon. The blanching gives the weapon the ability to bypass one kind of material-based damage reduction, such as adamantine, cold iron, or silver. The blanching remains effective until you make a successful attack with the weapon. Each dose of blanching can coat one weapon or up to 10 pieces of ammunition. Only one kind of weapon blanch can be on a weapon at one time, though a weapon made of one special material (such as adamantine) can have a different material blanch (such as silver), and counts as both materials for the first successful hit.</p>\n<div id=\"comments\" class=\"comments\"></div>\n<div class=\"sidebar-bottom\">\n<div class=\"page-widget\">\n<div class=\"widget widget_black_studio_tinymce\">\n<div class=\"textwidget\">\n<div style=\"width: 100%; display: inline-block; overflow: hidden; text-align: center;\">&nbsp;</div>\n</div>\n</div>\n</div>\n</div>",
      "chat": "",
      "unidentified": ""
    },
    "tags": [],
    "quantity": 1,
    "weight": 1,
    "price": 100,
    "identified": true,
    "hp": {
      "max": 10,
      "value": 10
    },
    "hardness": 0,
    "carried": true,
    "unidentified": {
      "price": 0,
      "name": ""
    },
    "identifiedName": "Weapon Blanch",
    "cl": 0,
    "aura": {
      "custom": false,
      "school": ""
    },
    "changes": [],
    "changeFlags": {
      "loseDexToAC": false,
      "noStr": false,
      "noDex": false,
      "oneInt": false,
      "oneWis": false,
      "oneCha": false,
      "noEncumbrance": false,
      "mediumArmorFullSpeed": false,
      "heavyArmorFullSpeed": false
    },
    "contextNotes": [],
    "links": {
      "children": []
    },
    "tag": "",
    "useCustomTag": false,
    "subType": "gear",
    "equipped": false,
    "damage": {
      "parts": []
    }
  },
  "flags": {},
  "img": "systems/pf1/icons/items/inventory/dice.jpg",
  "effects": []
}