{
  "_id": "plbVMShcq3e28MmP",
  "name": "Adult Brass Dragon",
  "permission": {
    "default": 0
  },
  "type": "npc",
  "data": {
    "abilities": {
      "str": {
        "total": 25,
        "mod": 7,
        "value": 25,
        "carryBonus": 0,
        "carryMultiplier": 2,
        "checkMod": 0,
        "damage": 0,
        "drain": 0,
        "penalty": 0,
        "userPenalty": 0,
        "base": 10,
        "baseMod": 0
      },
      "dex": {
        "total": 12,
        "mod": 1,
        "value": 12,
        "checkMod": 0,
        "damage": 0,
        "drain": 0,
        "penalty": 0,
        "userPenalty": 0,
        "base": 10,
        "baseMod": 0
      },
      "con": {
        "total": 21,
        "mod": 5,
        "value": 21,
        "checkMod": 0,
        "damage": 0,
        "drain": 0,
        "penalty": 0,
        "userPenalty": 0,
        "base": 10,
        "baseMod": 0
      },
      "int": {
        "total": 16,
        "mod": 3,
        "value": 16,
        "checkMod": 0,
        "damage": 0,
        "drain": 0,
        "penalty": 0,
        "userPenalty": 0,
        "base": 10,
        "baseMod": 0
      },
      "wis": {
        "total": 17,
        "mod": 3,
        "value": 17,
        "checkMod": 0,
        "damage": 0,
        "drain": 0,
        "penalty": 0,
        "userPenalty": 0,
        "base": 10,
        "baseMod": 0
      },
      "cha": {
        "total": 16,
        "mod": 3,
        "value": 16,
        "checkMod": 0,
        "damage": 0,
        "drain": 0,
        "penalty": 0,
        "userPenalty": 0,
        "base": 10,
        "baseMod": 0
      }
    },
    "resources": {},
    "attributes": {
      "encumbrance": {
        "level": 0,
        "levels": {
          "light": 1066,
          "medium": 2133,
          "heavy": 3200,
          "carry": 6400,
          "drag": 16000
        },
        "carriedWeight": 0
      },
      "hpAbility": "con",
      "cmbAbility": "str",
      "hd": {
        "total": 14,
        "max": {
          "_deprecated": true,
          "value": 0
        }
      },
      "naturalAC": 18,
      "ac": {
        "normal": {
          "value": 0,
          "total": 10
        },
        "touch": {
          "value": 0,
          "total": 10
        },
        "flatFooted": {
          "value": 0,
          "total": 10
        }
      },
      "bab": {
        "value": 14,
        "total": 14
      },
      "cmd": {
        "value": "22",
        "total": 10,
        "flatFootedTotal": 10
      },
      "cmb": {
        "value": 33,
        "total": 0
      },
      "sr": {
        "formula": "22",
        "total": 0
      },
      "saveNotes": "",
      "acNotes": "(+1 Dex, +18 natural, -1 size)",
      "cmdNotes": "",
      "srNotes": "",
      "attack": {
        "general": 0,
        "shared": 0,
        "melee": 0,
        "ranged": 0,
        "meleeAbility": "str",
        "rangedAbility": "dex"
      },
      "damage": {
        "general": 0,
        "weapon": 0,
        "spell": 0
      },
      "maxDexBonus": null,
      "mDex": {
        "armorBonus": 0,
        "shieldBonus": 0
      },
      "acp": {
        "gear": 0,
        "encumbrance": 0,
        "total": 0,
        "armorBonus": 0,
        "shieldBonus": 0,
        "attackPenalty": 0
      },
      "energyDrain": 0,
      "quadruped": false,
      "savingThrows": {
        "fort": {
          "total": 14,
          "ability": "con"
        },
        "ref": {
          "total": 10,
          "ability": "dex"
        },
        "will": {
          "total": 12,
          "ability": "wis"
        }
      },
      "hp": {
        "value": 161,
        "max": 0,
        "temp": null,
        "nonlethal": null,
        "min": -100
      },
      "wounds": {
        "min": 0,
        "value": 42,
        "max": 42
      },
      "vigor": {
        "min": 0,
        "value": 91,
        "temp": 0,
        "max": 91
      },
      "woundThresholds": {
        "penalty": 0,
        "mod": 0,
        "level": 0,
        "override": -1
      },
      "init": {
        "value": 0,
        "bonus": 0,
        "total": 0,
        "ability": ""
      },
      "prof": 2,
      "speed": {
        "land": {
          "base": 60,
          "total": 60
        },
        "climb": {
          "base": 0,
          "total": 0
        },
        "swim": {
          "base": 0,
          "total": 0
        },
        "burrow": {
          "base": 0,
          "total": 0
        },
        "fly": {
          "base": 200,
          "total": 200,
          "maneuverability": "poor"
        }
      },
      "conditions": {
        "bleed": false,
        "blind": false,
        "confused": false,
        "dazzled": false,
        "deaf": false,
        "entangled": false,
        "fatigued": false,
        "exhausted": false,
        "grappled": false,
        "helpless": false,
        "incorporeal": false,
        "invisible": false,
        "paralyzed": false,
        "pinned": false,
        "prone": false,
        "fear": false,
        "sickened": false,
        "staggered": false,
        "stunned": false
      },
      "spells": {
        "usedSpellbooks": [
          "spelllike"
        ],
        "spellbooks": {
          "primary": {
            "name": "Primary",
            "class": "",
            "cl": {
              "base": 0,
              "value": 7,
              "total": 7,
              "formula": "7"
            },
            "concentration": 0,
            "concentrationFormula": "",
            "concentrationNotes": "",
            "clNotes": "",
            "ability": "int",
            "autoSpellLevels": true,
            "arcaneSpellFailure": true,
            "baseDCFormula": "10 + @sl + @ablMod",
            "spontaneous": true,
            "spellPoints": {
              "useSystem": false,
              "value": 0,
              "max": 0,
              "maxFormula": "",
              "restoreFormula": ""
            },
            "spellSlotAbilityBonusFormula": "",
            "domainSlotValue": 1,
            "spells": {
              "spell0": {
                "value": 0,
                "max": 0,
                "base": null
              },
              "spell1": {
                "value": 0,
                "max": 0,
                "base": null
              },
              "spell2": {
                "value": 0,
                "max": 0,
                "base": null
              },
              "spell3": {
                "value": 0,
                "max": 0,
                "base": null
              },
              "spell4": {
                "value": 0,
                "max": 0,
                "base": null
              },
              "spell5": {
                "value": 0,
                "max": 0,
                "base": null
              },
              "spell6": {
                "value": 0,
                "max": 0,
                "base": null
              },
              "spell7": {
                "value": 0,
                "max": 0,
                "base": null
              },
              "spell8": {
                "value": 0,
                "max": 0,
                "base": null
              },
              "spell9": {
                "value": 0,
                "max": 0,
                "base": null
              }
            }
          },
          "secondary": {
            "name": "Secondary",
            "class": "",
            "cl": {
              "base": 0,
              "value": 0,
              "total": 0,
              "formula": ""
            },
            "concentration": 0,
            "concentrationFormula": "",
            "concentrationNotes": "",
            "clNotes": "",
            "ability": "int",
            "autoSpellLevels": true,
            "arcaneSpellFailure": true,
            "baseDCFormula": "10 + @sl + @ablMod",
            "spontaneous": false,
            "spellPoints": {
              "useSystem": false,
              "value": 0,
              "max": 0,
              "maxFormula": "",
              "restoreFormula": ""
            },
            "spellSlotAbilityBonusFormula": "",
            "domainSlotValue": 1,
            "spells": {
              "spell0": {
                "value": 0,
                "max": 0,
                "base": null
              },
              "spell1": {
                "value": 0,
                "max": 0,
                "base": null
              },
              "spell2": {
                "value": 0,
                "max": 0,
                "base": null
              },
              "spell3": {
                "value": 0,
                "max": 0,
                "base": null
              },
              "spell4": {
                "value": 0,
                "max": 0,
                "base": null
              },
              "spell5": {
                "value": 0,
                "max": 0,
                "base": null
              },
              "spell6": {
                "value": 0,
                "max": 0,
                "base": null
              },
              "spell7": {
                "value": 0,
                "max": 0,
                "base": null
              },
              "spell8": {
                "value": 0,
                "max": 0,
                "base": null
              },
              "spell9": {
                "value": 0,
                "max": 0,
                "base": null
              }
            }
          },
          "tertiary": {
            "name": "Tertiary",
            "class": "",
            "cl": {
              "base": 0,
              "value": 0,
              "total": 0,
              "formula": ""
            },
            "concentration": 0,
            "concentrationFormula": "",
            "concentrationNotes": "",
            "clNotes": "",
            "ability": "int",
            "autoSpellLevels": true,
            "arcaneSpellFailure": true,
            "baseDCFormula": "10 + @sl + @ablMod",
            "spontaneous": false,
            "spellPoints": {
              "useSystem": false,
              "value": 0,
              "max": 0,
              "maxFormula": "",
              "restoreFormula": ""
            },
            "spellSlotAbilityBonusFormula": "",
            "domainSlotValue": 1,
            "spells": {
              "spell0": {
                "value": 0,
                "max": 0,
                "base": null
              },
              "spell1": {
                "value": 0,
                "max": 0,
                "base": null
              },
              "spell2": {
                "value": 0,
                "max": 0,
                "base": null
              },
              "spell3": {
                "value": 0,
                "max": 0,
                "base": null
              },
              "spell4": {
                "value": 0,
                "max": 0,
                "base": null
              },
              "spell5": {
                "value": 0,
                "max": 0,
                "base": null
              },
              "spell6": {
                "value": 0,
                "max": 0,
                "base": null
              },
              "spell7": {
                "value": 0,
                "max": 0,
                "base": null
              },
              "spell8": {
                "value": 0,
                "max": 0,
                "base": null
              },
              "spell9": {
                "value": 0,
                "max": 0,
                "base": null
              }
            }
          },
          "spelllike": {
            "name": "Spell-likes",
            "class": "",
            "cl": {
              "base": 0,
              "value": 14,
              "total": 14,
              "formula": "14"
            },
            "concentration": 0,
            "concentrationFormula": "",
            "concentrationNotes": "",
            "clNotes": "",
            "ability": "cha",
            "autoSpellLevels": true,
            "arcaneSpellFailure": true,
            "baseDCFormula": "10 + @sl + @ablMod",
            "spontaneous": true,
            "spellPoints": {
              "useSystem": false,
              "value": 0,
              "max": 0,
              "maxFormula": "",
              "restoreFormula": ""
            },
            "spellSlotAbilityBonusFormula": "",
            "domainSlotValue": 1,
            "spells": {
              "spell0": {
                "value": 0,
                "max": 0,
                "base": 0
              },
              "spell1": {
                "value": 0,
                "max": 0,
                "base": null
              },
              "spell2": {
                "value": 0,
                "max": 0,
                "base": null
              },
              "spell3": {
                "value": 0,
                "max": 0,
                "base": null
              },
              "spell4": {
                "value": 0,
                "max": 0,
                "base": null
              },
              "spell5": {
                "value": 0,
                "max": 0,
                "base": null
              },
              "spell6": {
                "value": 0,
                "max": 0,
                "base": null
              },
              "spell7": {
                "value": 0,
                "max": 0,
                "base": null
              },
              "spell8": {
                "value": 0,
                "max": 0,
                "base": null
              },
              "spell9": {
                "value": 0,
                "max": 0,
                "base": null
              }
            }
          }
        },
        "concentration": {
          "bonus": 0,
          "context": ""
        }
      },
      "spellcasting": {
        "_deprecated": true
      },
      "spelldc": {
        "_deprecated": true
      },
      "spellLevel": 0,
      "cmbNotes": "(37 vs. trip)",
      "mods": {
        "skills": {}
      },
      "creatureType": "humanoid"
    },
    "details": {
      "level": {
        "value": 14,
        "min": 0,
        "max": 40
      },
      "mythicTier": 0,
      "bonusFeatFormula": "",
      "alignment": "cg",
      "biography": {
        "value": "",
        "public": ""
      },
      "notes": {
        "value": "",
        "public": ""
      },
      "bonusSkillRankFormula": "",
      "type": "",
      "environment": "",
      "cr": {
        "base": 11,
        "total": 11
      },
      "xp": {
        "value": "12800"
      }
    },
    "skills": {
      "acr": {
        "value": 0,
        "ability": "dex",
        "rt": false,
        "acp": true,
        "rank": 0,
        "mod": 1,
        "background": false,
        "notes": "",
        "cs": false,
        "changeBonus": 0
      },
      "apr": {
        "value": 0,
        "ability": "int",
        "rt": false,
        "acp": false,
        "rank": 0,
        "mod": 3,
        "background": true,
        "notes": "",
        "cs": true,
        "changeBonus": 0
      },
      "art": {
        "value": 0,
        "ability": "int",
        "rt": false,
        "acp": false,
        "rank": 0,
        "mod": 3,
        "background": true,
        "notes": "",
        "subSkills": {},
        "cs": false,
        "changeBonus": 0
      },
      "blf": {
        "value": 0,
        "ability": "cha",
        "rt": false,
        "acp": false,
        "rank": 14,
        "mod": 20,
        "background": false,
        "notes": "",
        "cs": true,
        "changeBonus": 0
      },
      "clm": {
        "value": 0,
        "ability": "str",
        "rt": false,
        "acp": true,
        "rank": 0,
        "mod": 7,
        "background": false,
        "notes": "",
        "cs": true,
        "changeBonus": 0
      },
      "crf": {
        "value": 0,
        "ability": "int",
        "rt": false,
        "acp": false,
        "rank": 0,
        "mod": 3,
        "background": true,
        "notes": "",
        "subSkills": {},
        "cs": true,
        "changeBonus": 0
      },
      "dip": {
        "value": 0,
        "ability": "cha",
        "rt": false,
        "acp": false,
        "rank": 14,
        "mod": 20,
        "background": false,
        "notes": "",
        "cs": true,
        "changeBonus": 0
      },
      "dev": {
        "value": 0,
        "ability": "dex",
        "rt": true,
        "acp": true,
        "rank": 0,
        "mod": 1,
        "background": false,
        "notes": "",
        "cs": false,
        "changeBonus": 0
      },
      "dis": {
        "value": 0,
        "ability": "cha",
        "rt": false,
        "acp": false,
        "rank": 0,
        "mod": 3,
        "background": false,
        "notes": "",
        "cs": false,
        "changeBonus": 0
      },
      "esc": {
        "value": 0,
        "ability": "dex",
        "rt": false,
        "acp": true,
        "rank": 0,
        "mod": 1,
        "background": false,
        "notes": "",
        "cs": false,
        "changeBonus": 0
      },
      "fly": {
        "value": 0,
        "ability": "dex",
        "rt": false,
        "acp": true,
        "rank": 14,
        "mod": 12,
        "background": false,
        "notes": "",
        "cs": true,
        "changeBonus": 0
      },
      "han": {
        "value": 0,
        "ability": "cha",
        "rt": true,
        "acp": false,
        "rank": 0,
        "mod": 3,
        "background": true,
        "notes": "",
        "cs": false,
        "changeBonus": 0
      },
      "hea": {
        "value": 0,
        "ability": "wis",
        "rt": false,
        "acp": false,
        "rank": 14,
        "mod": 20,
        "background": false,
        "notes": "",
        "cs": true,
        "changeBonus": 0
      },
      "int": {
        "value": 0,
        "ability": "cha",
        "rt": false,
        "acp": false,
        "rank": 0,
        "mod": 3,
        "background": false,
        "notes": "",
        "cs": true,
        "changeBonus": 0
      },
      "kar": {
        "value": 0,
        "ability": "int",
        "rt": true,
        "acp": false,
        "rank": 0,
        "mod": 3,
        "background": false,
        "notes": "",
        "cs": true,
        "changeBonus": 0
      },
      "kdu": {
        "value": 0,
        "ability": "int",
        "rt": true,
        "acp": false,
        "rank": 0,
        "mod": 3,
        "background": false,
        "notes": "",
        "cs": true,
        "changeBonus": 0
      },
      "ken": {
        "value": 0,
        "ability": "int",
        "rt": true,
        "acp": false,
        "rank": 0,
        "mod": 3,
        "background": true,
        "notes": "",
        "cs": true,
        "changeBonus": 0
      },
      "kge": {
        "value": 0,
        "ability": "int",
        "rt": true,
        "acp": false,
        "rank": 0,
        "mod": 3,
        "background": true,
        "notes": "",
        "cs": true,
        "changeBonus": 0
      },
      "khi": {
        "value": 0,
        "ability": "int",
        "rt": true,
        "acp": false,
        "rank": 0,
        "mod": 3,
        "background": true,
        "notes": "",
        "cs": true,
        "changeBonus": 0
      },
      "klo": {
        "value": 0,
        "ability": "int",
        "rt": true,
        "acp": false,
        "rank": 0,
        "mod": 3,
        "background": false,
        "notes": "",
        "cs": true,
        "changeBonus": 0
      },
      "kna": {
        "value": 0,
        "ability": "int",
        "rt": true,
        "acp": false,
        "rank": 0,
        "mod": 3,
        "background": false,
        "notes": "",
        "cs": true,
        "changeBonus": 0
      },
      "kno": {
        "value": 0,
        "ability": "int",
        "rt": true,
        "acp": false,
        "rank": 0,
        "mod": 3,
        "background": true,
        "notes": "",
        "cs": true,
        "changeBonus": 0
      },
      "kpl": {
        "value": 0,
        "ability": "int",
        "rt": true,
        "acp": false,
        "rank": 0,
        "mod": 3,
        "background": false,
        "notes": "",
        "cs": true,
        "changeBonus": 0
      },
      "kre": {
        "value": 0,
        "ability": "int",
        "rt": true,
        "acp": false,
        "rank": 0,
        "mod": 3,
        "background": false,
        "notes": "",
        "cs": true,
        "changeBonus": 0
      },
      "lin": {
        "value": 0,
        "ability": "int",
        "rt": true,
        "acp": false,
        "rank": 14,
        "mod": 20,
        "background": true,
        "notes": "",
        "cs": true,
        "changeBonus": 0
      },
      "lor": {
        "value": 0,
        "ability": "int",
        "rt": true,
        "acp": false,
        "rank": 0,
        "mod": 3,
        "background": true,
        "notes": "",
        "subSkills": {},
        "cs": false,
        "changeBonus": 0
      },
      "per": {
        "value": 0,
        "ability": "wis",
        "rt": false,
        "acp": false,
        "rank": 18,
        "mod": 24,
        "background": false,
        "notes": "",
        "cs": true,
        "changeBonus": 0
      },
      "prf": {
        "value": 0,
        "ability": "cha",
        "rt": false,
        "acp": false,
        "rank": 0,
        "mod": 3,
        "background": true,
        "notes": "",
        "subSkills": {},
        "cs": false,
        "changeBonus": 0
      },
      "pro": {
        "value": 0,
        "ability": "wis",
        "rt": true,
        "acp": false,
        "rank": 0,
        "mod": 3,
        "background": true,
        "notes": "",
        "subSkills": {},
        "cs": false,
        "changeBonus": 0
      },
      "rid": {
        "value": 0,
        "ability": "dex",
        "rt": false,
        "acp": true,
        "rank": 0,
        "mod": 1,
        "background": false,
        "notes": "",
        "cs": false,
        "changeBonus": 0
      },
      "sen": {
        "value": 0,
        "ability": "wis",
        "rt": false,
        "acp": false,
        "rank": 18,
        "mod": 24,
        "background": false,
        "notes": "",
        "cs": true,
        "changeBonus": 0
      },
      "slt": {
        "value": 0,
        "ability": "dex",
        "rt": true,
        "acp": true,
        "rank": 0,
        "mod": 1,
        "background": true,
        "notes": "",
        "cs": false,
        "changeBonus": 0
      },
      "spl": {
        "value": 0,
        "ability": "int",
        "rt": true,
        "acp": false,
        "rank": 14,
        "mod": 20,
        "background": false,
        "notes": "",
        "cs": true,
        "changeBonus": 0
      },
      "ste": {
        "value": 0,
        "ability": "dex",
        "rt": false,
        "acp": true,
        "rank": 0,
        "mod": -3,
        "background": false,
        "notes": "",
        "cs": true,
        "changeBonus": 0
      },
      "sur": {
        "value": 0,
        "ability": "wis",
        "rt": false,
        "acp": false,
        "rank": 14,
        "mod": 20,
        "background": false,
        "notes": "",
        "cs": true,
        "changeBonus": 0
      },
      "swm": {
        "value": 0,
        "ability": "str",
        "rt": false,
        "acp": true,
        "rank": 0,
        "mod": 7,
        "background": false,
        "notes": "",
        "cs": true,
        "changeBonus": 0
      },
      "umd": {
        "value": 0,
        "ability": "cha",
        "rt": true,
        "acp": false,
        "rank": 0,
        "mod": 3,
        "background": false,
        "notes": "",
        "cs": true,
        "changeBonus": 0
      }
    },
    "customSkills": {},
    "traits": {
      "size": "lg",
      "senses": "blindsense 60 ft., dragon senses; Perception +24",
      "dr": "5/magic Immune fire",
      "eres": "",
      "cres": "",
      "regen": "",
      "fastHealing": "",
      "languages": {
        "value": [
          "common",
          "draconic"
        ],
        "custom": "plus any 14 others"
      },
      "di": {
        "value": [
          "cold",
          "fire"
        ],
        "custom": ""
      },
      "dv": {
        "value": [
          "cold"
        ],
        "custom": ""
      },
      "ci": {
        "value": [
          "sleep"
        ],
        "custom": "paralysis, SR 22 Weaknesses vulnerability to "
      },
      "perception": {
        "_deprecated": true
      },
      "stature": "tall"
    },
    "currency": {
      "pp": 0,
      "gp": 0,
      "sp": 0,
      "cp": 0
    },
    "altCurrency": {
      "pp": 0,
      "gp": 0,
      "sp": 0,
      "cp": 0
    },
    "classes": {}
  },
  "sort": 100001,
  "flags": {
    "pf1": {}
  },
  "img": "systems/pf1/icons/races/creature-types/dragon.png",
  "token": {
    "flags": {
      "pf1": {
        "lowLightVision": false
      }
    },
    "name": "Adult Brass Dragon",
    "displayName": 0,
    "img": "systems/pf1/icons/races/creature-types/dragon.png",
    "tint": null,
    "width": 2,
    "height": 2,
    "scale": 1,
    "lockRotation": false,
    "rotation": 0,
    "vision": true,
    "dimSight": 0,
    "brightSight": 0,
    "dimLight": 0,
    "brightLight": 0,
    "sightAngle": 360,
    "lightAngle": 360,
    "lightAlpha": 1,
    "lightAnimation": {
      "speed": 5,
      "intensity": 5
    },
    "actorId": "plbVMShcq3e28MmP",
    "actorLink": false,
    "disposition": -1,
    "displayBars": 0,
    "bar1": {
      "attribute": "attributes.hp"
    },
    "bar2": {},
    "randomImg": false
  },
  "items": [
    {
      "_id": "7dP4hxLmYXQtOBlG",
      "name": "Aura: Frightful Presence (180 Ft., Dc 20)",
      "type": "feat",
      "data": {
        "description": {
          "value": "<p>sbc | Automatically generated via statblock, check values as needed!</p>",
          "chat": "",
          "unidentified": ""
        },
        "tags": [],
        "activation": {
          "cost": 1,
          "type": "passive"
        },
        "unchainedAction": {
          "activation": {
            "cost": 1,
            "type": "passive"
          }
        },
        "duration": {
          "value": null,
          "units": "perm"
        },
        "target": {
          "value": ""
        },
        "range": {
          "value": "180",
          "units": "ft",
          "maxIncrements": 1,
          "minValue": null,
          "minUnits": "",
          "long": null
        },
        "uses": {
          "value": 0,
          "max": 0,
          "per": null,
          "autoDeductCharges": true,
          "autoDeductChargesCost": "1"
        },
        "measureTemplate": {
          "type": "circle",
          "size": "180",
          "overrideColor": false,
          "customColor": "",
          "overrideTexture": false,
          "customTexture": ""
        },
        "attackName": "",
        "actionType": "",
        "attackBonus": "",
        "critConfirmBonus": "",
        "damage": {
          "parts": [],
          "critParts": [],
          "nonCritParts": []
        },
        "attackParts": [],
        "formula": "",
        "ability": {
          "attack": "",
          "damage": "",
          "damageMult": 1,
          "critRange": 20,
          "critMult": 2
        },
        "save": {
          "dc": "20",
          "type": "",
          "description": ""
        },
        "effectNotes": "",
        "attackNotes": "",
        "soundEffect": "",
        "changes": [],
        "changeFlags": {
          "loseDexToAC": false,
          "noStr": false,
          "noDex": false,
          "oneInt": false,
          "oneWis": false,
          "oneCha": false,
          "noEncumbrance": false,
          "mediumArmorFullSpeed": false,
          "heavyArmorFullSpeed": false
        },
        "contextNotes": [],
        "links": {
          "children": [],
          "charges": []
        },
        "tag": "",
        "useCustomTag": false,
        "armorProf": {
          "value": [],
          "custom": ""
        },
        "weaponProf": {
          "value": [],
          "custom": ""
        },
        "featType": "misc",
        "associations": {
          "classes": []
        },
        "showInQuickbar": false,
        "nonlethal": false,
        "abilityType": "",
        "crOffset": "0",
        "attack": {
          "parts": []
        }
      },
      "sort": 1000000,
      "flags": {},
      "img": "icons/svg/mystery-man.svg",
      "effects": []
    },
    {
      "_id": "zo6gJqgn2gtfQbWL",
      "name": "Aura: \n",
      "type": "feat",
      "data": {
        "description": {
          "value": "<p>sbc | Automatically generated via statblock, check values as needed!</p>",
          "chat": "",
          "unidentified": ""
        },
        "tags": [],
        "activation": {
          "cost": 1,
          "type": "passive"
        },
        "unchainedAction": {
          "activation": {
            "cost": 1,
            "type": "passive"
          }
        },
        "duration": {
          "value": null,
          "units": "perm"
        },
        "target": {
          "value": ""
        },
        "range": {
          "value": 0,
          "units": "ft",
          "maxIncrements": 1,
          "minValue": null,
          "minUnits": "",
          "long": null
        },
        "uses": {
          "value": 0,
          "max": 0,
          "per": null,
          "autoDeductCharges": true,
          "autoDeductChargesCost": "1"
        },
        "measureTemplate": {
          "type": "circle",
          "size": "0",
          "overrideColor": false,
          "customColor": "",
          "overrideTexture": false,
          "customTexture": ""
        },
        "attackName": "",
        "actionType": "",
        "attackBonus": "",
        "critConfirmBonus": "",
        "damage": {
          "parts": [],
          "critParts": [],
          "nonCritParts": []
        },
        "attackParts": [],
        "formula": "",
        "ability": {
          "attack": "",
          "damage": "",
          "damageMult": 1,
          "critRange": 20,
          "critMult": 2
        },
        "save": {
          "dc": "",
          "type": "",
          "description": ""
        },
        "effectNotes": "",
        "attackNotes": "",
        "soundEffect": "",
        "changes": [],
        "changeFlags": {
          "loseDexToAC": false,
          "noStr": false,
          "noDex": false,
          "oneInt": false,
          "oneWis": false,
          "oneCha": false,
          "noEncumbrance": false,
          "mediumArmorFullSpeed": false,
          "heavyArmorFullSpeed": false
        },
        "contextNotes": [],
        "links": {
          "children": [],
          "charges": []
        },
        "tag": "",
        "useCustomTag": false,
        "armorProf": {
          "value": [],
          "custom": ""
        },
        "weaponProf": {
          "value": [],
          "custom": ""
        },
        "featType": "misc",
        "associations": {
          "classes": []
        },
        "showInQuickbar": false,
        "nonlethal": false,
        "abilityType": "",
        "crOffset": "0",
        "attack": {
          "parts": []
        }
      },
      "sort": 1000000,
      "flags": {},
      "img": "icons/svg/mystery-man.svg",
      "effects": []
    },
    {
      "_id": "5U0vJ3ER1oALdsaq",
      "name": "Dragon",
      "type": "class",
      "data": {
        "description": {
          "value": "<p>A dragon is a reptile-like creature, usually winged, with magical or unusual abilities.</p>\n<h2><span id=\"Features\">Features</span></h2>\n<p>A dragon has the following features.</p>\n<ul>\n<li>d12 Hit Die.</li>\n<li>Base attack bonus equal to total Hit Dice (fast progression).</li>\n<li>Good&nbsp;<a href=\"https://www.d20pfsrd.com/gamemastering/combat#TOC-Fortitude\" rel=\"nofollow\">Fortitude</a>,&nbsp;<a href=\"https://www.d20pfsrd.com/gamemastering/combat#TOC-Reflex\" rel=\"nofollow\">Reflex</a>, and&nbsp;<a href=\"https://www.d20pfsrd.com/gamemastering/combat#TOC-Will\" rel=\"nofollow\">Will</a>&nbsp;Saves.</li>\n<li>Skill points equal to 6 + Int modifier (minimum 1) per Hit Die. The following are class skills for dragons: <a href=\"https://www.d20pfsrd.com/skills/appraise\" rel=\"nofollow\">Appraise</a>, <a href=\"https://www.d20pfsrd.com/skills/bluff\" rel=\"nofollow\">Bluff</a>, <a href=\"https://www.d20pfsrd.com/skills/climb\" rel=\"nofollow\">Climb</a>, <a href=\"https://www.d20pfsrd.com/skills/craft\" rel=\"nofollow\">Craft</a>, <a href=\"https://www.d20pfsrd.com/skills/diplomacy\" rel=\"nofollow\">Diplomacy</a>, <a href=\"https://www.d20pfsrd.com/skills/fly\" rel=\"nofollow\">Fly</a>, <a href=\"https://www.d20pfsrd.com/skills/heal\" rel=\"nofollow\">Heal</a>, <a href=\"https://www.d20pfsrd.com/skills/intimidate\" rel=\"nofollow\">Intimidate</a>, <a href=\"https://www.d20pfsrd.com/skills/knowledge\" rel=\"nofollow\">Knowledge</a> (all), <a href=\"https://www.d20pfsrd.com/skills/linguistics\" rel=\"nofollow\">Linguistics</a>, <a href=\"https://www.d20pfsrd.com/skills/perception\" rel=\"nofollow\">Perception</a>, <a href=\"https://www.d20pfsrd.com/skills/sense-motive\" rel=\"nofollow\">Sense Motive</a>, <a href=\"https://www.d20pfsrd.com/skills/spellcraft\" rel=\"nofollow\">Spellcraft</a>, <a href=\"https://www.d20pfsrd.com/skills/stealth\" rel=\"nofollow\">Stealth</a>, <a href=\"https://www.d20pfsrd.com/skills/survival\" rel=\"nofollow\">Survival</a>, <a href=\"https://www.d20pfsrd.com/skills/swim\" rel=\"nofollow\">Swim</a>, and <a href=\"https://www.d20pfsrd.com/skills/use-magic-device\" rel=\"nofollow\">Use Magic Device</a>.</li>\n</ul>\n<h2><span id=\"Traits\">Traits</span></h2>\n<p>A dragon possesses the following traits (unless otherwise noted in a creature’s entry).</p>\n<ul>\n<li><a href=\"https://www.d20pfsrd.com/gamemastering/special-abilities#TOC-Darkvision\">Darkvision</a>&nbsp;60 feet and&nbsp;<a href=\"https://www.d20pfsrd.com/gamemastering/special-abilities#TOC-Low-Light-Vision\">low-light vision</a>.</li>\n<li>Immunity to magic sleep effects and paralysis effects.</li>\n<li>Proficient with its natural weapons only unless humanoid in form (or capable of assuming humanoid form), in which case proficient with all simple weapons and any weapons mentioned in its entry.</li>\n<li>Proficient with no armor.</li>\n<li>Dragons breathe, eat, and sleep.</li>\n</ul>",
          "chat": "",
          "unidentified": ""
        },
        "tags": [],
        "changes": [],
        "changeFlags": {
          "loseDexToAC": false,
          "noStr": false,
          "noDex": false,
          "oneInt": false,
          "oneWis": false,
          "oneCha": false,
          "noEncumbrance": false,
          "mediumArmorFullSpeed": false,
          "heavyArmorFullSpeed": false
        },
        "links": {
          "children": []
        },
        "tag": "dragon",
        "useCustomTag": false,
        "armorProf": {
          "value": [],
          "custom": ""
        },
        "weaponProf": {
          "value": [],
          "custom": ""
        },
        "classType": "racial",
        "levels": 1,
        "level": 14,
        "hd": 12,
        "hp": 91,
        "bab": "high",
        "skillsPerLevel": 6,
        "savingThrows": {
          "fort": {
            "value": "high"
          },
          "ref": {
            "value": "high"
          },
          "will": {
            "value": "high"
          }
        },
        "fc": {
          "hp": {
            "value": 0
          },
          "skill": {
            "value": 0
          },
          "alt": {
            "value": 0
          }
        },
        "classSkills": {
          "acr": false,
          "apr": true,
          "art": false,
          "blf": true,
          "clm": true,
          "crf": true,
          "dip": true,
          "dev": false,
          "dis": false,
          "esc": false,
          "fly": true,
          "han": false,
          "hea": true,
          "int": true,
          "kar": true,
          "kdu": true,
          "ken": true,
          "kge": true,
          "khi": true,
          "klo": true,
          "kna": true,
          "kno": true,
          "kpl": true,
          "kre": true,
          "lin": true,
          "lor": false,
          "per": true,
          "prf": false,
          "pro": false,
          "rid": false,
          "sen": true,
          "slt": false,
          "spl": true,
          "ste": true,
          "sur": true,
          "swm": true,
          "umd": true
        },
        "damage": {
          "parts": []
        },
        "range": {
          "maxIncrements": 1
        }
      },
      "sort": 100000,
      "flags": {},
      "img": "systems/pf1/icons/skills/fire_05.jpg",
      "effects": []
    },
    {
      "_id": "nSUI75jz0nGpTNAU",
      "name": "bite",
      "type": "attack",
      "data": {
        "description": {
          "value": "",
          "chat": "",
          "unidentified": ""
        },
        "tags": [],
        "activation": {
          "cost": 1,
          "type": "attack"
        },
        "unchainedAction": {
          "activation": {
            "cost": 1,
            "type": "action"
          }
        },
        "duration": {
          "value": null,
          "units": "inst"
        },
        "target": {
          "value": ""
        },
        "range": {
          "value": null,
          "units": "",
          "maxIncrements": 1,
          "minValue": null,
          "minUnits": "",
          "long": null
        },
        "uses": {
          "value": 0,
          "max": 0,
          "per": "",
          "autoDeductCharges": false,
          "autoDeductChargesCost": "1"
        },
        "measureTemplate": {
          "type": "",
          "size": "0",
          "overrideColor": false,
          "customColor": "",
          "overrideTexture": false,
          "customTexture": ""
        },
        "attackName": "",
        "actionType": "mwak",
        "attackBonus": "0",
        "critConfirmBonus": "",
        "damage": {
          "parts": [
            [
              "sizeRoll(2, 6, @size, 5) + 3",
              "B, P and S"
            ]
          ],
          "critParts": [],
          "nonCritParts": []
        },
        "attackParts": [],
        "formula": "",
        "ability": {
          "attack": "str",
          "damage": "str",
          "damageMult": 1,
          "critRange": 20,
          "critMult": 2
        },
        "save": {
          "dc": "0",
          "type": "",
          "description": ""
        },
        "effectNotes": "",
        "attackNotes": "Reach: 5 ft.\nbite +20 (2d6+10)",
        "soundEffect": "",
        "links": {
          "children": [],
          "charges": []
        },
        "tag": "",
        "useCustomTag": false,
        "attackType": "natural",
        "masterwork": false,
        "nonlethal": false,
        "enh": null,
        "proficient": true,
        "primaryAttack": true,
        "showInQuickbar": true,
        "broken": false,
        "held": "normal",
        "conditionals": [],
        "attack": {
          "parts": []
        }
      },
      "sort": 200000,
      "flags": {},
      "img": "systems/pf1/icons/items/inventory/monster-head.jpg",
      "effects": []
    },
    {
      "_id": "z72WE56LM8ED0QJr",
      "name": "Special Attack: Breath Weapon",
      "type": "attack",
      "data": {
        "description": {
          "value": "",
          "chat": "",
          "unidentified": ""
        },
        "tags": [],
        "activation": {
          "cost": 1,
          "type": "standard"
        },
        "unchainedAction": {
          "activation": {
            "cost": 2,
            "type": "action"
          }
        },
        "duration": {
          "value": null,
          "units": "inst"
        },
        "target": {
          "value": ""
        },
        "range": {
          "value": "80",
          "units": "ft",
          "maxIncrements": 1,
          "minValue": null,
          "minUnits": "",
          "long": null
        },
        "uses": {
          "value": 0,
          "max": 0,
          "per": "",
          "autoDeductCharges": false,
          "autoDeductChargesCost": "1"
        },
        "measureTemplate": {
          "type": "",
          "size": "80",
          "overrideColor": false,
          "customColor": "",
          "overrideTexture": false,
          "customTexture": ""
        },
        "attackName": "",
        "actionType": "other",
        "attackBonus": "-20",
        "critConfirmBonus": "",
        "damage": {
          "parts": [
            [
              "12d4",
              " fire"
            ]
          ],
          "critParts": [],
          "nonCritParts": []
        },
        "attackParts": [],
        "formula": "",
        "ability": {
          "attack": "str",
          "damage": "str",
          "damageMult": 1,
          "critRange": 20,
          "critMult": 2
        },
        "save": {
          "dc": "22",
          "type": "ref",
          "description": ""
        },
        "effectNotes": "",
        "attackNotes": "",
        "soundEffect": "",
        "links": {
          "children": [],
          "charges": []
        },
        "tag": "",
        "useCustomTag": false,
        "attackType": "weapon",
        "masterwork": false,
        "nonlethal": false,
        "enh": null,
        "proficient": true,
        "primaryAttack": true,
        "showInQuickbar": true,
        "broken": false,
        "held": "normal",
        "conditionals": [],
        "attack": {
          "parts": []
        }
      },
      "sort": 100000,
      "flags": {},
      "img": "icons/svg/mystery-man.svg",
      "effects": []
    },
    {
      "_id": "K8dzHfXWjWVEdmel",
      "name": "claws",
      "type": "attack",
      "data": {
        "description": {
          "value": "",
          "chat": "",
          "unidentified": ""
        },
        "tags": [],
        "activation": {
          "cost": 1,
          "type": "attack"
        },
        "unchainedAction": {
          "activation": {
            "cost": 1,
            "type": "action"
          }
        },
        "duration": {
          "value": null,
          "units": "inst"
        },
        "target": {
          "value": ""
        },
        "range": {
          "value": null,
          "units": "",
          "maxIncrements": 1,
          "minValue": null,
          "minUnits": "",
          "long": null
        },
        "uses": {
          "value": 0,
          "max": 0,
          "per": "",
          "autoDeductCharges": false,
          "autoDeductChargesCost": "1"
        },
        "measureTemplate": {
          "type": "",
          "size": "0",
          "overrideColor": false,
          "customColor": "",
          "overrideTexture": false,
          "customTexture": ""
        },
        "attackName": "",
        "actionType": "mwak",
        "attackBonus": "0",
        "critConfirmBonus": "",
        "damage": {
          "parts": [
            [
              "sizeRoll(1, 8, @size, 5) + 0",
              ""
            ]
          ],
          "critParts": [],
          "nonCritParts": []
        },
        "attackParts": [
          [
            "0",
            "Additional Attack: 1"
          ]
        ],
        "formula": "",
        "ability": {
          "attack": "str",
          "damage": "str",
          "damageMult": 1,
          "critRange": 20,
          "critMult": 2
        },
        "save": {
          "dc": "0",
          "type": "",
          "description": ""
        },
        "effectNotes": "",
        "attackNotes": "Reach: 5 ft.\n2 claws +20 (1d8+7)",
        "soundEffect": "",
        "links": {
          "children": [],
          "charges": []
        },
        "tag": "",
        "useCustomTag": false,
        "attackType": "natural",
        "masterwork": false,
        "nonlethal": false,
        "enh": null,
        "proficient": true,
        "primaryAttack": true,
        "showInQuickbar": true,
        "broken": false,
        "held": "normal",
        "conditionals": [],
        "attack": {
          "parts": []
        }
      },
      "sort": 100000,
      "flags": {},
      "img": "systems/pf1/icons/items/inventory/monster-paw-bear.jpg",
      "effects": []
    },
    {
      "_id": "IrVx2IPGzDzGt133",
      "name": "Alertness",
      "type": "feat",
      "data": {
        "description": {
          "value": "",
          "chat": "",
          "unidentified": ""
        },
        "tags": [],
        "activation": {
          "cost": 1,
          "type": ""
        },
        "unchainedAction": {
          "activation": {
            "cost": 1,
            "type": ""
          }
        },
        "duration": {
          "value": null,
          "units": ""
        },
        "target": {
          "value": ""
        },
        "range": {
          "value": null,
          "units": "",
          "maxIncrements": 1,
          "minValue": null,
          "minUnits": "",
          "long": null
        },
        "uses": {
          "value": 0,
          "max": 0,
          "per": null,
          "autoDeductCharges": true,
          "autoDeductChargesCost": "1"
        },
        "measureTemplate": {
          "type": "",
          "size": "0",
          "overrideColor": false,
          "customColor": "",
          "overrideTexture": false,
          "customTexture": ""
        },
        "attackName": "",
        "actionType": null,
        "attackBonus": "",
        "critConfirmBonus": "",
        "damage": {
          "parts": [],
          "critParts": [],
          "nonCritParts": []
        },
        "attackParts": [],
        "formula": "",
        "ability": {
          "attack": null,
          "damage": null,
          "damageMult": 1,
          "critRange": 20,
          "critMult": 2
        },
        "save": {
          "dc": 0,
          "type": "",
          "description": ""
        },
        "effectNotes": "",
        "attackNotes": "",
        "soundEffect": "",
        "changes": [],
        "changeFlags": {
          "loseDexToAC": false,
          "noStr": false,
          "noDex": false,
          "oneInt": false,
          "oneWis": false,
          "oneCha": false,
          "noEncumbrance": false,
          "mediumArmorFullSpeed": false,
          "heavyArmorFullSpeed": false
        },
        "contextNotes": [],
        "links": {
          "children": [],
          "charges": []
        },
        "tag": "",
        "useCustomTag": false,
        "armorProf": {
          "value": [],
          "custom": ""
        },
        "weaponProf": {
          "value": [],
          "custom": ""
        },
        "featType": "feat",
        "associations": {
          "classes": []
        },
        "showInQuickbar": false,
        "nonlethal": false,
        "abilityType": "none",
        "crOffset": "",
        "attack": {
          "parts": []
        }
      },
      "sort": 100000,
      "flags": {},
      "img": "icons/svg/mystery-man.svg",
      "effects": []
    },
    {
      "_id": "YQJbOQQItEdggXJI",
      "name": "Flyby Attack",
      "type": "feat",
      "data": {
        "description": {
          "value": "",
          "chat": "",
          "unidentified": ""
        },
        "tags": [],
        "activation": {
          "cost": 1,
          "type": ""
        },
        "unchainedAction": {
          "activation": {
            "cost": 1,
            "type": ""
          }
        },
        "duration": {
          "value": null,
          "units": ""
        },
        "target": {
          "value": ""
        },
        "range": {
          "value": null,
          "units": "",
          "maxIncrements": 1,
          "minValue": null,
          "minUnits": "",
          "long": null
        },
        "uses": {
          "value": 0,
          "max": 0,
          "per": null,
          "autoDeductCharges": true,
          "autoDeductChargesCost": "1"
        },
        "measureTemplate": {
          "type": "",
          "size": "0",
          "overrideColor": false,
          "customColor": "",
          "overrideTexture": false,
          "customTexture": ""
        },
        "attackName": "",
        "actionType": null,
        "attackBonus": "",
        "critConfirmBonus": "",
        "damage": {
          "parts": [],
          "critParts": [],
          "nonCritParts": []
        },
        "attackParts": [],
        "formula": "",
        "ability": {
          "attack": null,
          "damage": null,
          "damageMult": 1,
          "critRange": 20,
          "critMult": 2
        },
        "save": {
          "dc": 0,
          "type": "",
          "description": ""
        },
        "effectNotes": "",
        "attackNotes": "",
        "soundEffect": "",
        "changes": [],
        "changeFlags": {
          "loseDexToAC": false,
          "noStr": false,
          "noDex": false,
          "oneInt": false,
          "oneWis": false,
          "oneCha": false,
          "noEncumbrance": false,
          "mediumArmorFullSpeed": false,
          "heavyArmorFullSpeed": false
        },
        "contextNotes": [],
        "links": {
          "children": [],
          "charges": []
        },
        "tag": "",
        "useCustomTag": false,
        "armorProf": {
          "value": [],
          "custom": ""
        },
        "weaponProf": {
          "value": [],
          "custom": ""
        },
        "featType": "feat",
        "associations": {
          "classes": []
        },
        "showInQuickbar": false,
        "nonlethal": false,
        "abilityType": "none",
        "crOffset": "",
        "attack": {
          "parts": []
        }
      },
      "sort": 100000,
      "flags": {},
      "img": "icons/svg/mystery-man.svg",
      "effects": []
    },
    {
      "_id": "Ukfsy9R5Ez2QPMQp",
      "name": "Hover",
      "type": "feat",
      "data": {
        "description": {
          "value": "",
          "chat": "",
          "unidentified": ""
        },
        "tags": [],
        "activation": {
          "cost": 1,
          "type": ""
        },
        "unchainedAction": {
          "activation": {
            "cost": 1,
            "type": ""
          }
        },
        "duration": {
          "value": null,
          "units": ""
        },
        "target": {
          "value": ""
        },
        "range": {
          "value": null,
          "units": "",
          "maxIncrements": 1,
          "minValue": null,
          "minUnits": "",
          "long": null
        },
        "uses": {
          "value": 0,
          "max": 0,
          "per": null,
          "autoDeductCharges": true,
          "autoDeductChargesCost": "1"
        },
        "measureTemplate": {
          "type": "",
          "size": "0",
          "overrideColor": false,
          "customColor": "",
          "overrideTexture": false,
          "customTexture": ""
        },
        "attackName": "",
        "actionType": null,
        "attackBonus": "",
        "critConfirmBonus": "",
        "damage": {
          "parts": [],
          "critParts": [],
          "nonCritParts": []
        },
        "attackParts": [],
        "formula": "",
        "ability": {
          "attack": null,
          "damage": null,
          "damageMult": 1,
          "critRange": 20,
          "critMult": 2
        },
        "save": {
          "dc": 0,
          "type": "",
          "description": ""
        },
        "effectNotes": "",
        "attackNotes": "",
        "soundEffect": "",
        "changes": [],
        "changeFlags": {
          "loseDexToAC": false,
          "noStr": false,
          "noDex": false,
          "oneInt": false,
          "oneWis": false,
          "oneCha": false,
          "noEncumbrance": false,
          "mediumArmorFullSpeed": false,
          "heavyArmorFullSpeed": false
        },
        "contextNotes": [],
        "links": {
          "children": [],
          "charges": []
        },
        "tag": "",
        "useCustomTag": false,
        "armorProf": {
          "value": [],
          "custom": ""
        },
        "weaponProf": {
          "value": [],
          "custom": ""
        },
        "featType": "feat",
        "associations": {
          "classes": []
        },
        "showInQuickbar": false,
        "nonlethal": false,
        "abilityType": "none",
        "crOffset": "",
        "attack": {
          "parts": []
        }
      },
      "sort": 100000,
      "flags": {},
      "img": "icons/svg/mystery-man.svg",
      "effects": []
    },
    {
      "_id": "clUR9eCAW72dG4Wc",
      "name": "Greater Spell Focus (enchant)",
      "type": "feat",
      "data": {
        "description": {
          "value": "",
          "chat": "",
          "unidentified": ""
        },
        "tags": [],
        "activation": {
          "cost": 1,
          "type": ""
        },
        "unchainedAction": {
          "activation": {
            "cost": 1,
            "type": ""
          }
        },
        "duration": {
          "value": null,
          "units": ""
        },
        "target": {
          "value": ""
        },
        "range": {
          "value": null,
          "units": "",
          "maxIncrements": 1,
          "minValue": null,
          "minUnits": "",
          "long": null
        },
        "uses": {
          "value": 0,
          "max": 0,
          "per": null,
          "autoDeductCharges": true,
          "autoDeductChargesCost": "1"
        },
        "measureTemplate": {
          "type": "",
          "size": "0",
          "overrideColor": false,
          "customColor": "",
          "overrideTexture": false,
          "customTexture": ""
        },
        "attackName": "",
        "actionType": null,
        "attackBonus": "",
        "critConfirmBonus": "",
        "damage": {
          "parts": [],
          "critParts": [],
          "nonCritParts": []
        },
        "attackParts": [],
        "formula": "",
        "ability": {
          "attack": null,
          "damage": null,
          "damageMult": 1,
          "critRange": 20,
          "critMult": 2
        },
        "save": {
          "dc": 0,
          "type": "",
          "description": ""
        },
        "effectNotes": "",
        "attackNotes": "",
        "soundEffect": "",
        "changes": [],
        "changeFlags": {
          "loseDexToAC": false,
          "noStr": false,
          "noDex": false,
          "oneInt": false,
          "oneWis": false,
          "oneCha": false,
          "noEncumbrance": false,
          "mediumArmorFullSpeed": false,
          "heavyArmorFullSpeed": false
        },
        "contextNotes": [],
        "links": {
          "children": [],
          "charges": []
        },
        "tag": "",
        "useCustomTag": false,
        "armorProf": {
          "value": [],
          "custom": ""
        },
        "weaponProf": {
          "value": [],
          "custom": ""
        },
        "featType": "feat",
        "associations": {
          "classes": []
        },
        "showInQuickbar": false,
        "nonlethal": false,
        "abilityType": "none",
        "crOffset": "",
        "attack": {
          "parts": []
        }
      },
      "sort": 100000,
      "flags": {},
      "img": "icons/svg/mystery-man.svg",
      "effects": []
    },
    {
      "_id": "iKcKBG6YHjBNcVvB",
      "name": "Improved Initiative",
      "type": "feat",
      "data": {
        "description": {
          "value": "",
          "chat": "",
          "unidentified": ""
        },
        "tags": [],
        "activation": {
          "cost": 1,
          "type": ""
        },
        "unchainedAction": {
          "activation": {
            "cost": 1,
            "type": ""
          }
        },
        "duration": {
          "value": null,
          "units": ""
        },
        "target": {
          "value": ""
        },
        "range": {
          "value": null,
          "units": "",
          "maxIncrements": 1,
          "minValue": null,
          "minUnits": "",
          "long": null
        },
        "uses": {
          "value": 0,
          "max": 0,
          "per": null,
          "autoDeductCharges": true,
          "autoDeductChargesCost": "1"
        },
        "measureTemplate": {
          "type": "",
          "size": "0",
          "overrideColor": false,
          "customColor": "",
          "overrideTexture": false,
          "customTexture": ""
        },
        "attackName": "",
        "actionType": null,
        "attackBonus": "",
        "critConfirmBonus": "",
        "damage": {
          "parts": [],
          "critParts": [],
          "nonCritParts": []
        },
        "attackParts": [],
        "formula": "",
        "ability": {
          "attack": null,
          "damage": null,
          "damageMult": 1,
          "critRange": 20,
          "critMult": 2
        },
        "save": {
          "dc": 0,
          "type": "",
          "description": ""
        },
        "effectNotes": "",
        "attackNotes": "",
        "soundEffect": "",
        "changes": [],
        "changeFlags": {
          "loseDexToAC": false,
          "noStr": false,
          "noDex": false,
          "oneInt": false,
          "oneWis": false,
          "oneCha": false,
          "noEncumbrance": false,
          "mediumArmorFullSpeed": false,
          "heavyArmorFullSpeed": false
        },
        "contextNotes": [],
        "links": {
          "children": [],
          "charges": []
        },
        "tag": "",
        "useCustomTag": false,
        "armorProf": {
          "value": [],
          "custom": ""
        },
        "weaponProf": {
          "value": [],
          "custom": ""
        },
        "featType": "feat",
        "associations": {
          "classes": []
        },
        "showInQuickbar": false,
        "nonlethal": false,
        "abilityType": "none",
        "crOffset": "",
        "attack": {
          "parts": []
        }
      },
      "sort": 100000,
      "flags": {},
      "img": "icons/svg/mystery-man.svg",
      "effects": []
    },
    {
      "_id": "qyO4LKapyj8WXzt7",
      "name": "Power Attack",
      "type": "feat",
      "data": {
        "description": {
          "value": "",
          "chat": "",
          "unidentified": ""
        },
        "tags": [],
        "activation": {
          "cost": 1,
          "type": ""
        },
        "unchainedAction": {
          "activation": {
            "cost": 1,
            "type": ""
          }
        },
        "duration": {
          "value": null,
          "units": ""
        },
        "target": {
          "value": ""
        },
        "range": {
          "value": null,
          "units": "",
          "maxIncrements": 1,
          "minValue": null,
          "minUnits": "",
          "long": null
        },
        "uses": {
          "value": 0,
          "max": 0,
          "per": null,
          "autoDeductCharges": true,
          "autoDeductChargesCost": "1"
        },
        "measureTemplate": {
          "type": "",
          "size": "0",
          "overrideColor": false,
          "customColor": "",
          "overrideTexture": false,
          "customTexture": ""
        },
        "attackName": "",
        "actionType": null,
        "attackBonus": "",
        "critConfirmBonus": "",
        "damage": {
          "parts": [],
          "critParts": [],
          "nonCritParts": []
        },
        "attackParts": [],
        "formula": "",
        "ability": {
          "attack": null,
          "damage": null,
          "damageMult": 1,
          "critRange": 20,
          "critMult": 2
        },
        "save": {
          "dc": 0,
          "type": "",
          "description": ""
        },
        "effectNotes": "",
        "attackNotes": "",
        "soundEffect": "",
        "changes": [],
        "changeFlags": {
          "loseDexToAC": false,
          "noStr": false,
          "noDex": false,
          "oneInt": false,
          "oneWis": false,
          "oneCha": false,
          "noEncumbrance": false,
          "mediumArmorFullSpeed": false,
          "heavyArmorFullSpeed": false
        },
        "contextNotes": [],
        "links": {
          "children": [],
          "charges": []
        },
        "tag": "",
        "useCustomTag": false,
        "armorProf": {
          "value": [],
          "custom": ""
        },
        "weaponProf": {
          "value": [],
          "custom": ""
        },
        "featType": "feat",
        "associations": {
          "classes": []
        },
        "showInQuickbar": false,
        "nonlethal": false,
        "abilityType": "none",
        "crOffset": "",
        "attack": {
          "parts": []
        }
      },
      "sort": 100000,
      "flags": {},
      "img": "icons/svg/mystery-man.svg",
      "effects": []
    },
    {
      "_id": "E6PyF1K6LKTmCUJn",
      "name": "Spell Focus (enchant) ",
      "type": "feat",
      "data": {
        "description": {
          "value": "",
          "chat": "",
          "unidentified": ""
        },
        "tags": [],
        "activation": {
          "cost": 1,
          "type": ""
        },
        "unchainedAction": {
          "activation": {
            "cost": 1,
            "type": ""
          }
        },
        "duration": {
          "value": null,
          "units": ""
        },
        "target": {
          "value": ""
        },
        "range": {
          "value": null,
          "units": "",
          "maxIncrements": 1,
          "minValue": null,
          "minUnits": "",
          "long": null
        },
        "uses": {
          "value": 0,
          "max": 0,
          "per": null,
          "autoDeductCharges": true,
          "autoDeductChargesCost": "1"
        },
        "measureTemplate": {
          "type": "",
          "size": "0",
          "overrideColor": false,
          "customColor": "",
          "overrideTexture": false,
          "customTexture": ""
        },
        "attackName": "",
        "actionType": null,
        "attackBonus": "",
        "critConfirmBonus": "",
        "damage": {
          "parts": [],
          "critParts": [],
          "nonCritParts": []
        },
        "attackParts": [],
        "formula": "",
        "ability": {
          "attack": null,
          "damage": null,
          "damageMult": 1,
          "critRange": 20,
          "critMult": 2
        },
        "save": {
          "dc": 0,
          "type": "",
          "description": ""
        },
        "effectNotes": "",
        "attackNotes": "",
        "soundEffect": "",
        "changes": [],
        "changeFlags": {
          "loseDexToAC": false,
          "noStr": false,
          "noDex": false,
          "oneInt": false,
          "oneWis": false,
          "oneCha": false,
          "noEncumbrance": false,
          "mediumArmorFullSpeed": false,
          "heavyArmorFullSpeed": false
        },
        "contextNotes": [],
        "links": {
          "children": [],
          "charges": []
        },
        "tag": "",
        "useCustomTag": false,
        "armorProf": {
          "value": [],
          "custom": ""
        },
        "weaponProf": {
          "value": [],
          "custom": ""
        },
        "featType": "feat",
        "associations": {
          "classes": []
        },
        "showInQuickbar": false,
        "nonlethal": false,
        "abilityType": "none",
        "crOffset": "",
        "attack": {
          "parts": []
        }
      },
      "sort": 100000,
      "flags": {},
      "img": "icons/svg/mystery-man.svg",
      "effects": []
    },
    {
      "_id": "ckJce92DDIPRliDd",
      "name": "wings",
      "type": "attack",
      "data": {
        "description": {
          "value": "",
          "chat": "",
          "unidentified": ""
        },
        "tags": [],
        "activation": {
          "cost": 1,
          "type": "attack"
        },
        "unchainedAction": {
          "activation": {
            "cost": 1,
            "type": "action"
          }
        },
        "duration": {
          "value": null,
          "units": "inst"
        },
        "target": {
          "value": ""
        },
        "range": {
          "value": null,
          "units": "",
          "maxIncrements": 1,
          "minValue": null,
          "minUnits": "",
          "long": null
        },
        "uses": {
          "value": 0,
          "max": 0,
          "per": "",
          "autoDeductCharges": false,
          "autoDeductChargesCost": "1"
        },
        "measureTemplate": {
          "type": "",
          "size": "0",
          "overrideColor": false,
          "customColor": "",
          "overrideTexture": false,
          "customTexture": ""
        },
        "attackName": "",
        "actionType": "mwak",
        "attackBonus": "-5",
        "critConfirmBonus": "",
        "damage": {
          "parts": [
            [
              "sizeRoll(1, 6, @size, 5) + -4",
              ""
            ]
          ],
          "critParts": [],
          "nonCritParts": []
        },
        "attackParts": [
          [
            "0",
            "Additional Attack: 1"
          ]
        ],
        "formula": "",
        "ability": {
          "attack": "str",
          "damage": "str",
          "damageMult": 0.5,
          "critRange": 20,
          "critMult": 2
        },
        "save": {
          "dc": "0",
          "type": "",
          "description": ""
        },
        "effectNotes": "",
        "attackNotes": "Reach: 5 ft.\n2 wings +15 (1d6+3)",
        "soundEffect": "",
        "links": {
          "children": [],
          "charges": []
        },
        "tag": "",
        "useCustomTag": false,
        "attackType": "natural",
        "masterwork": false,
        "nonlethal": false,
        "enh": null,
        "proficient": true,
        "primaryAttack": false,
        "showInQuickbar": true,
        "broken": false,
        "held": "normal",
        "conditionals": [],
        "attack": {
          "parts": []
        }
      },
      "sort": 400000,
      "flags": {},
      "img": "systems/pf1/icons/items/inventory/monster-demon-wing.jpg",
      "effects": []
    },
    {
      "_id": "GbJJzjsz8KAenP9w",
      "name": "SQ: move sand",
      "type": "feat",
      "data": {
        "description": {
          "value": "",
          "chat": "",
          "unidentified": ""
        },
        "tags": [],
        "activation": {
          "cost": 1,
          "type": ""
        },
        "unchainedAction": {
          "activation": {
            "cost": 1,
            "type": ""
          }
        },
        "duration": {
          "value": null,
          "units": ""
        },
        "target": {
          "value": ""
        },
        "range": {
          "value": null,
          "units": "",
          "maxIncrements": 1,
          "minValue": null,
          "minUnits": "",
          "long": null
        },
        "uses": {
          "value": 0,
          "max": 0,
          "per": null,
          "autoDeductCharges": true,
          "autoDeductChargesCost": "1"
        },
        "measureTemplate": {
          "type": "",
          "size": "0",
          "overrideColor": false,
          "customColor": "",
          "overrideTexture": false,
          "customTexture": ""
        },
        "attackName": "",
        "actionType": "",
        "attackBonus": "",
        "critConfirmBonus": "",
        "damage": {
          "parts": [],
          "critParts": [],
          "nonCritParts": []
        },
        "attackParts": [],
        "formula": "",
        "ability": {
          "attack": "",
          "damage": "",
          "damageMult": 1,
          "critRange": 20,
          "critMult": 2
        },
        "save": {
          "dc": "",
          "type": "",
          "description": ""
        },
        "effectNotes": "",
        "attackNotes": "",
        "soundEffect": "",
        "changes": [],
        "changeFlags": {
          "loseDexToAC": false,
          "noStr": false,
          "noDex": false,
          "oneInt": false,
          "oneWis": false,
          "oneCha": false,
          "noEncumbrance": false,
          "mediumArmorFullSpeed": false,
          "heavyArmorFullSpeed": false
        },
        "contextNotes": [],
        "links": {
          "children": [],
          "charges": []
        },
        "tag": "",
        "useCustomTag": false,
        "armorProf": {
          "value": [],
          "custom": ""
        },
        "weaponProf": {
          "value": [],
          "custom": ""
        },
        "featType": "misc",
        "associations": {
          "classes": []
        },
        "showInQuickbar": false,
        "nonlethal": false,
        "abilityType": "",
        "crOffset": "0",
        "attack": {
          "parts": []
        }
      },
      "sort": 1000000,
      "flags": {},
      "img": "icons/svg/mystery-man.svg",
      "effects": []
    },
    {
      "_id": "8czQLFIoOm9fGnhl",
      "name": "tail slap",
      "type": "attack",
      "data": {
        "description": {
          "value": "",
          "chat": "",
          "unidentified": ""
        },
        "tags": [],
        "activation": {
          "cost": 1,
          "type": "standard"
        },
        "unchainedAction": {
          "activation": {
            "cost": 2,
            "type": "action"
          }
        },
        "duration": {
          "value": null,
          "units": "inst"
        },
        "target": {
          "value": ""
        },
        "range": {
          "value": null,
          "units": "",
          "maxIncrements": 1,
          "minValue": null,
          "minUnits": "",
          "long": null
        },
        "uses": {
          "value": 0,
          "max": 0,
          "per": "",
          "autoDeductCharges": false,
          "autoDeductChargesCost": "1"
        },
        "measureTemplate": {
          "type": "",
          "size": "0",
          "overrideColor": false,
          "customColor": "",
          "overrideTexture": false,
          "customTexture": ""
        },
        "attackName": "",
        "actionType": "mwak",
        "attackBonus": "-5",
        "critConfirmBonus": "",
        "damage": {
          "parts": [
            [
              "sizeRoll(1, 8, @size, 5) + 3",
              ""
            ]
          ],
          "critParts": [],
          "nonCritParts": []
        },
        "attackParts": [],
        "formula": "",
        "ability": {
          "attack": "str",
          "damage": "str",
          "damageMult": 1,
          "critRange": 20,
          "critMult": 2
        },
        "save": {
          "dc": "",
          "type": "",
          "description": ""
        },
        "effectNotes": "",
        "attackNotes": "Reach: 5 ft.\ntail slap +15 (1d8+10)",
        "soundEffect": "",
        "links": {
          "children": [],
          "charges": []
        },
        "tag": "",
        "useCustomTag": false,
        "attackType": "weapon",
        "masterwork": false,
        "nonlethal": false,
        "enh": null,
        "proficient": true,
        "primaryAttack": true,
        "showInQuickbar": true,
        "broken": false,
        "held": "normal",
        "conditionals": [],
        "attack": {
          "parts": []
        }
      },
      "sort": 100000,
      "flags": {},
      "img": "icons/svg/mystery-man.svg",
      "effects": []
    },
    {
      "_id": "zF0HNJKhdjoC02yI",
      "name": "sbc | Conversion Changes",
      "type": "buff",
      "data": {
        "description": {
          "value": "<h2>Actor created with Lavaeolous' StatBlock Converter</h2>\n<p>This Buff contains data that could not be represented in other ways. It is advised to re-check the stats in this when adding new features, such as Feats (e.g. Improved Initiative).</p>",
          "chat": "",
          "unidentified": ""
        },
        "tags": [],
        "changes": [
          {
            "_id": "8kv1c0bm",
            "formula": "4",
            "operator": "+",
            "target": "misc",
            "subTarget": "init",
            "modifier": "untyped",
            "priority": 1,
            "value": 0
          },
          {
            "_id": "hihkzc78",
            "formula": "0",
            "operator": "+",
            "target": "savingThrows",
            "subTarget": "fort",
            "modifier": "untyped",
            "priority": 1,
            "value": 0
          },
          {
            "_id": "1obqfs05",
            "formula": "0",
            "operator": "+",
            "target": "savingThrows",
            "subTarget": "ref",
            "modifier": "untyped",
            "priority": 1,
            "value": 0
          },
          {
            "_id": "8f4rr9bh",
            "formula": "0",
            "operator": "+",
            "target": "savingThrows",
            "subTarget": "will",
            "modifier": "untyped",
            "priority": 1,
            "value": 0
          }
        ],
        "changeFlags": {
          "loseDexToAC": false,
          "noStr": false,
          "noDex": false,
          "oneInt": false,
          "oneWis": false,
          "oneCha": false,
          "noEncumbrance": false,
          "mediumArmorFullSpeed": false,
          "heavyArmorFullSpeed": false
        },
        "contextNotes": [],
        "links": {
          "children": []
        },
        "tag": "",
        "useCustomTag": false,
        "buffType": "perm",
        "active": true,
        "level": "",
        "hideFromToken": true,
        "damage": {
          "parts": []
        },
        "range": {
          "maxIncrements": 1
        }
      },
      "sort": 100001,
      "flags": {},
      "img": "systems/pf1/icons/skills/yellow_36.jpg",
      "effects": []
    },
    {
      "_id": "pau0ejk30fs1eebl",
      "name": "endure elements",
      "type": "spell",
      "data": {
        "description": {
          "value": "<div class=\"spell-description\">\n  <p>\n    <strong>School</strong>&nbsp;abjuration;\n    <strong>Level</strong>&nbsp;adept 1, alchemist 1, bloodrager 1, cleric/oracle 1, druid 1, hunter 1, paladin 1, psychic 1, ranger 1, shaman 1, sorcerer/wizard 1, spiritualist 1, summoner 1, unchained Summoner 1;\n    <strong>Domain</strong>&nbsp;Sun 1;\n    \n    \n    <strong>Bloodline</strong>&nbsp;Martyred 1;\n  </p>\n  <p>\n    <strong>Casting Time</strong>&nbsp;1 standard action<br>\n    <strong>Components</strong>&nbsp;V, S<br>\n  </p>\n  <p>\n    <strong>Range</strong>&nbsp;touch<br>\n    \n    <strong>Targets</strong>&nbsp;creature touched<br>\n    \n    <strong>Duration</strong>&nbsp;24 hours<br>\n    <strong>Saving Throw</strong>&nbsp;Will negates (harmless);&nbsp;<strong>Spell Resistance</strong>&nbsp;yes<br>\n  </p>\n  <h2>Description</h2>\n  <p>A creature protected by <i>endure elements</i> suffers no harm from being in a hot or cold environment. It can exist comfortably in conditions between -50 and 140 degrees Fahrenheit without having to make Fortitude saves. The creature's equipment is likewise protected.</p><p><i>Endure elements</i> doesn't provide any protection from fire or cold damage, nor does it protect against other environmental hazards such as smoke, lack of air, and so forth.</p>\n</div>\n",
          "chat": "",
          "unidentified": ""
        },
        "tags": [],
        "activation": {
          "cost": 1,
          "type": "standard"
        },
        "unchainedAction": {
          "activation": {
            "cost": 2,
            "type": "action"
          }
        },
        "duration": {
          "value": null,
          "units": ""
        },
        "target": {
          "value": "creature touched"
        },
        "range": {
          "value": null,
          "units": "touch",
          "maxIncrements": 1,
          "minValue": null,
          "minUnits": "",
          "long": null
        },
        "uses": {
          "value": null,
          "max": null,
          "per": null,
          "autoDeductCharges": true,
          "autoDeductChargesCost": "1"
        },
        "measureTemplate": {
          "type": "",
          "size": "0",
          "overrideColor": false,
          "customColor": "",
          "overrideTexture": false,
          "customTexture": ""
        },
        "attackName": "",
        "actionType": "spellsave",
        "attackBonus": "",
        "critConfirmBonus": "",
        "damage": {
          "parts": [],
          "critParts": [],
          "nonCritParts": []
        },
        "attackParts": [],
        "formula": "",
        "ability": {
          "attack": "",
          "damage": "",
          "damageMult": 1,
          "critRange": 20,
          "critMult": 2
        },
        "save": {
          "dc": "0",
          "type": "will",
          "description": "Will negates (harmless)"
        },
        "effectNotes": "",
        "attackNotes": "",
        "soundEffect": "",
        "links": {
          "children": []
        },
        "learnedAt": {
          "class": [
            [
              "sorcerer/wizard",
              1
            ],
            [
              "cleric/oracle",
              1
            ],
            [
              "druid",
              1
            ],
            [
              "ranger",
              1
            ],
            [
              "paladin",
              1
            ],
            [
              "alchemist",
              1
            ],
            [
              "summoner",
              1
            ],
            [
              "adept",
              1
            ],
            [
              "bloodrager",
              1
            ],
            [
              "shaman",
              1
            ],
            [
              "psychic",
              1
            ],
            [
              "spiritualist",
              1
            ],
            [
              "hunter",
              1
            ],
            [
              "unchained Summoner",
              1
            ]
          ],
          "domain": [
            [
              "Sun",
              1
            ]
          ],
          "subDomain": [],
          "elementalSchool": [],
          "bloodline": [
            [
              "Martyred",
              1
            ]
          ]
        },
        "level": 0,
        "clOffset": 0,
        "slOffset": 0,
        "school": "abj",
        "subschool": "",
        "types": "",
        "nonlethal": false,
        "conditionals": [],
        "components": {
          "value": "",
          "verbal": true,
          "somatic": true,
          "material": false,
          "focus": false,
          "divineFocus": 0
        },
        "castTime": "",
        "materials": {
          "value": "",
          "focus": "",
          "gpValue": 0
        },
        "spellbook": "spelllike",
        "preparation": {
          "preparedAmount": 0,
          "maxAmount": 0,
          "autoDeductCharges": true,
          "spontaneousPrepared": true,
          "mode": "prepared"
        },
        "atWill": true,
        "sr": true,
        "shortDescription": "<p>A creature protected by <i>endure elements</i> suffers no harm from being in a hot or cold environment. It can exist comfortably in conditions between -50 and 140 degrees Fahrenheit without having to make Fortitude saves. The creature's equipment is likewise protected.</p><p><i>Endure elements</i> doesn't provide any protection from fire or cold damage, nor does it protect against other environmental hazards such as smoke, lack of air, and so forth.</p>",
        "spellDuration": "24 hours",
        "spellEffect": "",
        "spellArea": "",
        "showInQuickbar": false,
        "spellPoints": {
          "cost": "1 + @sl"
        },
        "domain": false,
        "slotCost": 1,
        "attack": {
          "parts": []
        }
      },
      "sort": 1100000,
      "flags": {},
      "img": "systems/pf1/icons/misc/magic-swirl.png",
      "effects": []
    },
    {
      "_id": "ct9fhh8uawn8e4md",
      "name": "speak with animals",
      "type": "spell",
      "data": {
        "description": {
          "value": "<div class=\"spell-description\">\n  <p>\n    <strong>School</strong>&nbsp;divination;\n    <strong>Level</strong>&nbsp;bard 3, druid 1, hunter 1, psychic 2, ranger 1;\n    \n    \n    \n    \n  </p>\n  <p>\n    <strong>Casting Time</strong>&nbsp;1 standard action<br>\n    <strong>Components</strong>&nbsp;V, S<br>\n  </p>\n  <p>\n    <strong>Range</strong>&nbsp;personal<br>\n    \n    <strong>Targets</strong>&nbsp;you<br>\n    \n    <strong>Duration</strong>&nbsp;1 min./level<br>\n    \n  </p>\n  <h2>Description</h2>\n  <p>You can ask questions of and receive answers from animals, but the spell doesn't make them any more friendly than normal. Wary and cunning animals are likely to be terse and evasive, while the more stupid ones make inane comments. If an animal is friendly toward you, it may do some favor or service for you.</p>\n</div>\n",
          "chat": "",
          "unidentified": ""
        },
        "tags": [],
        "activation": {
          "cost": 1,
          "type": "standard"
        },
        "unchainedAction": {
          "activation": {
            "cost": 2,
            "type": "action"
          }
        },
        "duration": {
          "value": null,
          "units": ""
        },
        "target": {
          "value": "you"
        },
        "range": {
          "value": null,
          "units": "personal",
          "maxIncrements": 1,
          "minValue": null,
          "minUnits": "",
          "long": null
        },
        "uses": {
          "value": null,
          "max": null,
          "per": null,
          "autoDeductCharges": true,
          "autoDeductChargesCost": "1"
        },
        "measureTemplate": {
          "type": "",
          "size": "0",
          "overrideColor": false,
          "customColor": "",
          "overrideTexture": false,
          "customTexture": ""
        },
        "attackName": "",
        "actionType": "",
        "attackBonus": "",
        "critConfirmBonus": "",
        "damage": {
          "parts": [],
          "critParts": [],
          "nonCritParts": []
        },
        "attackParts": [],
        "formula": "",
        "ability": {
          "attack": "",
          "damage": "",
          "damageMult": 1,
          "critRange": 20,
          "critMult": 2
        },
        "save": {
          "dc": "0",
          "type": "",
          "description": ""
        },
        "effectNotes": "",
        "attackNotes": "",
        "soundEffect": "",
        "links": {
          "children": []
        },
        "learnedAt": {
          "class": [
            [
              "druid",
              1
            ],
            [
              "ranger",
              1
            ],
            [
              "bard",
              3
            ],
            [
              "psychic",
              2
            ],
            [
              "hunter",
              1
            ]
          ],
          "domain": [],
          "subDomain": [],
          "elementalSchool": [],
          "bloodline": []
        },
        "level": 0,
        "clOffset": 0,
        "slOffset": 0,
        "school": "div",
        "subschool": "",
        "types": "",
        "nonlethal": false,
        "conditionals": [],
        "components": {
          "value": "",
          "verbal": true,
          "somatic": true,
          "material": false,
          "focus": false,
          "divineFocus": 0
        },
        "castTime": "",
        "materials": {
          "value": "",
          "focus": "",
          "gpValue": 0
        },
        "spellbook": "spelllike",
        "preparation": {
          "preparedAmount": 0,
          "maxAmount": 0,
          "autoDeductCharges": true,
          "spontaneousPrepared": true,
          "mode": "prepared"
        },
        "atWill": true,
        "sr": false,
        "shortDescription": "<p>You can ask questions of and receive answers from animals, but the spell doesn't make them any more friendly than normal. Wary and cunning animals are likely to be terse and evasive, while the more stupid ones make inane comments. If an animal is friendly toward you, it may do some favor or service for you.</p>",
        "spellDuration": "1 min./level",
        "spellEffect": "",
        "spellArea": "",
        "showInQuickbar": false,
        "spellPoints": {
          "cost": "1 + @sl"
        },
        "domain": false,
        "slotCost": 1,
        "attack": {
          "parts": []
        }
      },
      "sort": 1200000,
      "flags": {},
      "img": "systems/pf1/icons/misc/magic-swirl.png",
      "effects": []
    },
    {
      "_id": "zqj5qzyl46af27v0",
      "name": "suggestion",
      "type": "spell",
      "data": {
        "description": {
          "value": "<div class=\"spell-description\">\n  <p>\n    <strong>School</strong>&nbsp;enchantment&nbsp;(compulsion)&nbsp;[language-dependent, mind-affecting];\n    <strong>Level</strong>&nbsp;bard 2, medium 2, mesmerist 2, occultist 3, psychic 2, sorcerer/wizard 3, witch 3;\n    <strong>Domain</strong>&nbsp;Charm 3;\n    <strong>Subdomain</strong>&nbsp;Corruption 2, Devil 3, Innuendo 3;\n    \n    <strong>Bloodline</strong>&nbsp;Infernal 3, Maestro 3, Rakshasa 3;\n  </p>\n  <p>\n    <strong>Casting Time</strong>&nbsp;1 standard action<br>\n    <strong>Components</strong>&nbsp;V, M (a snake&#x27;s tongue and a honeycomb)<br>\n  </p>\n  <p>\n    <strong>Range</strong>&nbsp;close (25 ft. + 5 ft./2 levels)<br>\n    \n    <strong>Targets</strong>&nbsp;one living creature<br>\n    \n    <strong>Duration</strong>&nbsp;1 hour/level or until completed<br>\n    <strong>Saving Throw</strong>&nbsp;Will negates;&nbsp;<strong>Spell Resistance</strong>&nbsp;yes<br>\n  </p>\n  <h2>Description</h2>\n  <p>You influence the actions of the target creature by suggesting a course of activity (limited to a sentence or two). The <i>suggestion</i> must be worded in such a manner as to make the activity sound reasonable. Asking the creature to do some obviously harmful act automatically negates the effect of the spell.</p><p>The suggested course of activity can continue for the entire duration. If the suggested activity can be completed in a shorter time, the spell ends when the subject finishes what it was asked to do. You can instead specify conditions that will trigger a special activity during the duration. If the condition is not met before the spell duration expires, the activity is not performed.</p><p>A very reasonable <i>suggestion</i> causes the save to be made with a penalty (such as -1 or -2).</p>\n</div>\n",
          "chat": "",
          "unidentified": ""
        },
        "tags": [],
        "activation": {
          "cost": 1,
          "type": "standard"
        },
        "unchainedAction": {
          "activation": {
            "cost": 2,
            "type": "action"
          }
        },
        "duration": {
          "value": null,
          "units": ""
        },
        "target": {
          "value": "one living creature"
        },
        "range": {
          "value": null,
          "units": "close",
          "maxIncrements": 1,
          "minValue": null,
          "minUnits": "",
          "long": null
        },
        "uses": {
          "value": null,
          "max": null,
          "per": null,
          "autoDeductCharges": true,
          "autoDeductChargesCost": "1"
        },
        "measureTemplate": {
          "type": "",
          "size": "0",
          "overrideColor": false,
          "customColor": "",
          "overrideTexture": false,
          "customTexture": ""
        },
        "attackName": "",
        "actionType": "spellsave",
        "attackBonus": "",
        "critConfirmBonus": "",
        "damage": {
          "parts": [],
          "critParts": [],
          "nonCritParts": []
        },
        "attackParts": [],
        "formula": "",
        "ability": {
          "attack": "",
          "damage": "",
          "damageMult": 1,
          "critRange": 20,
          "critMult": 2
        },
        "save": {
          "dc": "0",
          "type": "will",
          "description": "Will negates"
        },
        "effectNotes": "",
        "attackNotes": "",
        "soundEffect": "",
        "links": {
          "children": []
        },
        "learnedAt": {
          "class": [
            [
              "sorcerer/wizard",
              3
            ],
            [
              "bard",
              2
            ],
            [
              "witch",
              3
            ],
            [
              "psychic",
              2
            ],
            [
              "medium",
              2
            ],
            [
              "mesmerist",
              2
            ],
            [
              "occultist",
              3
            ]
          ],
          "domain": [
            [
              "Charm",
              3
            ]
          ],
          "subDomain": [
            [
              "Devil",
              3
            ],
            [
              "Corruption",
              2
            ],
            [
              "Innuendo",
              3
            ]
          ],
          "elementalSchool": [],
          "bloodline": [
            [
              "Infernal",
              3
            ],
            [
              "Maestro",
              3
            ],
            [
              "Rakshasa",
              3
            ]
          ]
        },
        "level": 0,
        "clOffset": 0,
        "slOffset": 0,
        "school": "enc",
        "subschool": "compulsion",
        "types": "language-dependent, mind-affecting",
        "nonlethal": false,
        "conditionals": [],
        "components": {
          "value": "",
          "verbal": true,
          "somatic": false,
          "material": true,
          "focus": false,
          "divineFocus": 0
        },
        "castTime": "",
        "materials": {
          "value": "a snake's tongue and a honeycomb",
          "focus": "",
          "gpValue": 0
        },
        "spellbook": "spelllike",
        "preparation": {
          "preparedAmount": 0,
          "maxAmount": 0,
          "autoDeductCharges": true,
          "spontaneousPrepared": true,
          "mode": "prepared"
        },
        "atWill": true,
        "sr": true,
        "shortDescription": "<p>You influence the actions of the target creature by suggesting a course of activity (limited to a sentence or two). The <i>suggestion</i> must be worded in such a manner as to make the activity sound reasonable. Asking the creature to do some obviously harmful act automatically negates the effect of the spell.</p><p>The suggested course of activity can continue for the entire duration. If the suggested activity can be completed in a shorter time, the spell ends when the subject finishes what it was asked to do. You can instead specify conditions that will trigger a special activity during the duration. If the condition is not met before the spell duration expires, the activity is not performed.</p><p>A very reasonable <i>suggestion</i> causes the save to be made with a penalty (such as -1 or -2).</p>",
        "spellDuration": "1 hour/level or until completed",
        "spellEffect": "",
        "spellArea": "",
        "showInQuickbar": false,
        "spellPoints": {
          "cost": "1 + @sl"
        },
        "domain": false,
        "slotCost": 1,
        "attack": {
          "parts": []
        }
      },
      "sort": 1300000,
      "flags": {},
      "img": "systems/pf1/icons/misc/magic-swirl.png",
      "effects": []
    }
  ],
  "effects": []
}