{
  "_id": "AL2Hf4j8cJozovGb",
  "name": "Aquatic Bloodline",
  "permission": {
    "default": 0
  },
  "type": "feat",
  "data": {
    "description": {
      "value": "<p><em>Your family traces its heritage back to the ocean depths, whether scions of undersea empires left in the wake of nomadic sea-tribes, or the spawn of creeping ichthyic infiltrators into remote seaside villages. The song of the sea hums in your blood, calling the waves and all those within to your command.</em></p>\n<p><strong>Class Skill:</strong>&nbsp;<a href=\"https://www.d20pfsrd.com/skills/swim\">Swim</a>.</p>\n<p><strong>Bonus Spells:</strong></p>\n<ul>\n<li>@Compendium[pf1.spells.ohy0ty2dawfaaqwd]{Hydraulic Push} (3rd),</li>\n<li>@Compendium[pf1.spells.7fvsn0gbv6ynlp63]{Slipstream}&nbsp;(5th),</li>\n<li>@Compendium[pf1.spells.a4z9yazsd7ez1p0h]{Aqueous Orb}&nbsp;(7th),</li>\n<li>@Compendium[pf1.spells.nll8ip8348eti0ff]{Geyser}&nbsp;(9th),</li>\n<li>@Compendium[pf1.spells.7yf67b7y4byj96w7]{Control Water}&nbsp;(11th),</li>\n<li>@Compendium[pf1.spells.br37848gchetel0q]{Beast Shape IV}&nbsp;(13th),</li>\n<li>@Compendium[pf1.spells.et3440o24hcgrfwl]{Summon Monster VII}&nbsp;(15th),</li>\n<li>@Compendium[pf1.spells.o4rwtizvdj7216qd]{Seamantle}&nbsp;(17th),</li>\n<li>@Compendium[pf1.spells.refg1teqkrdtxllg]{World Wave}&nbsp;(19th).</li>\n</ul>\n<p><strong>Bonus Feats:</strong></p>\n<ul>\n<li>@Compendium[pf1.feats.rMR6ahXEfYqASE7D]{Athletic},</li>\n<li>@Compendium[pf1.feats.nNVFVFRBCT4O2ab9]{Brew Potion},</li>\n<li>@Compendium[pf1.feats.F9mKy0SmRo4bTdni]{Defensive Combat Training},</li>\n<li>@Compendium[pf1.feats.JreaiTHdyWFNj3Tb]{Dodge},</li>\n<li>@Compendium[pf1.feats.R7L4SlGRlnThqFrP]{Mobility},</li>\n<li>@Compendium[pf1.feats.2YuxcUNFMPNBpekG]{Silent Spell},</li>\n<li>@Compendium[pf1.feats.7zJTztNW7hdaqjKc]{Skill Focus}(<a href=\"https://www.d20pfsrd.com/skills/swim\">Swim</a>),</li>\n<li>@Compendium[pf1.feats.8snLqsJN4LLL00Nq]{Toughness}.</li>\n</ul>\n<p><a name=\"TOC-Bloodline-Arcana\"></a><strong>Bloodline Arcana: </strong>Whenever you cast a spell of the water type, your effective&nbsp;<a href=\"https://www.d20pfsrd.com/magic#TOC-Caster-Level\">caster level</a>&nbsp;is increased by one, and summoned creatures with a swim speed or the&nbsp;<a href=\"https://www.d20pfsrd.com/bestiary/rules-for-monsters/creature-types#TOC-Aquatic\">aquatic</a>&nbsp;or&nbsp;<a href=\"https://www.d20pfsrd.com/bestiary/rules-for-monsters/creature-types#TOC-Water\">water</a>&nbsp;type gain a +1&nbsp;<a href=\"https://www.d20pfsrd.com/basics-ability-scores/glossary#TOC-Morale-Bonus\">morale bonus</a>&nbsp;on attack and damage rolls.</p>",
      "chat": "",
      "unidentified": ""
    },
    "tags": [],
    "activation": {
      "cost": 1,
      "type": ""
    },
    "unchainedAction": {
      "activation": {
        "cost": 1,
        "type": ""
      }
    },
    "duration": {
      "value": null,
      "units": ""
    },
    "target": {
      "value": ""
    },
    "range": {
      "value": null,
      "units": "",
      "maxIncrements": 1,
      "minValue": null,
      "minUnits": "",
      "long": null
    },
    "uses": {
      "value": 0,
      "max": 0,
      "per": null,
      "autoDeductCharges": true,
      "autoDeductChargesCost": "1"
    },
    "measureTemplate": {
      "type": "",
      "size": "0",
      "overrideColor": false,
      "customColor": "",
      "overrideTexture": false,
      "customTexture": ""
    },
    "attackName": "",
    "actionType": "",
    "attackBonus": "",
    "critConfirmBonus": "",
    "damage": {
      "parts": [],
      "critParts": [],
      "nonCritParts": []
    },
    "attackParts": [],
    "formula": "",
    "ability": {
      "attack": null,
      "damage": null,
      "damageMult": 1,
      "critRange": 20,
      "critMult": 2
    },
    "save": {
      "dc": 0,
      "type": "",
      "description": ""
    },
    "effectNotes": "",
    "attackNotes": "",
    "soundEffect": "",
    "changes": [],
    "changeFlags": {
      "loseDexToAC": false,
      "noStr": false,
      "noDex": false,
      "oneInt": false,
      "oneWis": false,
      "oneCha": false,
      "noEncumbrance": false,
      "mediumArmorFullSpeed": false,
      "heavyArmorFullSpeed": false
    },
    "contextNotes": [],
    "links": {
      "children": [],
      "charges": []
    },
    "tag": "",
    "useCustomTag": false,
    "armorProf": {
      "value": [],
      "custom": ""
    },
    "weaponProf": {
      "value": [],
      "custom": ""
    },
    "featType": "classFeat",
    "associations": {
      "classes": [
        [
          "Sorcerer"
        ]
      ]
    },
    "showInQuickbar": false,
    "nonlethal": false,
    "abilityType": "none",
    "crOffset": "",
    "attack": {
      "parts": []
    }
  },
  "flags": {},
  "img": "systems/pf1/icons/skills/blue_20.jpg",
  "effects": []
}