{
  "_id": "XnsjytioucuaZFAA",
  "name": "Artifice Domain",
  "permission": {
    "default": 0
  },
  "type": "feat",
  "data": {
    "description": {
      "value": "<p><strong>Granted Powers:</strong> You can repair damage to objects, animate objects with life, and create objects from nothing.</p>\n<p><strong>Domain Spells:</strong></p>\n<ul>\n<li>1st—@Compendium[pf1.spells.7k5ypftnzy9r7mzz]{Animate Rope}</li>\n<li>2nd—@Compendium[pf1.spells.10e3iwsr5jkq4q73]{Wood Shape}</li>\n<li>3rd—@Compendium[pf1.spells.g1evszmk8wfgnsv5]{Stone Shape}</li>\n<li>4th—@Compendium[pf1.spells.jsvjsax2eabrlx8g]{Minor Creation}</li>\n<li>5th—@Compendium[pf1.spells.rxk9rk8gvqau3f3l]{Fabricate}</li>\n<li>6th—@Compendium[pf1.spells.b8lt1275mz4ez4d8]{Major Creation}</li>\n<li>7th—@Compendium[pf1.spells.fnxgq54y02f6ri82]{Wall of Iron}</li>\n<li>8th—@Compendium[pf1.spells.o6vh3lrmi1hsdzmm]{Instant Summons}</li>\n<li>9th—@Compendium[pf1.spells.lxxliyxfw9uvbxmt]{Prismatic Sphere}</li>\n</ul>",
      "chat": "",
      "unidentified": ""
    },
    "tags": [],
    "activation": {
      "cost": 1,
      "type": ""
    },
    "unchainedAction": {
      "activation": {
        "cost": 1,
        "type": ""
      }
    },
    "duration": {
      "value": null,
      "units": ""
    },
    "target": {
      "value": ""
    },
    "range": {
      "value": null,
      "units": "",
      "maxIncrements": 1,
      "minValue": null,
      "minUnits": "",
      "long": null
    },
    "uses": {
      "value": 0,
      "max": 0,
      "per": null,
      "autoDeductCharges": true,
      "autoDeductChargesCost": "1"
    },
    "measureTemplate": {
      "type": "",
      "size": "0",
      "overrideColor": false,
      "customColor": "",
      "overrideTexture": false,
      "customTexture": ""
    },
    "attackName": "",
    "actionType": "",
    "attackBonus": "",
    "critConfirmBonus": "",
    "damage": {
      "parts": [],
      "critParts": [],
      "nonCritParts": []
    },
    "attackParts": [],
    "formula": "",
    "ability": {
      "attack": null,
      "damage": null,
      "damageMult": 1,
      "critRange": 20,
      "critMult": 2
    },
    "save": {
      "dc": 0,
      "type": "",
      "description": ""
    },
    "effectNotes": "",
    "attackNotes": "",
    "soundEffect": "",
    "changes": [],
    "changeFlags": {
      "loseDexToAC": false,
      "noStr": false,
      "noDex": false,
      "oneInt": false,
      "oneWis": false,
      "oneCha": false,
      "noEncumbrance": false,
      "mediumArmorFullSpeed": false,
      "heavyArmorFullSpeed": false
    },
    "contextNotes": [],
    "links": {
      "children": [],
      "charges": []
    },
    "tag": "",
    "useCustomTag": false,
    "armorProf": {
      "value": [],
      "custom": ""
    },
    "weaponProf": {
      "value": [],
      "custom": ""
    },
    "featType": "classFeat",
    "associations": {
      "classes": [
        [
          "Cleric"
        ]
      ]
    },
    "showInQuickbar": false,
    "nonlethal": false,
    "abilityType": "none",
    "crOffset": "",
    "attack": {
      "parts": []
    }
  },
  "flags": {},
  "img": "systems/pf1/icons/items/inventory/badge-hammer.jpg",
  "effects": []
}