{
  "_id": "MAsmwMlqEV4GZQEL",
  "name": "Blackened Curse",
  "permission": {
    "default": 0
  },
  "type": "feat",
  "data": {
    "description": {
      "value": "<p>Your hands and forearms are shriveled and blackened, as if you had plunged your arms into a blazing fire, and your thin, papery skin is sensitive to the touch. You take a –4 penalty on weapon attack rolls, but you add @Compendium[pf1.spells.lndeaqm2j2nvgm6p]{Burning Hands} to your list of spells known.</p>\n<p>At 5th level, add @Compendium[pf1.spells.q4ixxjb4v281g2xv]{Scorching Ray} and @Compendium[pf1.spells.lzos34s87qsc620l]{Flaming Sphere} to your list of spells known.</p>\n<p>At 10th level, add @Compendium[pf1.spells.92hth51cs9oi0nfe]{Wall Of Fire} to your list of spells known and your penalty on weapon attack rolls is reduced to –2.</p>\n<p>At 15th level, add @Compendium[pf1.spells.cm3l4h4mld9j8lar]{Delayed Blast Fireball} to your list of spells known.</p>",
      "chat": "",
      "unidentified": ""
    },
    "tags": [],
    "activation": {
      "cost": 1,
      "type": ""
    },
    "unchainedAction": {
      "activation": {
        "cost": 1,
        "type": ""
      }
    },
    "duration": {
      "value": null,
      "units": ""
    },
    "target": {
      "value": ""
    },
    "range": {
      "value": null,
      "units": "",
      "maxIncrements": 1,
      "minValue": null,
      "minUnits": "",
      "long": null
    },
    "uses": {
      "value": 0,
      "max": 0,
      "per": null,
      "autoDeductCharges": true,
      "autoDeductChargesCost": "1"
    },
    "measureTemplate": {
      "type": "",
      "size": "",
      "overrideColor": false,
      "customColor": "",
      "overrideTexture": false,
      "customTexture": ""
    },
    "attackName": "",
    "actionType": "",
    "attackBonus": "",
    "critConfirmBonus": "",
    "damage": {
      "parts": [],
      "critParts": [],
      "nonCritParts": []
    },
    "attackParts": [],
    "formula": "",
    "ability": {
      "attack": null,
      "damage": null,
      "damageMult": 1,
      "critRange": 20,
      "critMult": 2
    },
    "save": {
      "dc": 0,
      "type": "",
      "description": ""
    },
    "effectNotes": "",
    "attackNotes": "",
    "soundEffect": "",
    "changes": [
      {
        "_id": "e78oidpi",
        "formula": "-4",
        "operator": "add",
        "target": "attack",
        "subTarget": "attack",
        "modifier": "penalty",
        "priority": 0,
        "value": 0
      }
    ],
    "changeFlags": {
      "loseDexToAC": false,
      "noStr": false,
      "noDex": false,
      "oneInt": false,
      "oneWis": false,
      "oneCha": false,
      "noEncumbrance": false,
      "mediumArmorFullSpeed": false,
      "heavyArmorFullSpeed": false
    },
    "contextNotes": [],
    "links": {
      "children": [],
      "charges": []
    },
    "tag": "",
    "useCustomTag": false,
    "armorProf": {
      "value": [],
      "custom": ""
    },
    "weaponProf": {
      "value": [],
      "custom": ""
    },
    "featType": "classFeat",
    "associations": {
      "classes": [
        [
          "Oracle"
        ]
      ]
    },
    "showInQuickbar": false,
    "nonlethal": false,
    "abilityType": "none",
    "crOffset": "",
    "attack": {
      "parts": []
    }
  },
  "flags": {},
  "img": "systems/pf1/icons/spells/horror-eerie-1.jpg",
  "effects": []
}