{
  "_id": "5Vuij5GUetxj8QP8",
  "name": "Bleaching Discipline",
  "permission": {
    "default": 0
  },
  "type": "feat",
  "data": {
    "description": {
      "value": "<p>You draw power from a void in your emotions, a yawning and empty chasm where your hopes and dreams and fears should be. It is very rare for any creature besides a gnome to have this psychic discipline—usually a bleachling or a gnome with a particularly strong fear of the Bleaching—but in occasional cases members of other races have been known to develop such a strong nihilistic ennui or depression that they can tap into the vitality-draining effects of this discipline as well.<br><br><strong>Phrenic Pool Ability:</strong> Wisdom<br><br><strong>Bonus Spells:</strong>&nbsp;</p>\n<ul>\n<li>@Compendium[pf1.spells.7u45op4znvtkvgv3]{Decrepit Disguise} (1st),&nbsp;</li>\n<li>@Compendium[pf1.spells.5j7llv2nys5makeq]{Steal Voice} (4th),&nbsp;</li>\n<li>@Compendium[pf1.spells.ds011sdiv3d8c86w]{Cup Of Dust} (6th),&nbsp;</li>\n<li>@Compendium[pf1.spells.bc3nc0ri47egssht]{Enervation} (8th),&nbsp;</li>\n<li>@Compendium[pf1.spells.c7j4fxzlxyvll2t4]{Pessimism} (10th),&nbsp;</li>\n<li>@Compendium[pf1.spells.sxyiwj0z95piv96i]{Disintegrate} (12th),&nbsp;</li>\n<li>@Compendium[pf1.spells.9f3hf9h3j8q8062b]{Waves of Exhaustion} (14th),&nbsp;</li>\n<li>@Compendium[pf1.spells.jg3p4t3dv1a7nqvo]{Spell Immunity, Greater} (16th),&nbsp;</li>\n<li>@Compendium[pf1.spells.khfprkujokr9uigq]{Energy Drain} (18th).</li>\n</ul>",
      "chat": "",
      "unidentified": ""
    },
    "tags": [],
    "activation": {
      "cost": 1,
      "type": ""
    },
    "unchainedAction": {
      "activation": {
        "cost": 1,
        "type": ""
      }
    },
    "duration": {
      "value": null,
      "units": ""
    },
    "target": {
      "value": ""
    },
    "range": {
      "value": null,
      "units": "",
      "maxIncrements": 1,
      "minValue": null,
      "minUnits": "",
      "long": null
    },
    "uses": {
      "value": 0,
      "max": 0,
      "per": null,
      "autoDeductCharges": true,
      "autoDeductChargesCost": "1"
    },
    "measureTemplate": {
      "type": "",
      "size": "",
      "overrideColor": false,
      "customColor": "",
      "overrideTexture": false,
      "customTexture": ""
    },
    "attackName": "",
    "actionType": "",
    "attackBonus": "",
    "critConfirmBonus": "",
    "damage": {
      "parts": [],
      "critParts": [],
      "nonCritParts": []
    },
    "attackParts": [],
    "formula": "",
    "ability": {
      "attack": null,
      "damage": null,
      "damageMult": 1,
      "critRange": 20,
      "critMult": 2
    },
    "save": {
      "dc": 0,
      "type": "",
      "description": ""
    },
    "effectNotes": "",
    "attackNotes": "",
    "soundEffect": "",
    "changes": [],
    "changeFlags": {
      "loseDexToAC": false,
      "noStr": false,
      "noDex": false,
      "oneInt": false,
      "oneWis": false,
      "oneCha": false,
      "noEncumbrance": false,
      "mediumArmorFullSpeed": false,
      "heavyArmorFullSpeed": false
    },
    "contextNotes": [],
    "links": {
      "children": [],
      "charges": []
    },
    "tag": "",
    "useCustomTag": false,
    "armorProf": {
      "value": [],
      "custom": ""
    },
    "weaponProf": {
      "value": [],
      "custom": ""
    },
    "featType": "classFeat",
    "associations": {
      "classes": [
        [
          "Psychic"
        ]
      ]
    },
    "showInQuickbar": false,
    "nonlethal": false,
    "abilityType": "none",
    "crOffset": "",
    "attack": {
      "parts": []
    }
  },
  "flags": {},
  "img": "systems/pf1/icons/spells/slice-spirit-3.jpg",
  "effects": []
}