{
  "_id": "nMuDyCSs3IVFUiiu",
  "name": "Bones Spirit",
  "permission": {
    "default": 0
  },
  "type": "feat",
  "data": {
    "description": {
      "value": "<p>A shaman who selects the bones spirit is cadaverously thin, with sunken eye sockets and dead eyes that stare off into the distance. Her body has a faint smell of the grave. When she calls upon one of this spirit’s abilities, a ghostly wind whips her hair and clothes about, and the unpleasant stench becomes more prominent.<br><br><strong>Spirit Magic Spells:</strong>&nbsp;</p>\n<ul>\n<li>@Compendium[pf1.spells.9tww9fc9049h6iqc]{Cause Fear} (1st),&nbsp;</li>\n<li>@Compendium[pf1.spells.3ze0kso9hxff5u2f]{False Life} (2nd),&nbsp;</li>\n<li>@Compendium[pf1.spells.8uwmrygxgih1fb57]{Animate Dead} (3rd),&nbsp;</li>\n<li>@Compendium[pf1.spells.be88e90guqbi1q1z]{Fear} (4th),&nbsp;</li>\n<li>@Compendium[pf1.spells.dg3mrasygkm83c3e]{Slay Living} (5th),&nbsp;</li>\n<li>@Compendium[pf1.spells.3a162m66toj22fpa]{Circle Of Death} (6th),&nbsp;</li>\n<li>@Compendium[pf1.spells.wkp8u7xl1dgpk362]{Control Undead} (7th),&nbsp;</li>\n<li>@Compendium[pf1.spells.e8zen5nzixnt7bde]{Horrid Wilting} (8th),&nbsp;</li>\n<li>@Compendium[pf1.spells.wplgawb6aznjx7se]{Wail of the Banshee} (9th)</li>\n</ul>\n<p><strong>Spirit Animal:</strong> The shaman’s spirit animal gives off a ghostly glow and seems nearly transparent. The animal is under the constant effects of&nbsp;blur, with a caster level equal to the shaman’s level.</p>",
      "chat": "",
      "unidentified": ""
    },
    "tags": [],
    "activation": {
      "cost": 1,
      "type": ""
    },
    "unchainedAction": {
      "activation": {
        "cost": 1,
        "type": ""
      }
    },
    "duration": {
      "value": null,
      "units": ""
    },
    "target": {
      "value": ""
    },
    "range": {
      "value": null,
      "units": "",
      "maxIncrements": 1,
      "minValue": null,
      "minUnits": "",
      "long": null
    },
    "uses": {
      "value": 0,
      "max": 0,
      "per": null,
      "autoDeductCharges": true,
      "autoDeductChargesCost": "1"
    },
    "measureTemplate": {
      "type": "",
      "size": "",
      "overrideColor": false,
      "customColor": "",
      "overrideTexture": false,
      "customTexture": ""
    },
    "attackName": "",
    "actionType": "",
    "attackBonus": "",
    "critConfirmBonus": "",
    "damage": {
      "parts": [],
      "critParts": [],
      "nonCritParts": []
    },
    "attackParts": [],
    "formula": "",
    "ability": {
      "attack": null,
      "damage": null,
      "damageMult": 1,
      "critRange": 20,
      "critMult": 2
    },
    "save": {
      "dc": 0,
      "type": "",
      "description": ""
    },
    "effectNotes": "",
    "attackNotes": "",
    "soundEffect": "",
    "changes": [],
    "changeFlags": {
      "loseDexToAC": false,
      "noStr": false,
      "noDex": false,
      "oneInt": false,
      "oneWis": false,
      "oneCha": false,
      "noEncumbrance": false,
      "mediumArmorFullSpeed": false,
      "heavyArmorFullSpeed": false
    },
    "contextNotes": [],
    "links": {
      "children": [],
      "charges": []
    },
    "tag": "",
    "useCustomTag": false,
    "armorProf": {
      "value": [],
      "custom": ""
    },
    "weaponProf": {
      "value": [],
      "custom": ""
    },
    "featType": "classFeat",
    "associations": {
      "classes": [
        [
          "Shaman"
        ]
      ]
    },
    "showInQuickbar": false,
    "nonlethal": false,
    "abilityType": "none",
    "crOffset": "",
    "attack": {
      "parts": []
    }
  },
  "flags": {},
  "img": "systems/pf1/icons/skills/violet_11.jpg",
  "effects": []
}