{
  "_id": "YlQrG9WeIKOsviud",
  "name": "Celebrity Perks",
  "permission": {
    "default": 0
  },
  "type": "feat",
  "data": {
    "description": {
      "value": "<p>The vigilante is a celebrity in his area of renown, and adoring fans are all too eager to shower him with the fundamental necessities. While within his area of renown, he can always receive common meals or lodging (worth up to 1 gp per meal or night) for free, and can avoid paying taxes or bribes of 1 gp or less. If he wants a particular nonmagical item worth 1 gp or less, he can spend 1d10 minutes interacting with people in his area of renown to receive the item from a fan (if he ever sells such a gift from a fan, he loses this social talent permanently). If he has the great renown social talent, he can receive gifts of up to 5 gp, receive fine food and lodgings (worth up to 10 gp per meal or night) for free, and avoid paying taxes or bribes of 10 gp or less. If he has incredible renown, he can receive gifts of up to 25 gp, receive exquisite food and lodgings (worth up to 100 gp per meal or night) for free, and avoid paying taxes or bribes of 100 gp or less.</p>\n<p>A vigilante must be at least 5th level and have the renown social talent to select this talent.</p>",
      "chat": "",
      "unidentified": ""
    },
    "tags": [],
    "activation": {
      "cost": 1,
      "type": ""
    },
    "unchainedAction": {
      "activation": {
        "cost": 1,
        "type": ""
      }
    },
    "duration": {
      "value": null,
      "units": ""
    },
    "target": {
      "value": ""
    },
    "range": {
      "value": null,
      "units": "",
      "maxIncrements": 1,
      "minValue": null,
      "minUnits": "",
      "long": null
    },
    "uses": {
      "value": 0,
      "max": 0,
      "per": null,
      "autoDeductCharges": true,
      "autoDeductChargesCost": "1"
    },
    "measureTemplate": {
      "type": "",
      "size": "",
      "overrideColor": false,
      "customColor": "",
      "overrideTexture": false,
      "customTexture": ""
    },
    "attackName": "",
    "actionType": "",
    "attackBonus": "",
    "critConfirmBonus": "",
    "damage": {
      "parts": [],
      "critParts": [],
      "nonCritParts": []
    },
    "attackParts": [],
    "formula": "",
    "ability": {
      "attack": null,
      "damage": null,
      "damageMult": 1,
      "critRange": 20,
      "critMult": 2
    },
    "save": {
      "dc": 0,
      "type": "",
      "description": ""
    },
    "effectNotes": "",
    "attackNotes": "",
    "soundEffect": "",
    "changes": [],
    "changeFlags": {
      "loseDexToAC": false,
      "noStr": false,
      "noDex": false,
      "oneInt": false,
      "oneWis": false,
      "oneCha": false,
      "noEncumbrance": false,
      "mediumArmorFullSpeed": false,
      "heavyArmorFullSpeed": false
    },
    "contextNotes": [],
    "links": {
      "children": [],
      "charges": []
    },
    "tag": "",
    "useCustomTag": false,
    "armorProf": {
      "value": [],
      "custom": ""
    },
    "weaponProf": {
      "value": [],
      "custom": ""
    },
    "featType": "classFeat",
    "associations": {
      "classes": [
        [
          "Vigilante"
        ]
      ]
    },
    "showInQuickbar": false,
    "nonlethal": false,
    "abilityType": "ex",
    "crOffset": "",
    "attack": {
      "parts": []
    }
  },
  "flags": {},
  "img": "systems/pf1/icons/skills/light_07.jpg",
  "effects": []
}