{
  "_id": "YoKXg3OTiARGNZyo",
  "name": "Consume Magic Items",
  "permission": {
    "default": 0
  },
  "type": "feat",
  "data": {
    "description": {
      "value": "<p>The arcanist can consume the power of potions, scrolls, staves, and wands, using them to fill her arcane reservoir. Using this ability is a move action that provokes an attack of opportunity. When using this exploit, the arcanist adds a number of points to her arcane reservoir equal to 1/2 the level of the spell contained in the item (o-level and 1st-level spells do not recharge the arcanist’s arcane reservoir). If used on a potion or scroll, the item is destroyed. If used on a wand, the wand loses 5 charges; if it has fewer than 5 charges, the wand is destroyed and the arcanist gains no benefit. If used on a staff, it loses 1 charge and the arcanist gains a number of points to his arcane reservoir equal to the level of the highest-level spell the staff can cast using only 1 charge; if the staff has no spells that require only 1 charge, the arcanist cannot consume that staff’s magic. No more than 1 charge can be drawn from a staff each day in this way. Points gained in excess of the arcanist’s reservoir’s maximum are lost.</p>\n<p>This exploit has no effect on magic armor, weapons, rings, rods, wondrous items, or other magic items besides those noted above.</p>",
      "chat": "",
      "unidentified": ""
    },
    "tags": [],
    "activation": {
      "cost": 1,
      "type": "move"
    },
    "unchainedAction": {
      "activation": {
        "cost": 1,
        "type": ""
      }
    },
    "duration": {
      "value": null,
      "units": ""
    },
    "target": {
      "value": ""
    },
    "range": {
      "value": null,
      "units": "",
      "maxIncrements": 1,
      "minValue": null,
      "minUnits": "",
      "long": null
    },
    "uses": {
      "value": 0,
      "max": 0,
      "per": "",
      "autoDeductCharges": true,
      "autoDeductChargesCost": "1"
    },
    "measureTemplate": {
      "type": "",
      "size": "",
      "overrideColor": false,
      "customColor": "",
      "overrideTexture": false,
      "customTexture": ""
    },
    "attackName": "",
    "actionType": "",
    "attackBonus": "",
    "critConfirmBonus": "",
    "damage": {
      "parts": [],
      "critParts": [],
      "nonCritParts": []
    },
    "attackParts": [],
    "formula": "",
    "ability": {
      "attack": null,
      "damage": null,
      "damageMult": 1,
      "critRange": 20,
      "critMult": 2
    },
    "save": {
      "dc": 0,
      "type": "",
      "description": ""
    },
    "effectNotes": "",
    "attackNotes": "",
    "soundEffect": "",
    "changes": [],
    "changeFlags": {
      "loseDexToAC": false,
      "noStr": false,
      "noDex": false,
      "oneInt": false,
      "oneWis": false,
      "oneCha": false,
      "noEncumbrance": false,
      "mediumArmorFullSpeed": false,
      "heavyArmorFullSpeed": false
    },
    "contextNotes": [],
    "links": {
      "children": [],
      "charges": []
    },
    "tag": "",
    "useCustomTag": false,
    "armorProf": {
      "value": [],
      "custom": ""
    },
    "weaponProf": {
      "value": [],
      "custom": ""
    },
    "featType": "classFeat",
    "associations": {
      "classes": [
        [
          "Arcanist"
        ]
      ]
    },
    "showInQuickbar": false,
    "nonlethal": false,
    "abilityType": "su",
    "crOffset": "",
    "attack": {
      "parts": []
    }
  },
  "flags": {},
  "img": "systems/pf1/icons/spells/runes-blue-2.jpg",
  "effects": []
}