{
  "_id": "zlTLMWcfwDUAmgTR",
  "name": "Cook People",
  "permission": {
    "default": 0
  },
  "type": "feat",
  "data": {
    "description": {
      "value": "<p>The witch can create fabulous spells by cooking an intelligent humanoid creature in her cauldron, either alive or dead. Using this hex creates one meal or serving of food of the witch's choice, typically a delicious stew or a dough suitable for cookies, pastries, or other desserts. Cooking the victim takes 1 hour.</p>\n<p>Eating the food provides one of the following benefits for 1 hour: @Compendium[pf1.spells.li8zwqjorsww6o82]{Age Resistance}, @Compendium[pf1.spells.usdv1eqvibmxun6x]{Bear's Endurance}, @Compendium[pf1.spells.05i5rxwim12hwktu]{Bull's Strength}, @Compendium[pf1.spells.ns8jbp0ilbvbvuif]{Cat's Grace}, @Compendium[pf1.spells.d4oubr5bdoo8w1ev]{Eagle's Splendor}, @Compendium[pf1.spells.743anqr1ahefv8zd]{Fox's Cunning}, @Compendium[pf1.spells.6l904edkt8jv9jor]{Neutralize Poison} (instantaneous) @Compendium[pf1.spells.b9ggsagifzk4fwut]{Owl's Wisdom}, @Compendium[pf1.spells.ocbjt6z7amc3yn8w]{Remove Disease} (instantaneous). Alternatively, the witch can shape the dough into a Small, humanlike creature, animating it as a homunculus for 1 hour.</p>\n<p>The witch must have the cauldron hex to select this hex. Using this hex or knowingly eating its food is an evil act.</p>",
      "chat": "",
      "unidentified": ""
    },
    "tags": [],
    "activation": {
      "cost": 1,
      "type": "hour"
    },
    "unchainedAction": {
      "activation": {
        "cost": 1,
        "type": "hour"
      }
    },
    "duration": {
      "value": "1",
      "units": "hour"
    },
    "target": {
      "value": ""
    },
    "range": {
      "value": null,
      "units": "",
      "maxIncrements": 1,
      "minValue": null,
      "minUnits": "",
      "long": null
    },
    "uses": {
      "value": 0,
      "max": 0,
      "per": "",
      "autoDeductCharges": true,
      "autoDeductChargesCost": "1"
    },
    "measureTemplate": {
      "type": "",
      "size": "",
      "overrideColor": false,
      "customColor": "",
      "overrideTexture": false,
      "customTexture": ""
    },
    "attackName": "",
    "actionType": "",
    "attackBonus": "",
    "critConfirmBonus": "",
    "damage": {
      "parts": [],
      "critParts": [],
      "nonCritParts": []
    },
    "attackParts": [],
    "formula": "",
    "ability": {
      "attack": null,
      "damage": null,
      "damageMult": 1,
      "critRange": 20,
      "critMult": 2
    },
    "save": {
      "dc": 0,
      "type": "",
      "description": ""
    },
    "effectNotes": "",
    "attackNotes": "",
    "soundEffect": "",
    "changes": [],
    "changeFlags": {
      "loseDexToAC": false,
      "noStr": false,
      "noDex": false,
      "oneInt": false,
      "oneWis": false,
      "oneCha": false,
      "noEncumbrance": false,
      "mediumArmorFullSpeed": false,
      "heavyArmorFullSpeed": false
    },
    "contextNotes": [],
    "links": {
      "children": [],
      "charges": []
    },
    "tag": "",
    "useCustomTag": false,
    "armorProf": {
      "value": [],
      "custom": ""
    },
    "weaponProf": {
      "value": [],
      "custom": ""
    },
    "featType": "classFeat",
    "associations": {
      "classes": [
        [
          "Witch"
        ]
      ]
    },
    "showInQuickbar": false,
    "nonlethal": false,
    "abilityType": "su",
    "crOffset": "",
    "attack": {
      "parts": []
    }
  },
  "flags": {},
  "img": "systems/pf1/icons/skills/violet_02.jpg",
  "effects": []
}