{
  "_id": "15IlbKFhTTuXwPU6",
  "name": "Danger Word",
  "permission": {
    "default": 0
  },
  "type": "feat",
  "data": {
    "description": {
      "value": "<p>At 2nd level, the cavalier can ready his allies for impending danger. As a standard action, he can ready all allies within 30 feet of the danger ahead, granting a bonus on a single type of saving throw (Fortitude, Reflex or Will) that he chooses when he grants this boon. At any point in the next minute, when these allies fail a saving throw of that type, they can choose to reroll the saving throw with a +4 competence bonus as an immediate action, but must take the results of the reroll even if it is worse. He can use this ability up to three times per day, once for each type of saving throw.</p>",
      "chat": "",
      "unidentified": ""
    },
    "tags": [],
    "activation": {
      "cost": 1,
      "type": "standard"
    },
    "unchainedAction": {
      "activation": {
        "cost": 2,
        "type": "action"
      }
    },
    "duration": {
      "value": "1",
      "units": "minute"
    },
    "target": {
      "value": "allies within range"
    },
    "range": {
      "value": "30",
      "units": "ft",
      "maxIncrements": 1,
      "minValue": null,
      "minUnits": "",
      "long": null
    },
    "uses": {
      "value": 0,
      "max": 3,
      "per": "day",
      "autoDeductCharges": true,
      "autoDeductChargesCost": "1",
      "maxFormula": "3"
    },
    "measureTemplate": {
      "type": "",
      "size": "0",
      "overrideColor": false,
      "customColor": "",
      "overrideTexture": false,
      "customTexture": ""
    },
    "attackName": "",
    "actionType": "",
    "attackBonus": "",
    "critConfirmBonus": "",
    "damage": {
      "parts": [],
      "critParts": [],
      "nonCritParts": []
    },
    "attackParts": [],
    "formula": "",
    "ability": {
      "attack": null,
      "damage": null,
      "damageMult": 1,
      "critRange": 20,
      "critMult": 2
    },
    "save": {
      "dc": 0,
      "type": "",
      "description": ""
    },
    "effectNotes": "",
    "attackNotes": "",
    "soundEffect": "",
    "changes": [],
    "changeFlags": {
      "loseDexToAC": false,
      "noStr": false,
      "noDex": false,
      "oneInt": false,
      "oneWis": false,
      "oneCha": false,
      "noEncumbrance": false,
      "mediumArmorFullSpeed": false,
      "heavyArmorFullSpeed": false
    },
    "contextNotes": [],
    "links": {
      "children": [],
      "charges": []
    },
    "tag": "",
    "useCustomTag": false,
    "armorProf": {
      "value": [],
      "custom": ""
    },
    "weaponProf": {
      "value": [],
      "custom": ""
    },
    "featType": "classFeat",
    "associations": {
      "classes": [
        [
          "Cavalier"
        ]
      ]
    },
    "showInQuickbar": false,
    "nonlethal": false,
    "abilityType": "ex",
    "crOffset": "",
    "attack": {
      "parts": []
    }
  },
  "flags": {},
  "img": "systems/pf1/icons/items/inventory/banner-red.jpg",
  "effects": []
}