{
  "_id": "nL9Ds9nflmID84vo",
  "name": "Debilitating Injury (UC)",
  "permission": {
    "default": 0
  },
  "type": "feat",
  "data": {
    "description": {
      "value": "<p>At 4th level, whenever a rogue deals sneak attack damage to a foe, she can also debilitate the target of her attack, causing it to take a penalty for 1 round (this is in addition to any penalty caused by a rogue talent or other special ability). The rogue can choose to apply any one of the following penalties when the damage is dealt.<br><br><em>Bewildered:</em> The target becomes bewildered, taking a –2 penalty to AC. The target takes an additional –2 penalty to AC against all attacks made by the rogue. At 10th level and 16th level, the penalty to AC against attacks made by the rogue increases by –2 (to a total maximum of –8).<br><br><em>Disoriented:</em> The target takes a –2 penalty on attack rolls. In addition, the target takes an additional –2 penalty on all attack rolls it makes against the rogue. At 10th level and 16th level, the penalty on attack rolls made against the rogue increases by –2 (to a total maximum of –8).<br><br><em>Hampered:</em> All of the target’s speeds are reduced by half (to a minimum of 5 feet). In addition, the target cannot take a 5-foot step.<br><br>These penalties do not stack with themselves, but additional attacks that deal sneak attack damage extend the duration by 1 round. A creature cannot suffer from more than one penalty from this ability at a time. If a new penalty is applied, the old penalty immediately ends. Any form of healing applied to a target suffering from one of these penalties also removes the penalty.</p>",
      "chat": "",
      "unidentified": ""
    },
    "tags": [],
    "activation": {
      "cost": 1,
      "type": ""
    },
    "unchainedAction": {
      "activation": {
        "cost": 1,
        "type": ""
      }
    },
    "duration": {
      "value": null,
      "units": ""
    },
    "target": {
      "value": ""
    },
    "range": {
      "value": null,
      "units": "",
      "maxIncrements": 1,
      "minValue": null,
      "minUnits": "",
      "long": null
    },
    "uses": {
      "value": 0,
      "max": 0,
      "per": null,
      "autoDeductCharges": true,
      "autoDeductChargesCost": "1"
    },
    "measureTemplate": {
      "type": "",
      "size": "",
      "overrideColor": false,
      "customColor": "",
      "overrideTexture": false,
      "customTexture": ""
    },
    "attackName": "",
    "actionType": "",
    "attackBonus": "",
    "critConfirmBonus": "",
    "damage": {
      "parts": [],
      "critParts": [],
      "nonCritParts": []
    },
    "attackParts": [],
    "formula": "",
    "ability": {
      "attack": null,
      "damage": null,
      "damageMult": 1,
      "critRange": 20,
      "critMult": 2
    },
    "save": {
      "dc": 0,
      "type": "",
      "description": ""
    },
    "effectNotes": "",
    "attackNotes": "",
    "soundEffect": "",
    "changes": [],
    "changeFlags": {
      "loseDexToAC": false,
      "noStr": false,
      "noDex": false,
      "oneInt": false,
      "oneWis": false,
      "oneCha": false,
      "noEncumbrance": false,
      "mediumArmorFullSpeed": false,
      "heavyArmorFullSpeed": false
    },
    "contextNotes": [],
    "links": {
      "children": [],
      "charges": []
    },
    "tag": "",
    "useCustomTag": false,
    "armorProf": {
      "value": [],
      "custom": ""
    },
    "weaponProf": {
      "value": [],
      "custom": ""
    },
    "featType": "classFeat",
    "associations": {
      "classes": [
        [
          "Rogue (Unchained)"
        ]
      ]
    },
    "showInQuickbar": false,
    "nonlethal": false,
    "abilityType": "ex",
    "crOffset": "",
    "attack": {
      "parts": []
    }
  },
  "flags": {},
  "img": "systems/pf1/icons/feats/critical-focus.jpg",
  "effects": []
}