{
  "_id": "Kq3GVZ1yMv3ERQCJ",
  "name": "Distraction",
  "permission": {
    "default": 0
  },
  "type": "feat",
  "data": {
    "description": {
      "value": "<p>At 1st level, a bard can use his performance to counter magic effects that depend on sight. Each round of the Distraction, he makes a&nbsp;<a href=\"https://www.d20pfsrd.com/skills/perform\">Perform</a>&nbsp;(act, comedy, dance, or oratory) skill check. Any creature within 30 feet of the bard (including the bard himself) that is affected by an&nbsp;<a href=\"https://www.d20pfsrd.com/magic#TOC-Illusion\">illusion</a>&nbsp;(<a href=\"https://www.d20pfsrd.com/magic#TOC-lllusion-Pattern\">pattern</a>) or&nbsp;<a href=\"https://www.d20pfsrd.com/magic#TOC-Illusion\">illusion</a>&nbsp;(<a href=\"https://www.d20pfsrd.com/magic#TOC-lllusion-Figment\">figment</a>) magical attack may use the bard’s&nbsp;<a href=\"https://www.d20pfsrd.com/skills/perform\">Perform</a>&nbsp;check result in place of its saving throw if, after the saving throw is rolled, the&nbsp;<a href=\"https://www.d20pfsrd.com/skills/perform\">Perform</a>&nbsp;check result proves to be higher. If a creature within range of the Distraction is already under the effect of a non-instantaneous&nbsp;<a href=\"https://www.d20pfsrd.com/magic#TOC-Illusion\">illusion</a>&nbsp;(<a href=\"https://www.d20pfsrd.com/magic#TOC-lllusion-Pattern\">pattern</a>) or&nbsp;<a href=\"https://www.d20pfsrd.com/magic#TOC-Illusion\">illusion</a>&nbsp;(<a href=\"https://www.d20pfsrd.com/magic#TOC-lllusion-Figment\">figment</a>) magical attack, it gains another saving throw against the effect each round it sees the Distraction, but it must use the bard’s&nbsp;<a href=\"https://www.d20pfsrd.com/skills/perform\">Perform</a>&nbsp;check result for the save. Distraction does not work on effects that don’t allow saves. Distraction relies on visual components.</p>",
      "chat": "",
      "unidentified": ""
    },
    "tags": [],
    "activation": {
      "cost": 1,
      "type": ""
    },
    "unchainedAction": {
      "activation": {
        "cost": 1,
        "type": ""
      }
    },
    "duration": {
      "value": null,
      "units": ""
    },
    "target": {
      "value": ""
    },
    "range": {
      "value": null,
      "units": "",
      "maxIncrements": 1,
      "minValue": null,
      "minUnits": "",
      "long": null
    },
    "uses": {
      "value": 0,
      "max": 0,
      "per": null,
      "autoDeductCharges": true,
      "autoDeductChargesCost": "1"
    },
    "measureTemplate": {
      "type": "",
      "size": "0",
      "overrideColor": false,
      "customColor": "",
      "overrideTexture": false,
      "customTexture": ""
    },
    "attackName": "",
    "actionType": "",
    "attackBonus": "",
    "critConfirmBonus": "",
    "damage": {
      "parts": [],
      "critParts": [],
      "nonCritParts": []
    },
    "attackParts": [],
    "formula": "",
    "ability": {
      "attack": null,
      "damage": null,
      "damageMult": 1,
      "critRange": 20,
      "critMult": 2
    },
    "save": {
      "dc": 0,
      "type": "",
      "description": ""
    },
    "effectNotes": "",
    "attackNotes": "",
    "soundEffect": "",
    "changes": [],
    "changeFlags": {
      "loseDexToAC": false,
      "noStr": false,
      "noDex": false,
      "oneInt": false,
      "oneWis": false,
      "oneCha": false,
      "noEncumbrance": false,
      "mediumArmorFullSpeed": false,
      "heavyArmorFullSpeed": false
    },
    "contextNotes": [],
    "links": {
      "children": [],
      "charges": []
    },
    "tag": "",
    "useCustomTag": false,
    "armorProf": {
      "value": [],
      "custom": ""
    },
    "weaponProf": {
      "value": [],
      "custom": ""
    },
    "featType": "classFeat",
    "associations": {
      "classes": [
        [
          "Bard"
        ]
      ]
    },
    "showInQuickbar": false,
    "nonlethal": false,
    "abilityType": "su",
    "crOffset": "",
    "attack": {
      "parts": []
    }
  },
  "flags": {},
  "img": "systems/pf1/icons/feats/improved-feint.jpg",
  "effects": []
}