{
  "_id": "NOhmhKgboJ9qdGvg",
  "name": "Elemental Overflow",
  "permission": {
    "default": 0
  },
  "type": "feat",
  "data": {
    "description": {
      "value": "<p>At 3rd level, a kineticist’s body surges with energy from her chosen element whenever she accepts burn, causing her to glow with a nimbus of fire, weep water from her pores, or experience some other thematic effect. In addition, she receives a bonus on her attack rolls with kinetic blasts equal to the total number of points of burn she currently has, to a maximum bonus of +1 for every 3 kineticist levels she possesses. She also receives a bonus on damage rolls with her kinetic blast equal to double the bonus on attack rolls. The kineticist can suppress the visual effects of elemental overflow by concentrating for 1 full round, but doing so suppresses all of this ability’s other benefits, as well. The next time the kineticist uses any wild talent, the visual effects and benefits return instantly.<br><br>As a kineticist’s body becomes more and more suffused with her element, she begins to gain more powerful benefits. Starting at 6th level, whenever she has at least 3 points of burn, the kineticist gains a +2 size bonus to two physical ability scores of her choice. She also gains a chance to ignore the effects of a critical hit or sneak attack equal to 5% × her current number of points of burn.</p>\n<p>At 11th level, whenever the kineticist has at least 5 points of burn, these bonuses increase to a +4 size bonus to one physical ability score of her choice and a +2 size bonus to each of her other two physical ability scores.</p>\n<p>At 16th level, whenever the kineticist has at least 7 points of burn, these bonuses increase to a +6 size bonus to one physical ability score of her choice, a +4 size bonus to a second physical ability score of her choice, and a +2 size bonus to the remaining physical ability score.</p>",
      "chat": "",
      "unidentified": ""
    },
    "tags": [],
    "activation": {
      "cost": 1,
      "type": ""
    },
    "unchainedAction": {
      "activation": {
        "cost": 1,
        "type": ""
      }
    },
    "duration": {
      "value": null,
      "units": ""
    },
    "target": {
      "value": ""
    },
    "range": {
      "value": null,
      "units": "",
      "maxIncrements": 1,
      "minValue": null,
      "minUnits": "",
      "long": null
    },
    "uses": {
      "value": 0,
      "max": 0,
      "per": null,
      "autoDeductCharges": true,
      "autoDeductChargesCost": "1"
    },
    "measureTemplate": {
      "type": "",
      "size": "",
      "overrideColor": false,
      "customColor": "",
      "overrideTexture": false,
      "customTexture": ""
    },
    "attackName": "",
    "actionType": "",
    "attackBonus": "",
    "critConfirmBonus": "",
    "damage": {
      "parts": [],
      "critParts": [],
      "nonCritParts": []
    },
    "attackParts": [],
    "formula": "",
    "ability": {
      "attack": null,
      "damage": null,
      "damageMult": 1,
      "critRange": 20,
      "critMult": 2
    },
    "save": {
      "dc": 0,
      "type": "",
      "description": ""
    },
    "effectNotes": "",
    "attackNotes": "",
    "soundEffect": "",
    "changes": [],
    "changeFlags": {
      "loseDexToAC": false,
      "noStr": false,
      "noDex": false,
      "oneInt": false,
      "oneWis": false,
      "oneCha": false,
      "noEncumbrance": false,
      "mediumArmorFullSpeed": false,
      "heavyArmorFullSpeed": false
    },
    "contextNotes": [],
    "links": {
      "children": [],
      "charges": []
    },
    "tag": "",
    "useCustomTag": false,
    "armorProf": {
      "value": [],
      "custom": ""
    },
    "weaponProf": {
      "value": [],
      "custom": ""
    },
    "featType": "classFeat",
    "associations": {
      "classes": [
        [
          "Kineticist"
        ]
      ]
    },
    "showInQuickbar": false,
    "nonlethal": false,
    "abilityType": "ex",
    "crOffset": "",
    "attack": {
      "parts": []
    }
  },
  "flags": {},
  "img": "systems/pf1/icons/spells/explosion-royal-3.jpg",
  "effects": []
}