{
  "_id": "U2YBSx1s8cT8iDq1",
  "name": "Favored Terrain (RNG)",
  "permission": {
    "default": 0
  },
  "type": "feat",
  "data": {
    "description": {
      "value": "<p>At 3rd level, a ranger may select a type of terrain from&nbsp;Table: Ranger Favored Terrains. The ranger gains a +2 bonus on&nbsp;<a href=\"https://www.d20pfsrd.com/gamemastering/combat#TOC-Initiative\">initiative</a>&nbsp;checks and&nbsp;<a href=\"https://www.d20pfsrd.com/skills/knowledge\">Knowledge</a>&nbsp;(geography),&nbsp;<a href=\"https://www.d20pfsrd.com/skills/perception\">Perception</a>,&nbsp;<a href=\"https://www.d20pfsrd.com/skills/stealth\">Stealth</a>, and&nbsp;<a href=\"https://www.d20pfsrd.com/skills/survival\">Survival</a>&nbsp;<a href=\"https://www.d20pfsrd.com/skills#TOC-Skill-Checks\">skill checks</a>&nbsp;when he is in this terrain. A ranger traveling through his&nbsp;<a href=\"https://www.d20pfsrd.com/classes/core-classes/Ranger/#TOC-Favored-Terrain-Ex-\">favored terrain</a>&nbsp;normally leaves no trail and cannot be tracked (though he may leave a trail if he so chooses).</p>\n<p>At 8th level and every five levels thereafter, the ranger may select an additional&nbsp;<a href=\"https://www.d20pfsrd.com/classes/core-classes/Ranger/#TOC-Favored-Terrain-Ex-\">favored terrain</a>. In addition, at each such interval, the skill bonus and&nbsp;<a href=\"https://www.d20pfsrd.com/gamemastering/combat#TOC-Initiative\">initiative</a>&nbsp;bonus in any one&nbsp;<a href=\"https://www.d20pfsrd.com/classes/core-classes/Ranger/#TOC-Favored-Terrain-Ex-\">favored terrain</a>&nbsp;(including the one just selected, if so desired), increases by +2.</p>\n<p>If a specific terrain falls into more than one category of&nbsp;<a href=\"https://www.d20pfsrd.com/classes/core-classes/Ranger/#TOC-Favored-Terrain-Ex-\">favored terrain</a>, the ranger’s bonuses do not stack; he simply uses whichever bonus is higher.</p>\n<hr>\n<table border=\"1\" cellpadding=\"5\"><caption>Table: Ranger Favored Terrains</caption>\n<thead>\n<tr>\n<th>Favored Terrains</th>\n</tr>\n</thead>\n<tbody>\n<tr>\n<td>Cold (ice, glaciers, snow, and tundra)</td>\n</tr>\n<tr>\n<td>Desert (sand and wastelands)</td>\n</tr>\n<tr>\n<td>Forest (coniferous and deciduous)</td>\n</tr>\n<tr>\n<td>Jungle</td>\n</tr>\n<tr>\n<td>Mountain (including hills)</td>\n</tr>\n<tr>\n<td>Plains</td>\n</tr>\n<tr>\n<td>Planes (pick one, other than&nbsp;<a href=\"https://www.d20pfsrd.com/gamemastering/environment/the-planes#TOC-Material-Plane1\">Material Plane</a>)</td>\n</tr>\n<tr>\n<td>Swamp</td>\n</tr>\n<tr>\n<td>Underground (caves and dungeons)</td>\n</tr>\n<tr>\n<td>Urban (buildings, streets, and sewers)</td>\n</tr>\n<tr>\n<td>Water (above and below the surface)</td>\n</tr>\n</tbody>\n</table>",
      "chat": "",
      "unidentified": ""
    },
    "tags": [],
    "activation": {
      "cost": 1,
      "type": "passive"
    },
    "unchainedAction": {
      "activation": {
        "cost": 1,
        "type": "passive"
      }
    },
    "duration": {
      "value": null,
      "units": ""
    },
    "target": {
      "value": ""
    },
    "range": {
      "value": null,
      "units": "",
      "maxIncrements": 1,
      "minValue": null,
      "minUnits": "",
      "long": null
    },
    "uses": {
      "value": 0,
      "max": 0,
      "per": "",
      "autoDeductCharges": true,
      "autoDeductChargesCost": "1"
    },
    "measureTemplate": {
      "type": "",
      "size": "0",
      "overrideColor": false,
      "customColor": "",
      "overrideTexture": false,
      "customTexture": ""
    },
    "attackName": "",
    "actionType": "",
    "attackBonus": "",
    "critConfirmBonus": "",
    "damage": {
      "parts": [],
      "critParts": [],
      "nonCritParts": []
    },
    "attackParts": [],
    "formula": "",
    "ability": {
      "attack": null,
      "damage": null,
      "damageMult": 1,
      "critRange": 20,
      "critMult": 2
    },
    "save": {
      "dc": 0,
      "type": "",
      "description": ""
    },
    "effectNotes": "",
    "attackNotes": "",
    "soundEffect": "",
    "changes": [],
    "changeFlags": {
      "loseDexToAC": false,
      "noStr": false,
      "noDex": false,
      "oneInt": false,
      "oneWis": false,
      "oneCha": false,
      "noEncumbrance": false,
      "mediumArmorFullSpeed": false,
      "heavyArmorFullSpeed": false
    },
    "contextNotes": [],
    "links": {
      "children": [],
      "charges": []
    },
    "tag": "",
    "useCustomTag": false,
    "armorProf": {
      "value": [],
      "custom": ""
    },
    "weaponProf": {
      "value": [],
      "custom": ""
    },
    "featType": "classFeat",
    "associations": {
      "classes": [
        [
          "Ranger"
        ]
      ]
    },
    "showInQuickbar": false,
    "nonlethal": false,
    "abilityType": "ex",
    "crOffset": "",
    "attack": {
      "parts": []
    },
    "conditionals": [],
    "identifiedName": "Favored Terrain"
  },
  "flags": {},
  "img": "systems/pf1/icons/skills/green_18.jpg",
  "effects": []
}