{
  "_id": "LYWqXODjRJjVJeQ1",
  "name": "Fiendish Boon",
  "permission": {
    "default": 0
  },
  "type": "feat",
  "data": {
    "description": {
      "value": "<p>Upon reaching 5th level, an antipaladin receives a boon from his dark patrons. This boon can take one of two forms. Once the form is chosen, it cannot be changed.<br><br>The first type of bond allows the antipaladin to enhance his weapon as a standard action by calling upon the aid of a fiendish spirit for 1 minute per antipaladin level. When called, the spirit causes the weapon to shed unholy light as a torch. At 5th level, this spirit grants the weapon a +1 enhancement bonus. For every three levels beyond 5th, the weapon gains another +1 enhancement bonus, to a maximum of +6 at 20th level. These bonuses can be added to the weapon, stacking with existing weapon bonuses to a maximum of +5, or they can be used to add any of the following weapon properties:&nbsp;<a href=\"https://www.aonprd.com/MagicWeaponsDisplay.aspx?ItemName=Anarchic\">anarchic</a>,&nbsp;<a href=\"https://www.aonprd.com/MagicWeaponsDisplay.aspx?ItemName=Flaming\">flaming</a>,&nbsp;<a href=\"https://www.aonprd.com/MagicWeaponsDisplay.aspx?ItemName=Flaming%20Burst\">flaming burst</a>,&nbsp;<a href=\"https://www.aonprd.com/MagicWeaponsDisplay.aspx?ItemName=Keen\">keen</a>,&nbsp;<a href=\"https://www.aonprd.com/MagicWeaponsDisplay.aspx?ItemName=Speed\">speed</a>,&nbsp;<a href=\"https://www.aonprd.com/MagicWeaponsDisplay.aspx?ItemName=Unholy\">unholy</a>,&nbsp;<a href=\"https://www.aonprd.com/MagicWeaponsDisplay.aspx?ItemName=Vicious\">vicious</a>,&nbsp;<a href=\"https://www.aonprd.com/MagicWeaponsDisplay.aspx?ItemName=Vorpal\">vorpal</a>, and&nbsp;<a href=\"https://www.aonprd.com/MagicWeaponsDisplay.aspx?ItemName=Wounding\">wounding</a>. Adding these properties consumes an amount of bonus equal to the property's cost. These bonuses are added to any properties the weapon already has, but duplicate abilities do not stack. If the weapon is not magical, at least a +1 enhancement bonus must be added before any other properties can be added. The bonus and properties granted by the spirit are determined when the spirit is called and cannot be changed until the spirit is called again. The fiendish spirit imparts no bonuses if the weapon is held by anyone other than the antipaladin but resumes giving bonuses if returned to the antipaladin. These bonuses apply to only one end of a double weapon. An antipaladin can use this ability once per day at 5th level, and one additional time per day for every four levels beyond 5th, to a total of four times per day at 17th level.<br><br>If a weapon bonded with a fiendish spirit is destroyed, the antipaladin loses the use of this ability for 30 days, or until he gains a level, whichever comes first. During this 30-day period, the antipaladin takes a –1 penalty on attack and weapon damage rolls.<br><br>The second type of bond allows an antipaladin to gain the service of a fiendish servant. This functions as @Compendium[pf1.spells.1zmn8vqy3s5l9kiv]{Summon Monster III}, except the duration is permanent and the antipaladin can only gain the service of a single creature and that creature must either have the chaotic and evil subtypes or it must be a fiendish animal. Once selected, the choice is set, but it may be changed whenever the antipaladin gains a level. Upon reaching 7th level, and every two levels thereafter, the level of the&nbsp;<a href=\"https://www.aonprd.com/SpellDisplay.aspx?ItemName=summon%20monster%201\">summon monster</a>&nbsp;spell increases by one, to a maximum of @Compendium[pf1.spells.mi52crelhwuy6bmp]{Summon Monster IX}&nbsp;at 17th level.<br><br>Once per day, as a full-round action, an antipaladin may magically call his servant to his side. This ability is the equivalent of a spell of a level equal to one-third the antipaladin's level. The servant immediately appears adjacent to the antipaladin. An antipaladin can use this ability once per day at 5th level, and one additional time per day for every four levels thereafter, for a total of four times per day at 17th level.<br><br>At 11th level, the servant gains the advanced template (see the&nbsp;Pathfinder RPG Bestiary). At 15th level, an antipaladin's servant gains spell resistance equal to the antipaladin's level + 11.<br><br>Should the antipaladin's fiendish servant die or be banished, the antipaladin may not summon another servant for 30 days or until he gains an antipaladin level, whichever comes first. During this 30-day period, the antipaladin takes a –1 penalty on attack and weapon damage rolls.</p>",
      "chat": "",
      "unidentified": ""
    },
    "tags": [],
    "activation": {
      "cost": 1,
      "type": ""
    },
    "unchainedAction": {
      "activation": {
        "cost": 1,
        "type": ""
      }
    },
    "duration": {
      "value": null,
      "units": ""
    },
    "target": {
      "value": ""
    },
    "range": {
      "value": null,
      "units": "",
      "maxIncrements": 1,
      "minValue": null,
      "minUnits": "",
      "long": null
    },
    "uses": {
      "value": 0,
      "max": 0,
      "per": null,
      "autoDeductCharges": true,
      "autoDeductChargesCost": "1"
    },
    "measureTemplate": {
      "type": "",
      "size": "",
      "overrideColor": false,
      "customColor": "",
      "overrideTexture": false,
      "customTexture": ""
    },
    "attackName": "",
    "actionType": "",
    "attackBonus": "",
    "critConfirmBonus": "",
    "damage": {
      "parts": [],
      "critParts": [],
      "nonCritParts": []
    },
    "attackParts": [],
    "formula": "",
    "ability": {
      "attack": null,
      "damage": null,
      "damageMult": 1,
      "critRange": 20,
      "critMult": 2
    },
    "save": {
      "dc": 0,
      "type": "",
      "description": ""
    },
    "effectNotes": "",
    "attackNotes": "",
    "soundEffect": "",
    "changes": [],
    "changeFlags": {
      "loseDexToAC": false,
      "noStr": false,
      "noDex": false,
      "oneInt": false,
      "oneWis": false,
      "oneCha": false,
      "noEncumbrance": false,
      "mediumArmorFullSpeed": false,
      "heavyArmorFullSpeed": false
    },
    "contextNotes": [],
    "links": {
      "children": [],
      "charges": []
    },
    "tag": "",
    "useCustomTag": false,
    "armorProf": {
      "value": [],
      "custom": ""
    },
    "weaponProf": {
      "value": [],
      "custom": ""
    },
    "featType": "classFeat",
    "associations": {
      "classes": [
        [
          "Antipaladin"
        ]
      ]
    },
    "showInQuickbar": false,
    "nonlethal": false,
    "abilityType": "sp",
    "crOffset": "",
    "attack": {
      "parts": []
    }
  },
  "flags": {},
  "img": "systems/pf1/icons/skills/weapon_29.jpg",
  "effects": []
}