{
  "_id": "3MMnzNoOqKRnVhpZ",
  "name": "Flame Mystery",
  "permission": {
    "default": 0
  },
  "type": "feat",
  "data": {
    "description": {
      "value": "<p><strong>Class Skills:</strong> An oracle with the flame mystery adds Acrobatics, Climb, Intimidate, and Perform to her list of class skills.<br><br><strong>Bonus Spells:</strong>&nbsp;</p>\n<ul>\n<li>@Compendium[pf1.spells.lndeaqm2j2nvgm6p]{Burning Hands} (2nd),&nbsp;</li>\n<li>@Compendium[pf1.spells.tkjnm3lw7ni82tag]{Resist Energy} (4th),&nbsp;</li>\n<li>@Compendium[pf1.spells.6oq1wcryviik9ice]{Fireball} (6th),&nbsp;</li>\n<li>@Compendium[pf1.spells.92hth51cs9oi0nfe]{Wall Of Fire} (8th),&nbsp;</li>\n<li>@Compendium[pf1.spells.hd7ukybisvv7j5r6]{Summon Monster V} (fire elementals only) (10th),&nbsp;</li>\n<li>@Compendium[pf1.spells.0hknfnoaljc75fj3]{Fire Seeds} (12th),</li>\n<li>@Compendium[pf1.spells.9wl8ijy6argdvz5f]{Fire Storm} (14th),</li>\n<li>@Compendium[pf1.spells.iq0as5470o8q9y39]{Incendiary Cloud} (16th),</li>\n<li>@Compendium[pf1.spells.qk3oeq4awbc1smjw]{Fiery Body} (18th).</li>\n</ul>",
      "chat": "",
      "unidentified": ""
    },
    "tags": [],
    "activation": {
      "cost": 1,
      "type": ""
    },
    "unchainedAction": {
      "activation": {
        "cost": 1,
        "type": ""
      }
    },
    "duration": {
      "value": null,
      "units": ""
    },
    "target": {
      "value": ""
    },
    "range": {
      "value": null,
      "units": "",
      "maxIncrements": 1,
      "minValue": null,
      "minUnits": "",
      "long": null
    },
    "uses": {
      "value": 0,
      "max": 0,
      "per": null,
      "autoDeductCharges": true,
      "autoDeductChargesCost": "1"
    },
    "measureTemplate": {
      "type": "",
      "size": "",
      "overrideColor": false,
      "customColor": "",
      "overrideTexture": false,
      "customTexture": ""
    },
    "attackName": "",
    "actionType": "",
    "attackBonus": "",
    "critConfirmBonus": "",
    "damage": {
      "parts": [],
      "critParts": [],
      "nonCritParts": []
    },
    "attackParts": [],
    "formula": "",
    "ability": {
      "attack": null,
      "damage": null,
      "damageMult": 1,
      "critRange": 20,
      "critMult": 2
    },
    "save": {
      "dc": 0,
      "type": "",
      "description": ""
    },
    "effectNotes": "",
    "attackNotes": "",
    "soundEffect": "",
    "changes": [],
    "changeFlags": {
      "loseDexToAC": false,
      "noStr": false,
      "noDex": false,
      "oneInt": false,
      "oneWis": false,
      "oneCha": false,
      "noEncumbrance": false,
      "mediumArmorFullSpeed": false,
      "heavyArmorFullSpeed": false
    },
    "contextNotes": [],
    "links": {
      "children": [],
      "charges": []
    },
    "tag": "",
    "useCustomTag": false,
    "armorProf": {
      "value": [],
      "custom": ""
    },
    "weaponProf": {
      "value": [],
      "custom": ""
    },
    "featType": "classFeat",
    "associations": {
      "classes": [
        [
          "Oracle"
        ]
      ]
    },
    "showInQuickbar": false,
    "nonlethal": false,
    "abilityType": "none",
    "crOffset": "",
    "attack": {
      "parts": []
    }
  },
  "flags": {},
  "img": "systems/pf1/icons/spells/light-magenta-2.jpg",
  "effects": []
}