{
  "_id": "csVfUL8RL2LUi7qF",
  "name": "Force Ward",
  "permission": {
    "default": 0
  },
  "type": "feat",
  "data": {
    "description": {
      "value": "<p><strong>Element&nbsp;</strong>aether;&nbsp;<strong>Type</strong>&nbsp;defense (Su);&nbsp;<strong>Level</strong>&nbsp;—;&nbsp;<strong>Burn&nbsp;</strong>0</p>\n<p>You constantly surround yourself with a ward of force. You gain a number of temporary hit points equal to your kineticist level. You always lose these temporary hit points first, even before other temporary hit points. If an attack deals less damage than you still have as temporary hit points from force ward, it still reduces those temporary hit points but otherwise counts as a miss for the purpose of abilities that trigger on a hit or a miss. These temporary hit points regenerate at a rate of 1 per minute.</p>\n<p>By accepting 1 point of burn as a standard action, you can increase the maximum number of temporary hit points provided by your force ward by half your kineticist level until the next time your burn is removed. If you use this ability multiple times, the increases stack. For every 2 points of burn you accept in this way, your force ward’s rate of regeneration increases by 1 hit point per minute.</p>\n<p>Whenever you accept burn while using an aether wild talent, you siphon some of the energy from the aether flowing through you and your force ward recovers a number of temporary hit points equal to your character level, up to its current maximum. You can dismiss or restore your force ward as an immediate action, but doing so doesn’t change the number of temporary hit points available, and the temporary hit points don’t recover while this ability is inactive.</p>",
      "chat": "",
      "unidentified": ""
    },
    "tags": [],
    "activation": {
      "cost": 1,
      "type": ""
    },
    "unchainedAction": {
      "activation": {
        "cost": 1,
        "type": ""
      }
    },
    "duration": {
      "value": null,
      "units": ""
    },
    "target": {
      "value": ""
    },
    "range": {
      "value": null,
      "units": "",
      "maxIncrements": 1,
      "minValue": null,
      "minUnits": "",
      "long": null
    },
    "uses": {
      "value": 0,
      "max": 0,
      "per": null,
      "autoDeductCharges": true,
      "autoDeductChargesCost": "1"
    },
    "measureTemplate": {
      "type": "",
      "size": "",
      "overrideColor": false,
      "customColor": "",
      "overrideTexture": false,
      "customTexture": ""
    },
    "attackName": "",
    "actionType": "",
    "attackBonus": "",
    "critConfirmBonus": "",
    "damage": {
      "parts": [],
      "critParts": [],
      "nonCritParts": []
    },
    "attackParts": [],
    "formula": "",
    "ability": {
      "attack": null,
      "damage": null,
      "damageMult": 1,
      "critRange": 20,
      "critMult": 2
    },
    "save": {
      "dc": 0,
      "type": "",
      "description": ""
    },
    "effectNotes": "",
    "attackNotes": "",
    "soundEffect": "",
    "changes": [],
    "changeFlags": {
      "loseDexToAC": false,
      "noStr": false,
      "noDex": false,
      "oneInt": false,
      "oneWis": false,
      "oneCha": false,
      "noEncumbrance": false,
      "mediumArmorFullSpeed": false,
      "heavyArmorFullSpeed": false
    },
    "contextNotes": [],
    "links": {
      "children": [],
      "charges": []
    },
    "tag": "",
    "useCustomTag": false,
    "armorProf": {
      "value": [],
      "custom": ""
    },
    "weaponProf": {
      "value": [],
      "custom": ""
    },
    "featType": "classFeat",
    "associations": {
      "classes": [
        [
          "Kineticist"
        ]
      ]
    },
    "showInQuickbar": false,
    "nonlethal": false,
    "abilityType": "su",
    "crOffset": "",
    "attack": {
      "parts": []
    }
  },
  "flags": {},
  "img": "systems/pf1/icons/spells/protect-sky-3.jpg",
  "effects": []
}