{
  "_id": "IfsUqkdorBKIdTII",
  "name": "Knowledge Domain",
  "permission": {
    "default": 0
  },
  "type": "feat",
  "data": {
    "description": {
      "value": "<p><strong>Granted Powers:</strong> You are a scholar and a sage of legends. In addition, you treat all Knowledge skills as class skills.</p>\n<p><strong>Domain Spells:</strong></p>\n<ul>\n<li>1st—@Compendium[pf1.spells.jcs7ba5depdyitey]{Comprehend Languages},</li>\n<li>2nd—@Compendium[pf1.spells.xllxylvvqr82o2d5]{Detect Thoughts},</li>\n<li>3rd—@Compendium[pf1.spells.byn5q46du0ck592a]{Speak with Dead},</li>\n<li>4th—@Compendium[pf1.spells.pwueht12qqo0268e]{Divination},</li>\n<li>5th—@Compendium[pf1.spells.jbqo4o2b2tmdz7wv]{True Seeing},</li>\n<li>6th—@Compendium[pf1.spells.x619lrcykmmwts0f]{Find the Path},</li>\n<li>7th—@Compendium[pf1.spells.b5mz8voksps5g4yq]{Legend Lore},</li>\n<li>8th—@Compendium[pf1.spells.gw2sgj93dgarpem8]{Discern Location},</li>\n<li>9th—@Compendium[pf1.spells.vl7yer8k1leyuxld]{Foresight}.</li>\n</ul>",
      "chat": "",
      "unidentified": ""
    },
    "tags": [],
    "activation": {
      "cost": 1,
      "type": ""
    },
    "unchainedAction": {
      "activation": {
        "cost": 1,
        "type": ""
      }
    },
    "duration": {
      "value": null,
      "units": ""
    },
    "target": {
      "value": ""
    },
    "range": {
      "value": null,
      "units": "",
      "maxIncrements": 1,
      "minValue": null,
      "minUnits": "",
      "long": null
    },
    "uses": {
      "value": 0,
      "max": 0,
      "per": null,
      "autoDeductCharges": true,
      "autoDeductChargesCost": "1"
    },
    "measureTemplate": {
      "type": "",
      "size": "0",
      "overrideColor": false,
      "customColor": "",
      "overrideTexture": false,
      "customTexture": ""
    },
    "attackName": "",
    "actionType": "",
    "attackBonus": "",
    "critConfirmBonus": "",
    "damage": {
      "parts": [],
      "critParts": [],
      "nonCritParts": []
    },
    "attackParts": [],
    "formula": "",
    "ability": {
      "attack": null,
      "damage": null,
      "damageMult": 1,
      "critRange": 20,
      "critMult": 2
    },
    "save": {
      "dc": 0,
      "type": "",
      "description": ""
    },
    "effectNotes": "",
    "attackNotes": "",
    "soundEffect": "",
    "changes": [],
    "changeFlags": {
      "loseDexToAC": false,
      "noStr": false,
      "noDex": false,
      "oneInt": false,
      "oneWis": false,
      "oneCha": false,
      "noEncumbrance": false,
      "mediumArmorFullSpeed": false,
      "heavyArmorFullSpeed": false
    },
    "contextNotes": [],
    "links": {
      "children": [],
      "charges": []
    },
    "tag": "",
    "useCustomTag": false,
    "armorProf": {
      "value": [],
      "custom": ""
    },
    "weaponProf": {
      "value": [],
      "custom": ""
    },
    "featType": "classFeat",
    "associations": {
      "classes": [
        [
          "Cleric"
        ]
      ]
    },
    "showInQuickbar": false,
    "nonlethal": false,
    "abilityType": "none",
    "crOffset": "",
    "attack": {
      "parts": []
    }
  },
  "flags": {},
  "img": "systems/pf1/icons/items/inventory/book-purple.jpg",
  "effects": []
}