{
  "_id": "00Ui66mNbTVmAbZ0",
  "name": "Leshy Summoning Hex",
  "permission": {
    "default": 0
  },
  "type": "feat",
  "data": {
    "description": {
      "value": "<p>The witch counts as a plant creature for the purpose of growing leshys. She adds&nbsp;<a href=\"https://www.aonprd.com/MonsterDisplay.aspx?ItemName=Leaf%20Leshy\">leaf leshys</a>,&nbsp;<a href=\"https://www.aonprd.com/MonsterDisplay.aspx?ItemName=Gourd%20Leshy\">gourd leshys</a>,&nbsp;<a href=\"https://www.aonprd.com/MonsterDisplay.aspx?ItemName=Fungus%20Leshy\">fungus leshys</a>,&nbsp;<a href=\"https://www.aonprd.com/MonsterDisplay.aspx?ItemName=Seaweed%20Leshy\">seaweed leshys</a>, and&nbsp;<a href=\"https://www.aonprd.com/MonsterDisplay.aspx?ItemName=Lotus%20Leshy\">lotus leshys</a>&nbsp;to the list of creatures she can summon with @Compendium[pf1.spells.kyo0kwhw2jhuztju]{Summon Monster I}, @Compendium[pf1.spells.26vm5jhjkxpq1xm3]{Summon Monster II}, @Compendium[pf1.spells.1zmn8vqy3s5l9kiv]{Summon Monster III}, @Compendium[pf1.spells.aqri3zf6mzgd4di6]{Summon Monster IV}, and @Compendium[pf1.spells.hd7ukybisvv7j5r6]{Summon Monster V}, respectively.</p>",
      "chat": "",
      "unidentified": ""
    },
    "tags": [],
    "activation": {
      "cost": 1,
      "type": ""
    },
    "unchainedAction": {
      "activation": {
        "cost": 1,
        "type": ""
      }
    },
    "duration": {
      "value": null,
      "units": ""
    },
    "target": {
      "value": ""
    },
    "range": {
      "value": null,
      "units": "",
      "maxIncrements": 1,
      "minValue": null,
      "minUnits": "",
      "long": null
    },
    "uses": {
      "value": 0,
      "max": 0,
      "per": null,
      "autoDeductCharges": true,
      "autoDeductChargesCost": "1"
    },
    "measureTemplate": {
      "type": "",
      "size": "",
      "overrideColor": false,
      "customColor": "",
      "overrideTexture": false,
      "customTexture": ""
    },
    "attackName": "",
    "actionType": "",
    "attackBonus": "",
    "critConfirmBonus": "",
    "damage": {
      "parts": [],
      "critParts": [],
      "nonCritParts": []
    },
    "attackParts": [],
    "formula": "",
    "ability": {
      "attack": null,
      "damage": null,
      "damageMult": 1,
      "critRange": 20,
      "critMult": 2
    },
    "save": {
      "dc": 0,
      "type": "",
      "description": ""
    },
    "effectNotes": "",
    "attackNotes": "",
    "soundEffect": "",
    "changes": [],
    "changeFlags": {
      "loseDexToAC": false,
      "noStr": false,
      "noDex": false,
      "oneInt": false,
      "oneWis": false,
      "oneCha": false,
      "noEncumbrance": false,
      "mediumArmorFullSpeed": false,
      "heavyArmorFullSpeed": false
    },
    "contextNotes": [],
    "links": {
      "children": [],
      "charges": []
    },
    "tag": "",
    "useCustomTag": false,
    "armorProf": {
      "value": [],
      "custom": ""
    },
    "weaponProf": {
      "value": [],
      "custom": ""
    },
    "featType": "classFeat",
    "associations": {
      "classes": [
        [
          "Witch"
        ]
      ]
    },
    "showInQuickbar": false,
    "nonlethal": false,
    "abilityType": "su",
    "crOffset": "",
    "attack": {
      "parts": []
    }
  },
  "flags": {},
  "img": "systems/pf1/icons/skills/violet_02.jpg",
  "effects": []
}