{
  "_id": "v2YFiXXQBB0uZJSN",
  "name": "Life Mystery",
  "permission": {
    "default": 0
  },
  "type": "feat",
  "data": {
    "description": {
      "value": "<p><strong>Class Skills:</strong> An oracle with the life mystery adds Handle Animal, Knowledge (nature), and Survival to her list of class skills.<br><br><strong>Bonus Spells:</strong>&nbsp;</p>\n<ul>\n<li>@Compendium[pf1.spells.aa0w7tk852iqn3ni]{Detect Undead} (2nd),&nbsp;</li>\n<li>@Compendium[pf1.spells.fxz69pwpqt9b6uss]{Restoration, Lesser} (4th),&nbsp;</li>\n<li>@Compendium[pf1.spells.6l904edkt8jv9jor]{Neutralize Poison} (6th),&nbsp;</li>\n<li>@Compendium[pf1.spells.anya5qwdjhdfyk8u]{Restoration} (8th),&nbsp;</li>\n<li>@Compendium[pf1.spells.qiiis9ekgy3syu7j]{Breath Of Life} (10th),&nbsp;</li>\n<li>@Compendium[pf1.spells.4re1j2w8wkvsvnsi]{Heal} (12th),&nbsp;</li>\n<li>@Compendium[pf1.spells.igmb8lisqcnsxd2d]{Restoration, Greater} (14th),&nbsp;</li>\n<li>@Compendium[pf1.spells.klcvk9ct1l7mhjwp]{Heal, Mass} (16th),&nbsp;</li>\n<li>@Compendium[pf1.spells.mxqi375ya2rka7cp]{True Resurrection} (18th).</li>\n</ul>",
      "chat": "",
      "unidentified": ""
    },
    "tags": [],
    "activation": {
      "cost": 1,
      "type": ""
    },
    "unchainedAction": {
      "activation": {
        "cost": 1,
        "type": ""
      }
    },
    "duration": {
      "value": null,
      "units": ""
    },
    "target": {
      "value": ""
    },
    "range": {
      "value": null,
      "units": "",
      "maxIncrements": 1,
      "minValue": null,
      "minUnits": "",
      "long": null
    },
    "uses": {
      "value": 0,
      "max": 0,
      "per": null,
      "autoDeductCharges": true,
      "autoDeductChargesCost": "1"
    },
    "measureTemplate": {
      "type": "",
      "size": "",
      "overrideColor": false,
      "customColor": "",
      "overrideTexture": false,
      "customTexture": ""
    },
    "attackName": "",
    "actionType": "",
    "attackBonus": "",
    "critConfirmBonus": "",
    "damage": {
      "parts": [],
      "critParts": [],
      "nonCritParts": []
    },
    "attackParts": [],
    "formula": "",
    "ability": {
      "attack": null,
      "damage": null,
      "damageMult": 1,
      "critRange": 20,
      "critMult": 2
    },
    "save": {
      "dc": 0,
      "type": "",
      "description": ""
    },
    "effectNotes": "",
    "attackNotes": "",
    "soundEffect": "",
    "changes": [],
    "changeFlags": {
      "loseDexToAC": false,
      "noStr": false,
      "noDex": false,
      "oneInt": false,
      "oneWis": false,
      "oneCha": false,
      "noEncumbrance": false,
      "mediumArmorFullSpeed": false,
      "heavyArmorFullSpeed": false
    },
    "contextNotes": [],
    "links": {
      "children": [],
      "charges": []
    },
    "tag": "",
    "useCustomTag": false,
    "armorProf": {
      "value": [],
      "custom": ""
    },
    "weaponProf": {
      "value": [],
      "custom": ""
    },
    "featType": "classFeat",
    "associations": {
      "classes": [
        [
          "Oracle"
        ]
      ]
    },
    "showInQuickbar": false,
    "nonlethal": false,
    "abilityType": "none",
    "crOffset": "",
    "attack": {
      "parts": []
    }
  },
  "flags": {},
  "img": "systems/pf1/icons/spells/light-magenta-2.jpg",
  "effects": []
}