{
  "_id": "OE15Hyd0eKiASGYG",
  "name": "Mammoth Hide",
  "permission": {
    "default": 0
  },
  "type": "feat",
  "data": {
    "description": {
      "value": "<p>The shaman can touch a willing ally and cause its skin to thicken and sprout thick, shaggy fur. The creature gains a +2 enhancement bonus to natural armor and cold resistance 5 for 10 minutes.</p>\n<p>At 9th level, the enhancement bonus increases to +3 and the cold resistance to 10.</p>\n<p>At 15th level, this enhancement bonus increases to +4 and the cold resistance to 15.</p>\n<p>The shaman can use this ability a number of times per day equal to 3 + her Charisma bonus.</p>",
      "chat": "",
      "unidentified": ""
    },
    "tags": [],
    "activation": {
      "cost": 1,
      "type": "standard"
    },
    "unchainedAction": {
      "activation": {
        "cost": 2,
        "type": "action"
      }
    },
    "duration": {
      "value": "10",
      "units": "minute"
    },
    "target": {
      "value": "creature touched"
    },
    "range": {
      "value": null,
      "units": "touch",
      "maxIncrements": 1,
      "minValue": null,
      "minUnits": "",
      "long": null
    },
    "uses": {
      "value": 0,
      "max": 3,
      "per": "day",
      "autoDeductCharges": true,
      "autoDeductChargesCost": "1",
      "maxFormula": "3 + @abilities.cha.mod"
    },
    "measureTemplate": {
      "type": "",
      "size": "",
      "overrideColor": false,
      "customColor": "",
      "overrideTexture": false,
      "customTexture": ""
    },
    "attackName": "",
    "actionType": "",
    "attackBonus": "",
    "critConfirmBonus": "",
    "damage": {
      "parts": [],
      "critParts": [],
      "nonCritParts": []
    },
    "attackParts": [],
    "formula": "",
    "ability": {
      "attack": null,
      "damage": null,
      "damageMult": 1,
      "critRange": 20,
      "critMult": 2
    },
    "save": {
      "dc": 0,
      "type": "",
      "description": ""
    },
    "effectNotes": "",
    "attackNotes": "",
    "soundEffect": "",
    "changes": [],
    "changeFlags": {
      "loseDexToAC": false,
      "noStr": false,
      "noDex": false,
      "oneInt": false,
      "oneWis": false,
      "oneCha": false,
      "noEncumbrance": false,
      "mediumArmorFullSpeed": false,
      "heavyArmorFullSpeed": false
    },
    "contextNotes": [],
    "links": {
      "children": [],
      "charges": []
    },
    "tag": "",
    "useCustomTag": false,
    "armorProf": {
      "value": [],
      "custom": ""
    },
    "weaponProf": {
      "value": [],
      "custom": ""
    },
    "featType": "classFeat",
    "associations": {
      "classes": [
        [
          "Shaman"
        ]
      ]
    },
    "showInQuickbar": false,
    "nonlethal": false,
    "abilityType": "su",
    "crOffset": "",
    "attack": {
      "parts": []
    }
  },
  "flags": {},
  "img": "systems/pf1/icons/skills/green_03.jpg",
  "effects": []
}