{
  "_id": "vcu4o0Csin1xN98E",
  "name": "Peafowl Aspect",
  "permission": {
    "default": 0
  },
  "type": "feat",
  "data": {
    "description": {
      "value": "<p><em>Peafowl are popular ornamental birds due to their spectacular colors, and they are often symbols of royalty or the divine. A shifter using the alternate natural attacks rules on page 8 of&nbsp;Pathfinder Player Companion: Wilderness Origins&nbsp;can select a bite (B, P, S) or tail slap (B) attack.</em><br><br><strong>Minor Form:</strong> You gain a +2 enhancement bonus to your Charisma score.</p>\n<p>At 8th level the bonus increases to +4, and at 15th level it increases to +6.<br><br><strong>Major Form:</strong> Your shape changes to that of a Small&nbsp;<a href=\"https://www.aonprd.com/MonsterDisplay.aspx?ItemName=Peafowl\">peafowl</a>. While in this form you gain low-light vision, a fly speed of 40 feet (clumsy), two talon attacks (1d3 damage), and a +4 racial bonus on Stealth checks. A peafowl can’t use its fly speed to hover and must end any flying move action by landing or perching on a solid surface. A peafowl can perform a captivating dance targeting all creatures within a 15-foot cone. Each creature in the cone that can see your dance must succeed at a Will save (DC = 10 + half your shifter level + your Charisma modifier) or be stunned for 1 round.</p>\n<p>At 8th level, the stunned effect lasts for 2 rounds, and at 15th level the duration increases to 4 rounds. Whether or not it succeeds at the initial save, a creature cannot be affected by this ability again for 24 hours.<br><br><strong>Alternate Natural Attacks:</strong> Bite (B, P, S), tail slap (B)</p>",
      "chat": "",
      "unidentified": ""
    },
    "tags": [],
    "activation": {
      "cost": 1,
      "type": ""
    },
    "unchainedAction": {
      "activation": {
        "cost": 1,
        "type": ""
      }
    },
    "duration": {
      "value": null,
      "units": ""
    },
    "target": {
      "value": ""
    },
    "range": {
      "value": null,
      "units": "",
      "maxIncrements": 1,
      "minValue": null,
      "minUnits": "",
      "long": null
    },
    "uses": {
      "value": 0,
      "max": 0,
      "per": null,
      "autoDeductCharges": true,
      "autoDeductChargesCost": "1"
    },
    "measureTemplate": {
      "type": "",
      "size": "",
      "overrideColor": false,
      "customColor": "",
      "overrideTexture": false,
      "customTexture": ""
    },
    "attackName": "",
    "actionType": "",
    "attackBonus": "",
    "critConfirmBonus": "",
    "damage": {
      "parts": [],
      "critParts": [],
      "nonCritParts": []
    },
    "attackParts": [],
    "formula": "",
    "ability": {
      "attack": null,
      "damage": null,
      "damageMult": 1,
      "critRange": 20,
      "critMult": 2
    },
    "save": {
      "dc": 0,
      "type": "",
      "description": ""
    },
    "effectNotes": "",
    "attackNotes": "",
    "soundEffect": "",
    "changes": [],
    "changeFlags": {
      "loseDexToAC": false,
      "noStr": false,
      "noDex": false,
      "oneInt": false,
      "oneWis": false,
      "oneCha": false,
      "noEncumbrance": false,
      "mediumArmorFullSpeed": false,
      "heavyArmorFullSpeed": false
    },
    "contextNotes": [],
    "links": {
      "children": [],
      "charges": []
    },
    "tag": "",
    "useCustomTag": false,
    "armorProf": {
      "value": [],
      "custom": ""
    },
    "weaponProf": {
      "value": [],
      "custom": ""
    },
    "featType": "classFeat",
    "associations": {
      "classes": [
        [
          "Shifter"
        ]
      ]
    },
    "showInQuickbar": false,
    "nonlethal": false,
    "abilityType": "none",
    "crOffset": "",
    "attack": {
      "parts": []
    }
  },
  "flags": {},
  "img": "systems/pf1/icons/skills/blue_29.jpg",
  "effects": []
}