{
  "_id": "VHLoVV1CfilYSZFu",
  "name": "Protean Bloodline",
  "permission": {
    "default": 0
  },
  "type": "feat",
  "data": {
    "description": {
      "value": "<p><em>You have in your veins the ever-changing wildness of primal chaos, the raw essence of unbound creation. Your mind and spirit burst with the constant inspiration of consummate freedom, though you have difficulty following through on a task when another, new and exciting, catches your interest.</em></p>\n<p><strong>Class Skill:</strong>&nbsp;<a href=\"https://www.d20pfsrd.com/skills/knowledge\">Knowledge</a>&nbsp;(planes).</p>\n<p><strong>Bonus Spells:</strong></p>\n<ul>\n<li>@Compendium[pf1.spells.ja005kj1gh7g0dnk]{Entropic Shield}&nbsp;(3rd),</li>\n<li>@Compendium[pf1.spells.18kryvj2dfuymk9d]{Blur}&nbsp;(5th),</li>\n<li>@Compendium[pf1.spells.mqdoexj35atgqafn]{Gaseous Form}&nbsp;(7th),</li>\n<li>@Compendium[pf1.spells.n0bsyxchnigkkuqo]{Confusion}&nbsp;(9th),</li>\n<li>@Compendium[pf1.spells.b8lt1275mz4ez4d8]{Major Creation}&nbsp;(11th),</li>\n<li>@Compendium[pf1.spells.sxyiwj0z95piv96i]{Disintegrate} (13th),</li>\n<li>@Compendium[pf1.spells.t44p3oeq43jwcgwg]{Polymorph, Greater}&nbsp;(15th),</li>\n<li>@Compendium[pf1.spells.2sa3881har33geo1]{Polymorph Any Object}&nbsp;(17th),</li>\n<li>@Compendium[pf1.spells.n3lp01euzcdmtbw5]{Shapechange} (19th).</li>\n</ul>\n<p><strong>Bonus Feats:</strong></p>\n<ul>\n<li>@Compendium[pf1.feats.lxDJhpqwtR3J4UXx]{Agile Maneuvers},</li>\n<li>@Compendium[pf1.feats.F9mKy0SmRo4bTdni]{Defensive Combat Training},</li>\n<li>@Compendium[pf1.feats.9mcYid7xJY9NiySx]{Enlarge Spell},</li>\n<li>@Compendium[pf1.feats.fVRnBIHR4Jq6btvm]{Great Fortitude},</li>\n<li>@Compendium[pf1.feats.1hxjrJ68yWsiCCFD]{Improved Great Fortitude},</li>\n<li>@Compendium[pf1.feats.7zJTztNW7hdaqjKc]{Skill Focus}&nbsp;(<a href=\"https://www.d20pfsrd.com/skills/craft\">Craft</a>&nbsp;[any]),</li>\n<li>@Compendium[pf1.feats.V2zY7BltkpSXwejy]{Spell Focus},</li>\n<li>@Compendium[pf1.feats.8snLqsJN4LLL00Nq]{Toughness}.</li>\n</ul>\n<p><a name=\"TOC-Bloodline-Arcana\"></a><strong>Bloodline Arcana:</strong> Your magic of creation and changing is hard to unravel. The DC to dispel&nbsp;<a href=\"https://www.d20pfsrd.com/magic#TOC-Transmutation\">transmutation</a>&nbsp;or&nbsp;<a href=\"https://www.d20pfsrd.com/magic#TOC-Conjuration\">conjuration</a>&nbsp;(creation) spells that you cast is increased by +4.</p>",
      "chat": "",
      "unidentified": ""
    },
    "tags": [],
    "activation": {
      "cost": 1,
      "type": ""
    },
    "unchainedAction": {
      "activation": {
        "cost": 1,
        "type": ""
      }
    },
    "duration": {
      "value": null,
      "units": ""
    },
    "target": {
      "value": ""
    },
    "range": {
      "value": null,
      "units": "",
      "maxIncrements": 1,
      "minValue": null,
      "minUnits": "",
      "long": null
    },
    "uses": {
      "value": 0,
      "max": 0,
      "per": null,
      "autoDeductCharges": true,
      "autoDeductChargesCost": "1"
    },
    "measureTemplate": {
      "type": "",
      "size": "0",
      "overrideColor": false,
      "customColor": "",
      "overrideTexture": false,
      "customTexture": ""
    },
    "attackName": "",
    "actionType": "",
    "attackBonus": "",
    "critConfirmBonus": "",
    "damage": {
      "parts": [],
      "critParts": [],
      "nonCritParts": []
    },
    "attackParts": [],
    "formula": "",
    "ability": {
      "attack": null,
      "damage": null,
      "damageMult": 1,
      "critRange": 20,
      "critMult": 2
    },
    "save": {
      "dc": 0,
      "type": "",
      "description": ""
    },
    "effectNotes": "",
    "attackNotes": "",
    "soundEffect": "",
    "changes": [],
    "changeFlags": {
      "loseDexToAC": false,
      "noStr": false,
      "noDex": false,
      "oneInt": false,
      "oneWis": false,
      "oneCha": false,
      "noEncumbrance": false,
      "mediumArmorFullSpeed": false,
      "heavyArmorFullSpeed": false
    },
    "contextNotes": [],
    "links": {
      "children": [],
      "charges": []
    },
    "tag": "",
    "useCustomTag": false,
    "armorProf": {
      "value": [],
      "custom": ""
    },
    "weaponProf": {
      "value": [],
      "custom": ""
    },
    "featType": "classFeat",
    "associations": {
      "classes": [
        [
          "Sorcerer"
        ]
      ]
    },
    "showInQuickbar": false,
    "nonlethal": false,
    "abilityType": "none",
    "crOffset": "",
    "attack": {
      "parts": []
    }
  },
  "flags": {},
  "img": "systems/pf1/icons/skills/emerald_09.jpg",
  "effects": []
}