{
  "_id": "rYysZH5hllziSfl9",
  "name": "Protection Patron",
  "permission": {
    "default": 0
  },
  "type": "feat",
  "data": {
    "description": {
      "value": "<ul>\n<li>2nd — @Compendium[pf1.spells.yk5bgi6j9kbtigof]{Sanctuary}</li>\n<li>4th — @Compendium[pf1.spells.tkjnm3lw7ni82tag]{Resist Energy}</li>\n<li>6th — @Compendium[pf1.spells.1gz3zdpxu7uic5ky]{Wrathful Mantle}</li>\n<li>8th — @Compendium[pf1.spells.knyako6zopc1chrv]{Stoneskin}</li>\n<li>10th — @Compendium[pf1.spells.wu4y1ilg6iq28cr6]{Interposing Hand}</li>\n<li>12th — @Compendium[pf1.spells.odel1qsctfkp8rdm]{Forbiddance}</li>\n<li>14th — @Compendium[pf1.spells.jg3p4t3dv1a7nqvo]{Spell Immunity, Greater}</li>\n<li>16th — @Compendium[pf1.spells.ijwcwnt3oatnfghq]{Prismatic Wall}</li>\n<li>18th — @Compendium[pf1.spells.kdzx88z16gs8l392]{Freedom}</li>\n</ul>",
      "chat": "",
      "unidentified": ""
    },
    "tags": [],
    "activation": {
      "cost": 1,
      "type": ""
    },
    "unchainedAction": {
      "activation": {
        "cost": 1,
        "type": ""
      }
    },
    "duration": {
      "value": null,
      "units": ""
    },
    "target": {
      "value": ""
    },
    "range": {
      "value": null,
      "units": "",
      "maxIncrements": 1,
      "minValue": null,
      "minUnits": "",
      "long": null
    },
    "uses": {
      "value": 0,
      "max": 0,
      "per": null,
      "autoDeductCharges": true,
      "autoDeductChargesCost": "1"
    },
    "measureTemplate": {
      "type": "",
      "size": "",
      "overrideColor": false,
      "customColor": "",
      "overrideTexture": false,
      "customTexture": ""
    },
    "attackName": "",
    "actionType": "",
    "attackBonus": "",
    "critConfirmBonus": "",
    "damage": {
      "parts": [],
      "critParts": [],
      "nonCritParts": []
    },
    "attackParts": [],
    "formula": "",
    "ability": {
      "attack": null,
      "damage": null,
      "damageMult": 1,
      "critRange": 20,
      "critMult": 2
    },
    "save": {
      "dc": 0,
      "type": "",
      "description": ""
    },
    "effectNotes": "",
    "attackNotes": "",
    "soundEffect": "",
    "changes": [],
    "changeFlags": {
      "loseDexToAC": false,
      "noStr": false,
      "noDex": false,
      "oneInt": false,
      "oneWis": false,
      "oneCha": false,
      "noEncumbrance": false,
      "mediumArmorFullSpeed": false,
      "heavyArmorFullSpeed": false
    },
    "contextNotes": [],
    "links": {
      "children": [],
      "charges": []
    },
    "tag": "",
    "useCustomTag": false,
    "armorProf": {
      "value": [],
      "custom": ""
    },
    "weaponProf": {
      "value": [],
      "custom": ""
    },
    "featType": "classFeat",
    "associations": {
      "classes": [
        [
          "Witch"
        ]
      ]
    },
    "showInQuickbar": false,
    "nonlethal": false,
    "abilityType": "none",
    "crOffset": "",
    "attack": {
      "parts": []
    }
  },
  "flags": {},
  "img": "systems/pf1/icons/feats/improved-familiar.jpg",
  "effects": []
}