{
  "_id": "rqzRkNGxW1BObVDS",
  "name": "Pushing Infusion",
  "permission": {
    "default": 0
  },
  "type": "feat",
  "data": {
    "description": {
      "value": "<p><strong>Element&nbsp;</strong>aether, air, earth, void, water, wood;&nbsp;</p>\n<p><strong>Type&nbsp;</strong>substance infusion;&nbsp;<strong>Level&nbsp;</strong>1;<strong>&nbsp;Burn&nbsp;</strong>1</p>\n<p><strong>Associated Blasts&nbsp;</strong>air, blizzard, charged water, earth, magma, metal, mud, sandstorm, steam, telekinetic, water</p>\n<p><strong>Saving Throw&nbsp;</strong>none</p>\n<p>The momentum of your kinetic blast knocks foes back. Attempt a bull rush combat maneuver check against each target damaged by your infused blast, using your Constitution modifier instead of your Strength modifier to determine your bonus. This infusion can push a foe back by a maximum of 5 feet. You can increase the burn cost of this infusion to increase the maximum distance pushed by 5 feet per additional point of burn accepted. You can’t use this infusion with a form infusion such as cloud that causes your kinetic blast to lack a clear direction to push.</p>",
      "chat": "",
      "unidentified": ""
    },
    "tags": [],
    "activation": {
      "cost": 1,
      "type": ""
    },
    "unchainedAction": {
      "activation": {
        "cost": 1,
        "type": ""
      }
    },
    "duration": {
      "value": null,
      "units": ""
    },
    "target": {
      "value": ""
    },
    "range": {
      "value": null,
      "units": "",
      "maxIncrements": 1,
      "minValue": null,
      "minUnits": "",
      "long": null
    },
    "uses": {
      "value": 0,
      "max": 0,
      "per": null,
      "autoDeductCharges": true,
      "autoDeductChargesCost": "1"
    },
    "measureTemplate": {
      "type": "",
      "size": "",
      "overrideColor": false,
      "customColor": "",
      "overrideTexture": false,
      "customTexture": ""
    },
    "attackName": "",
    "actionType": "",
    "attackBonus": "",
    "critConfirmBonus": "",
    "damage": {
      "parts": [],
      "critParts": [],
      "nonCritParts": []
    },
    "attackParts": [],
    "formula": "",
    "ability": {
      "attack": null,
      "damage": null,
      "damageMult": 1,
      "critRange": 20,
      "critMult": 2
    },
    "save": {
      "dc": 0,
      "type": "",
      "description": ""
    },
    "effectNotes": "",
    "attackNotes": "",
    "soundEffect": "",
    "changes": [],
    "changeFlags": {
      "loseDexToAC": false,
      "noStr": false,
      "noDex": false,
      "oneInt": false,
      "oneWis": false,
      "oneCha": false,
      "noEncumbrance": false,
      "mediumArmorFullSpeed": false,
      "heavyArmorFullSpeed": false
    },
    "contextNotes": [],
    "links": {
      "children": [],
      "charges": []
    },
    "tag": "",
    "useCustomTag": false,
    "armorProf": {
      "value": [],
      "custom": ""
    },
    "weaponProf": {
      "value": [],
      "custom": ""
    },
    "featType": "classFeat",
    "associations": {
      "classes": [
        [
          "Kineticist"
        ]
      ]
    },
    "showInQuickbar": false,
    "nonlethal": false,
    "abilityType": "none",
    "crOffset": "",
    "attack": {
      "parts": []
    }
  },
  "flags": {},
  "img": "systems/pf1/icons/spells/runes-blue-1.jpg",
  "effects": []
}