{
  "_id": "EbMT5qliolI2BhDt",
  "name": "Remove Vampirism",
  "permission": {
    "default": 0
  },
  "type": "feat",
  "data": {
    "description": {
      "value": "<p>At 13th level, the vampire hunter can prevent a creature killed by a vampire from returning to life as a vampire itself. By spending 10 minutes and dousing a body with a&nbsp;<a href=\"https://www.d20pfsrd.com/equipment/goods-and-services/containers-bags-boxes-more#TOC-Vial\">vial</a>&nbsp;of&nbsp;<a href=\"https://www.d20pfsrd.com/equipment/goods-and-services/toys-games-puzzles#TOC-Holy-Water\">holy water</a>, the vampire hunter removes the infection of vampirism from a creature slain by a vampire’s&nbsp;<a href=\"https://www.d20pfsrd.com/bestiary/rules-for-monsters/universal-monster-rules#TOC-Blood-Drain-Ex-\">blood drain</a>&nbsp;or&nbsp;<a href=\"https://www.d20pfsrd.com/magic/all-spells/e/energy-drain\">energy drain</a>&nbsp;ability, preventing it from rising as a&nbsp;<a href=\"https://www.d20pfsrd.com/bestiary/monster-listings/templates/vampire/vampire-spawn\">vampire spawn</a>&nbsp;via a vampire’s create spawn ability. This effect cannot be undone with any magic weaker than a @Compendium[pf1.spells.suel7sgnztenv551]{Miracle}&nbsp;or @Compendium[pf1.spells.nnj51dwfkwd15ngj]{Wish}. If the corpse is returned to life and subsequently killed by a vampire again might it become a&nbsp;<a href=\"https://www.d20pfsrd.com/bestiary/monster-listings/templates/vampire/vampire-spawn\">vampire spawn</a>.</p>",
      "chat": "",
      "unidentified": ""
    },
    "tags": [],
    "activation": {
      "cost": 10,
      "type": "minute"
    },
    "unchainedAction": {
      "activation": {
        "cost": 10,
        "type": "minute"
      }
    },
    "duration": {
      "value": null,
      "units": ""
    },
    "target": {
      "value": ""
    },
    "range": {
      "value": null,
      "units": "",
      "maxIncrements": 1,
      "minValue": null,
      "minUnits": "",
      "long": null
    },
    "uses": {
      "value": 0,
      "max": 0,
      "per": "",
      "autoDeductCharges": true,
      "autoDeductChargesCost": "1"
    },
    "measureTemplate": {
      "type": "",
      "size": "0",
      "overrideColor": false,
      "customColor": "",
      "overrideTexture": false,
      "customTexture": ""
    },
    "attackName": "",
    "actionType": "",
    "attackBonus": "",
    "critConfirmBonus": "",
    "damage": {
      "parts": [],
      "critParts": [],
      "nonCritParts": []
    },
    "attackParts": [],
    "formula": "",
    "ability": {
      "attack": null,
      "damage": null,
      "damageMult": 1,
      "critRange": 20,
      "critMult": 2
    },
    "save": {
      "dc": 0,
      "type": "",
      "description": ""
    },
    "effectNotes": "",
    "attackNotes": "",
    "soundEffect": "",
    "changes": [],
    "changeFlags": {
      "loseDexToAC": false,
      "noStr": false,
      "noDex": false,
      "oneInt": false,
      "oneWis": false,
      "oneCha": false,
      "noEncumbrance": false,
      "mediumArmorFullSpeed": false,
      "heavyArmorFullSpeed": false
    },
    "contextNotes": [],
    "links": {
      "children": [],
      "charges": []
    },
    "tag": "",
    "useCustomTag": false,
    "armorProf": {
      "value": [],
      "custom": ""
    },
    "weaponProf": {
      "value": [],
      "custom": ""
    },
    "featType": "classFeat",
    "associations": {
      "classes": [
        [
          "Vampire Hunter"
        ]
      ]
    },
    "showInQuickbar": false,
    "nonlethal": false,
    "abilityType": "su",
    "crOffset": "",
    "attack": {
      "parts": []
    }
  },
  "flags": {},
  "img": "systems/pf1/icons/skills/blood_10.jpg",
  "effects": []
}