{
  "_id": "T7YsL5WMkHP1ZXtJ",
  "name": "Shadow Mystery",
  "permission": {
    "default": 0
  },
  "type": "feat",
  "data": {
    "description": {
      "value": "<p><strong>Class Skills:</strong> An oracle with this mystery adds Bluff, Disguise, Knowledge (dungeoneering), and Stealth to her list of class skills.<br><br><strong>Bonus Spells:</strong>&nbsp;</p>\n<ul>\n<li>@Compendium[pf1.spells.h4hrop7rq2c9phyi]{Blurred Movement} (2nd),&nbsp;</li>\n<li>@Compendium[pf1.spells.oylikodnyku2zewu]{Invisibility} (4th),&nbsp;</li>\n<li>@Compendium[pf1.spells.jdsvncnna6oy189a]{Deeper Darkness} (6th),&nbsp;</li>\n<li>@Compendium[pf1.spells.cmwcavfyc1vbehy8]{Shadow Step}&nbsp;(8th),&nbsp;</li>\n<li>@Compendium[pf1.spells.3idp5fjp62wpn4a4]{Vampiric Shadow Shield} (10th),&nbsp;</li>\n<li>@Compendium[pf1.spells.btoow6tyv39443gh]{Shadow Walk} (12th),&nbsp;</li>\n<li>@Compendium[pf1.spells.j2y1uga5fwg8deqq]{Invisibility, Mass} (14th),&nbsp;</li>\n<li>@Compendium[pf1.spells.967ur7a9xepd704y]{Shadow Evocation, Greater} (16th),&nbsp;</li>\n<li>@Compendium[pf1.spells.xxaycxbdsmalf5ov]{Shades} (18th).</li>\n</ul>",
      "chat": "",
      "unidentified": ""
    },
    "tags": [],
    "activation": {
      "cost": 1,
      "type": ""
    },
    "unchainedAction": {
      "activation": {
        "cost": 1,
        "type": ""
      }
    },
    "duration": {
      "value": null,
      "units": ""
    },
    "target": {
      "value": ""
    },
    "range": {
      "value": null,
      "units": "",
      "maxIncrements": 1,
      "minValue": null,
      "minUnits": "",
      "long": null
    },
    "uses": {
      "value": 0,
      "max": 0,
      "per": null,
      "autoDeductCharges": true,
      "autoDeductChargesCost": "1"
    },
    "measureTemplate": {
      "type": "",
      "size": "",
      "overrideColor": false,
      "customColor": "",
      "overrideTexture": false,
      "customTexture": ""
    },
    "attackName": "",
    "actionType": "",
    "attackBonus": "",
    "critConfirmBonus": "",
    "damage": {
      "parts": [],
      "critParts": [],
      "nonCritParts": []
    },
    "attackParts": [],
    "formula": "",
    "ability": {
      "attack": null,
      "damage": null,
      "damageMult": 1,
      "critRange": 20,
      "critMult": 2
    },
    "save": {
      "dc": 0,
      "type": "",
      "description": ""
    },
    "effectNotes": "",
    "attackNotes": "",
    "soundEffect": "",
    "changes": [],
    "changeFlags": {
      "loseDexToAC": false,
      "noStr": false,
      "noDex": false,
      "oneInt": false,
      "oneWis": false,
      "oneCha": false,
      "noEncumbrance": false,
      "mediumArmorFullSpeed": false,
      "heavyArmorFullSpeed": false
    },
    "contextNotes": [],
    "links": {
      "children": [],
      "charges": []
    },
    "tag": "",
    "useCustomTag": false,
    "armorProf": {
      "value": [],
      "custom": ""
    },
    "weaponProf": {
      "value": [],
      "custom": ""
    },
    "featType": "classFeat",
    "associations": {
      "classes": [
        [
          "Oracle"
        ]
      ]
    },
    "showInQuickbar": false,
    "nonlethal": false,
    "abilityType": "none",
    "crOffset": "",
    "attack": {
      "parts": []
    }
  },
  "flags": {},
  "img": "systems/pf1/icons/spells/light-magenta-2.jpg",
  "effects": []
}