{
  "_id": "pPwS60bRulleJl1Y",
  "name": "Snapping Turtle Aspect",
  "permission": {
    "default": 0
  },
  "type": "feat",
  "data": {
    "description": {
      "value": "<p><em>Long-lived and resilient, turtles embody wisdom and endurance in many cultures. Those who take this aspect gain profound insight as well as remarkable resilience. A snapping turtle’s alternate attack is bite (B, P, S).</em><br><br><strong>Minor Form:</strong> You gain a +2 enhancement bonus to Wisdom.</p>\n<p>At 8th level, this bonus increases to +4, and at 15th level, it increases to +6.<br><br><strong>Major Form: </strong>Your shape changes to that of a Large&nbsp;<a href=\"https://www.aonprd.com/MonsterDisplay.aspx?ItemName=Giant%20Snapping%20Turtle\">giant snapping turtle</a>. While in this form, you gain low-light vision, scent (30 feet), a swim speed of 20 feet, and a bite attack (1d8 + 1-1/2 your Strength modifier damage).</p>\n<p>At 8th level, you gain an insight bonus equal to your Wisdom modifier to your CMD against bull rush, drag, overrun, reposition, and trip attempts.</p>\n<p>At 15th level, you gain DR 5/silver.<br><br><strong>Alternate Natural Attacks:</strong> Bite (B, P, S)</p>",
      "chat": "",
      "unidentified": ""
    },
    "tags": [],
    "activation": {
      "cost": 1,
      "type": ""
    },
    "unchainedAction": {
      "activation": {
        "cost": 1,
        "type": ""
      }
    },
    "duration": {
      "value": null,
      "units": ""
    },
    "target": {
      "value": ""
    },
    "range": {
      "value": null,
      "units": "",
      "maxIncrements": 1,
      "minValue": null,
      "minUnits": "",
      "long": null
    },
    "uses": {
      "value": 0,
      "max": 0,
      "per": null,
      "autoDeductCharges": true,
      "autoDeductChargesCost": "1"
    },
    "measureTemplate": {
      "type": "",
      "size": "",
      "overrideColor": false,
      "customColor": "",
      "overrideTexture": false,
      "customTexture": ""
    },
    "attackName": "",
    "actionType": "",
    "attackBonus": "",
    "critConfirmBonus": "",
    "damage": {
      "parts": [],
      "critParts": [],
      "nonCritParts": []
    },
    "attackParts": [],
    "formula": "",
    "ability": {
      "attack": null,
      "damage": null,
      "damageMult": 1,
      "critRange": 20,
      "critMult": 2
    },
    "save": {
      "dc": 0,
      "type": "",
      "description": ""
    },
    "effectNotes": "",
    "attackNotes": "",
    "soundEffect": "",
    "changes": [],
    "changeFlags": {
      "loseDexToAC": false,
      "noStr": false,
      "noDex": false,
      "oneInt": false,
      "oneWis": false,
      "oneCha": false,
      "noEncumbrance": false,
      "mediumArmorFullSpeed": false,
      "heavyArmorFullSpeed": false
    },
    "contextNotes": [],
    "links": {
      "children": [],
      "charges": []
    },
    "tag": "",
    "useCustomTag": false,
    "armorProf": {
      "value": [],
      "custom": ""
    },
    "weaponProf": {
      "value": [],
      "custom": ""
    },
    "featType": "classFeat",
    "associations": {
      "classes": [
        [
          "Shifter"
        ]
      ]
    },
    "showInQuickbar": false,
    "nonlethal": false,
    "abilityType": "none",
    "crOffset": "",
    "attack": {
      "parts": []
    }
  },
  "flags": {},
  "img": "systems/pf1/icons/skills/blue_29.jpg",
  "effects": []
}