{
  "_id": "HBdCx5T2fni9jcM7",
  "name": "Spellscar",
  "permission": {
    "default": 0
  },
  "type": "feat",
  "data": {
    "description": {
      "value": "<p><strong>Class Skills:</strong> An oracle with the spellscar mystery adds Knowledge (arcana), Knowledge (nature), Survival, and Use Magic Device to her list of class skills.<br><br><strong>Bonus Spells:</strong>&nbsp;</p>\n<ul>\n<li>@Compendium[pf1.spells.mczdgwo3xl8c6e26]{Ray Of Enfeeblement} (2nd),&nbsp;</li>\n<li>@Compendium[pf1.spells.x5hunybxpzhd3gcm]{Obscure Object} (4th),&nbsp;</li>\n<li>@Compendium[pf1.spells.gmgwyjfpeuuc4t4o]{Dispel Magic}&nbsp;(6th),</li>\n<li>@Compendium[pf1.spells.exwa9xra4u82j0sx]{Globe of Invulnerability, Lesser} (8th),</li>\n<li>@Compendium[pf1.spells.myg2b9ww43nnlbr2]{Break Enchantment} (10th),</li>\n<li>@Compendium[pf1.spells.niqxt53lhxrjfaty]{Antimagic Field} (12th),</li>\n<li>@Compendium[pf1.spells.uyn64zazmaydnk7o]{Spell Turning} (14th),</li>\n<li>@Compendium[pf1.spells.4pryfl3cihbio5ph]{Spellscar} (16th),</li>\n<li>@Compendium[pf1.spells.19p4nr8rsvt42lmn]{Mage's Disjunction} (18th).</li>\n</ul>",
      "chat": "",
      "unidentified": ""
    },
    "tags": [],
    "activation": {
      "cost": 1,
      "type": ""
    },
    "unchainedAction": {
      "activation": {
        "cost": 1,
        "type": ""
      }
    },
    "duration": {
      "value": null,
      "units": ""
    },
    "target": {
      "value": ""
    },
    "range": {
      "value": null,
      "units": "",
      "maxIncrements": 1,
      "minValue": null,
      "minUnits": "",
      "long": null
    },
    "uses": {
      "value": 0,
      "max": 0,
      "per": null,
      "autoDeductCharges": true,
      "autoDeductChargesCost": "1"
    },
    "measureTemplate": {
      "type": "",
      "size": "",
      "overrideColor": false,
      "customColor": "",
      "overrideTexture": false,
      "customTexture": ""
    },
    "attackName": "",
    "actionType": "",
    "attackBonus": "",
    "critConfirmBonus": "",
    "damage": {
      "parts": [],
      "critParts": [],
      "nonCritParts": []
    },
    "attackParts": [],
    "formula": "",
    "ability": {
      "attack": null,
      "damage": null,
      "damageMult": 1,
      "critRange": 20,
      "critMult": 2
    },
    "save": {
      "dc": 0,
      "type": "",
      "description": ""
    },
    "effectNotes": "",
    "attackNotes": "",
    "soundEffect": "",
    "changes": [],
    "changeFlags": {
      "loseDexToAC": false,
      "noStr": false,
      "noDex": false,
      "oneInt": false,
      "oneWis": false,
      "oneCha": false,
      "noEncumbrance": false,
      "mediumArmorFullSpeed": false,
      "heavyArmorFullSpeed": false
    },
    "contextNotes": [],
    "links": {
      "children": [],
      "charges": []
    },
    "tag": "",
    "useCustomTag": false,
    "armorProf": {
      "value": [],
      "custom": ""
    },
    "weaponProf": {
      "value": [],
      "custom": ""
    },
    "featType": "classFeat",
    "associations": {
      "classes": [
        [
          "Oracle"
        ]
      ]
    },
    "showInQuickbar": false,
    "nonlethal": false,
    "abilityType": "none",
    "crOffset": "",
    "attack": {
      "parts": []
    }
  },
  "flags": {},
  "img": "systems/pf1/icons/spells/light-magenta-2.jpg",
  "effects": []
}