{
  "_id": "NfoB34jDXxaN0gFa",
  "name": "Streets Mystery",
  "permission": {
    "default": 0
  },
  "type": "feat",
  "data": {
    "description": {
      "value": "<p><strong>Class Skills:</strong> An oracle with the streets mystery adds Bluff, Knowledge (local), Perception, and Stealth to her list of class skills.<br><br><strong>Bonus Spells:</strong>&nbsp;</p>\n<ul>\n<li>@Compendium[pf1.spells.oj36nfak6jc2s5ky]{Disguise Self} (2nd),&nbsp;</li>\n<li>@Compendium[pf1.spells.xllxylvvqr82o2d5]{Detect Thoughts} (4th),&nbsp;</li>\n<li>@Compendium[pf1.spells.53dyu81yaw4y0nz4]{Glyph Of Warding} (6th),&nbsp;</li>\n<li>@Compendium[pf1.spells.7c0l64pfdkgl7j5y]{Illusory Wall}(8th),&nbsp;</li>\n<li>@Compendium[pf1.spells.gk8fqfvj99d46p2h]{False Vision} (10th),&nbsp;</li>\n<li>@Compendium[pf1.spells.q5432hyeds4pncxn]{Getaway} (12th),&nbsp;</li>\n<li>@Compendium[pf1.spells.dsondqy4ngf1yzf3]{Screen} (14th),&nbsp;</li>\n<li>@Compendium[pf1.spells.kqftgm3bi2dqj92l]{Mage's Magnificent Mansion} (16th),&nbsp;</li>\n<li>@Compendium[pf1.spells.9968j68bl9x9iq7u]{Clone} (18th).</li>\n</ul>",
      "chat": "",
      "unidentified": ""
    },
    "tags": [],
    "activation": {
      "cost": 1,
      "type": ""
    },
    "unchainedAction": {
      "activation": {
        "cost": 1,
        "type": ""
      }
    },
    "duration": {
      "value": null,
      "units": ""
    },
    "target": {
      "value": ""
    },
    "range": {
      "value": null,
      "units": "",
      "maxIncrements": 1,
      "minValue": null,
      "minUnits": "",
      "long": null
    },
    "uses": {
      "value": 0,
      "max": 0,
      "per": null,
      "autoDeductCharges": true,
      "autoDeductChargesCost": "1"
    },
    "measureTemplate": {
      "type": "",
      "size": "",
      "overrideColor": false,
      "customColor": "",
      "overrideTexture": false,
      "customTexture": ""
    },
    "attackName": "",
    "actionType": "",
    "attackBonus": "",
    "critConfirmBonus": "",
    "damage": {
      "parts": [],
      "critParts": [],
      "nonCritParts": []
    },
    "attackParts": [],
    "formula": "",
    "ability": {
      "attack": null,
      "damage": null,
      "damageMult": 1,
      "critRange": 20,
      "critMult": 2
    },
    "save": {
      "dc": 0,
      "type": "",
      "description": ""
    },
    "effectNotes": "",
    "attackNotes": "",
    "soundEffect": "",
    "changes": [],
    "changeFlags": {
      "loseDexToAC": false,
      "noStr": false,
      "noDex": false,
      "oneInt": false,
      "oneWis": false,
      "oneCha": false,
      "noEncumbrance": false,
      "mediumArmorFullSpeed": false,
      "heavyArmorFullSpeed": false
    },
    "contextNotes": [],
    "links": {
      "children": [],
      "charges": []
    },
    "tag": "",
    "useCustomTag": false,
    "armorProf": {
      "value": [],
      "custom": ""
    },
    "weaponProf": {
      "value": [],
      "custom": ""
    },
    "featType": "classFeat",
    "associations": {
      "classes": [
        [
          "Oracle"
        ]
      ]
    },
    "showInQuickbar": false,
    "nonlethal": false,
    "abilityType": "none",
    "crOffset": "",
    "attack": {
      "parts": []
    }
  },
  "flags": {},
  "img": "systems/pf1/icons/spells/light-magenta-2.jpg",
  "effects": []
}