{
  "_id": "EL0adl6mD4zl08Of",
  "name": "Vestige Sorcerer",
  "permission": {
    "default": 0
  },
  "type": "feat",
  "data": {
    "description": {
      "value": "<p><em>You trace your ancestry to a bygone civilization and can call upon its forgotten people or places for power.</em></p>\n<p><strong>Class Skill:</strong>&nbsp;<a href=\"https://www.d20pfsrd.com/skills/knowledge\">Knowledge</a>&nbsp;(history).</p>\n<p><strong>Bonus Spells:</strong>@Compendium[pf1.spells.llxrra87kbofmyhl]{Identify}&nbsp;(3rd), @Compendium[pf1.spells.9hi94t05i449j5ul]{Share Memory}&nbsp;(5th), @Compendium[pf1.spells.2dc7e9wby8qpi6m0]{Arcane Sight}&nbsp;(7th), @Compendium[pf1.spells.pyr472hvqn8c8es2]{Hypercognition}&nbsp;(9th), @Compendium[pf1.spells.zuqlok69lapqc6lg]{Telepathic Bond}&nbsp;(11th), @Compendium[pf1.spells.f2awecndqcmhavq7]{Analyze Dweomer}&nbsp;(13th), @Compendium[pf1.spells.aqeaxoaozlv9vg35]{Vision}&nbsp;(15th), @Compendium[pf1.spells.gw2sgj93dgarpem8]{Discern Location}&nbsp;(17th), @Compendium[pf1.spells.vl7yer8k1leyuxld]{Foresight}&nbsp;(19th).</p>\n<p><strong>Bonus Feats:</strong> @Compendium[pf1.feats.QvlxYVVsBDlykPKe]{Arcane Strike}, @Compendium[pf1.feats.7bJjKqNRrvpXJ4L3]{Augment Summoning}, @Compendium[pf1.feats.tD76K8QGco9scT0r]{Craft Wondrous Item},&nbsp;<a href=\"https://www.d20pfsrd.com/feats/metamagic-feats/echoing-spell-metamagic\">Echoing Spell</a>, @Compendium[pf1.feats.iAbIGhm7T2OK9Brt]{Iron Will}, @Compendium[pf1.feats.R3a1OV18RwDJftvq]{Leadership}, @Compendium[pf1.feats.7zJTztNW7hdaqjKc]{Skill Focus}&nbsp;(<a href=\"https://www.d20pfsrd.com/skills/knowledge\">Knowledge</a>&nbsp;[history]), @Compendium[pf1.feats.V2zY7BltkpSXwejy]{Spell Focus}.</p>\n<p><strong>Bloodline Arcana: </strong>Whenever you cast a spell of the&nbsp;<a href=\"https://www.d20pfsrd.com/magic/all-spells/d/divination\">divination</a>&nbsp;school, you see into the past. You gain an&nbsp;<a href=\"https://www.d20pfsrd.com/basics-ability-scores/glossary#TOC-Insight-Bonus\">insight bonus</a>&nbsp;equal to the&nbsp;<a href=\"https://www.d20pfsrd.com/magic/all-spells/d/divination\">divination</a>&nbsp;spell’s level on the next&nbsp;<a href=\"https://www.d20pfsrd.com/skills/appraise\">Appraise</a>,&nbsp;<a href=\"https://www.d20pfsrd.com/skills/craft\">Craft</a>, or&nbsp;<a href=\"https://www.d20pfsrd.com/skills/knowledge\">Knowledge</a>&nbsp;skill check you attempt within 24 hours.</p>",
      "chat": "",
      "unidentified": ""
    },
    "tags": [],
    "activation": {
      "cost": 1,
      "type": ""
    },
    "unchainedAction": {
      "activation": {
        "cost": 1,
        "type": ""
      }
    },
    "duration": {
      "value": null,
      "units": ""
    },
    "target": {
      "value": ""
    },
    "range": {
      "value": null,
      "units": "",
      "maxIncrements": 1,
      "minValue": null,
      "minUnits": "",
      "long": null
    },
    "uses": {
      "value": 0,
      "max": 0,
      "per": null,
      "autoDeductCharges": true,
      "autoDeductChargesCost": "1"
    },
    "measureTemplate": {
      "type": "",
      "size": "0",
      "overrideColor": false,
      "customColor": "",
      "overrideTexture": false,
      "customTexture": ""
    },
    "attackName": "",
    "actionType": "",
    "attackBonus": "",
    "critConfirmBonus": "",
    "damage": {
      "parts": [],
      "critParts": [],
      "nonCritParts": []
    },
    "attackParts": [],
    "formula": "",
    "ability": {
      "attack": null,
      "damage": null,
      "damageMult": 1,
      "critRange": 20,
      "critMult": 2
    },
    "save": {
      "dc": 0,
      "type": "",
      "description": ""
    },
    "effectNotes": "",
    "attackNotes": "",
    "soundEffect": "",
    "changes": [],
    "changeFlags": {
      "loseDexToAC": false,
      "noStr": false,
      "noDex": false,
      "oneInt": false,
      "oneWis": false,
      "oneCha": false,
      "noEncumbrance": false,
      "mediumArmorFullSpeed": false,
      "heavyArmorFullSpeed": false
    },
    "contextNotes": [],
    "links": {
      "children": [],
      "charges": []
    },
    "tag": "",
    "useCustomTag": false,
    "armorProf": {
      "value": [],
      "custom": ""
    },
    "weaponProf": {
      "value": [],
      "custom": ""
    },
    "featType": "classFeat",
    "associations": {
      "classes": [
        [
          "Sorcerer"
        ]
      ]
    },
    "showInQuickbar": false,
    "nonlethal": false,
    "abilityType": "none",
    "crOffset": "",
    "attack": {
      "parts": []
    }
  },
  "flags": {},
  "img": "systems/pf1/icons/skills/blue_07.jpg",
  "effects": []
}