{
  "_id": "ELZmtV3KDa0WCS4P",
  "name": "Wood Spirit",
  "permission": {
    "default": 0
  },
  "type": "feat",
  "data": {
    "description": {
      "value": "<p><em>A shaman who selects the wood spirit has a skin tone similar to the coloration of trees in her home region. Her vibrant hair is fragrant and resembles leaves and blossoms.</em><br><br><strong>Spirit Magic Spells:&nbsp;</strong></p>\n<ul>\n<li>@Compendium[pf1.spells.v05u8sl116ab2n9c]{Shillelagh} (1st),&nbsp;</li>\n<li>@Compendium[pf1.spells.la7kuehewu85ybnt]{Barkskin} (2nd),&nbsp;</li>\n<li>@Compendium[pf1.spells.jsvjsax2eabrlx8g]{Minor Creation} (wood items only) (3rd),&nbsp;</li>\n<li>@Compendium[pf1.spells.818uuekrao87o57u]{Thorn Body} (4th),&nbsp;</li>\n<li>@Compendium[pf1.spells.6x6epf4g5wgzl1gh]{Tree Stride} (5th),&nbsp;</li>\n<li>@Compendium[pf1.spells.xmacjpo6tgm1xhnv]{Ironwood} (6th),&nbsp;</li>\n<li>@Compendium[pf1.spells.3fravqa4vrm4ygkr]{Transmute Metal to Wood} (7th),&nbsp;</li>\n<li>@Compendium[pf1.spells.cp5m19me647dojha]{Changestaff} (8th),&nbsp;</li>\n<li>@Compendium[pf1.spells.9fd7mcoint902oyb]{Wooden Phalanx} (9th)</li>\n</ul>\n<p><strong>Spirit Animal:</strong> The shaman’s spirit animal looks like a wooden figurine or a vaguely animal-shaped tree branch when it is motionless. The animal gains freeze as per the universal monster rule (Pathfinder RPG Bestiary 2&nbsp;297).</p>",
      "chat": "",
      "unidentified": ""
    },
    "tags": [],
    "activation": {
      "cost": 1,
      "type": ""
    },
    "unchainedAction": {
      "activation": {
        "cost": 1,
        "type": ""
      }
    },
    "duration": {
      "value": null,
      "units": ""
    },
    "target": {
      "value": ""
    },
    "range": {
      "value": null,
      "units": "",
      "maxIncrements": 1,
      "minValue": null,
      "minUnits": "",
      "long": null
    },
    "uses": {
      "value": 0,
      "max": 0,
      "per": null,
      "autoDeductCharges": true,
      "autoDeductChargesCost": "1"
    },
    "measureTemplate": {
      "type": "",
      "size": "",
      "overrideColor": false,
      "customColor": "",
      "overrideTexture": false,
      "customTexture": ""
    },
    "attackName": "",
    "actionType": "",
    "attackBonus": "",
    "critConfirmBonus": "",
    "damage": {
      "parts": [],
      "critParts": [],
      "nonCritParts": []
    },
    "attackParts": [],
    "formula": "",
    "ability": {
      "attack": null,
      "damage": null,
      "damageMult": 1,
      "critRange": 20,
      "critMult": 2
    },
    "save": {
      "dc": 0,
      "type": "",
      "description": ""
    },
    "effectNotes": "",
    "attackNotes": "",
    "soundEffect": "",
    "changes": [],
    "changeFlags": {
      "loseDexToAC": false,
      "noStr": false,
      "noDex": false,
      "oneInt": false,
      "oneWis": false,
      "oneCha": false,
      "noEncumbrance": false,
      "mediumArmorFullSpeed": false,
      "heavyArmorFullSpeed": false
    },
    "contextNotes": [],
    "links": {
      "children": [],
      "charges": []
    },
    "tag": "",
    "useCustomTag": false,
    "armorProf": {
      "value": [],
      "custom": ""
    },
    "weaponProf": {
      "value": [],
      "custom": ""
    },
    "featType": "classFeat",
    "associations": {
      "classes": [
        [
          "Shaman"
        ]
      ]
    },
    "showInQuickbar": false,
    "nonlethal": false,
    "abilityType": "none",
    "crOffset": "",
    "attack": {
      "parts": []
    }
  },
  "flags": {},
  "img": "systems/pf1/icons/skills/violet_11.jpg",
  "effects": []
}