{
  "name": "Mutagen, Str",
  "permission": {
    "default": 0
  },
  "type": "buff",
  "data": {
    "description": {
      "value": "",
      "chat": "",
      "unidentified": ""
    },
    "tags": [],
    "changes": [
      {
        "_id": "5em86dex",
        "formula": "4",
        "operator": "add",
        "subTarget": "str",
        "modifier": "alchemical",
        "priority": 0,
        "value": 0,
        "target": "ability"
      },
      {
        "_id": "jieaewfc",
        "formula": "-2",
        "operator": "add",
        "subTarget": "int",
        "modifier": "alchemical",
        "priority": 0,
        "value": 0,
        "target": "ability"
      },
      {
        "_id": "vvzlv2eb",
        "formula": "2",
        "operator": "add",
        "subTarget": "nac",
        "modifier": "alchemical",
        "priority": 0,
        "value": 0,
        "target": "ac"
      }
    ],
    "changeFlags": {
      "loseDexToAC": false,
      "noEncumbrance": false,
      "mediumArmorFullSpeed": false,
      "heavyArmorFullSpeed": false,
      "noDex": false,
      "noStr": false,
      "oneCha": false,
      "oneInt": false,
      "oneWis": false
    },
    "contextNotes": [],
    "links": {
      "children": []
    },
    "tag": "mutagenStr",
    "useCustomTag": false,
    "flags": {
      "boolean": [],
      "dictionary": []
    },
    "buffType": "temp",
    "active": false,
    "level": "",
    "hideFromToken": true,
    "damage": {
      "critParts": [],
      "nonCritParts": [],
      "parts": []
    },
    "range": {
      "maxIncrements": 1
    },
    "uses": {
      "max": 0,
      "value": 0
    }
  },
  "flags": {},
  "img": "icons/tools/laboratory/vial-orange.webp",
  "effects": [],
  "_id": "a3P821aUxxJbSpVV"
}