{
  "_id": "MFogxSkB5dBmUI5i",
  "name": "Prayer (Negative)",
  "permission": {
    "default": 0
  },
  "type": "buff",
  "data": {
    "description": {
      "value": "<p>You have a +1 luck bonus on attack rolls, weapon damage rolls, saves and skill checks.</p>",
      "chat": "",
      "unidentified": ""
    },
    "tags": [],
    "changes": [
      {
        "_id": "xs01uvaa",
        "formula": "-1",
        "operator": "+",
        "target": "attack",
        "subTarget": "attack",
        "modifier": "untyped",
        "priority": 0,
        "value": -1
      },
      {
        "_id": "ywa29n6c",
        "formula": "-1",
        "operator": "+",
        "target": "damage",
        "subTarget": "wdamage",
        "modifier": "untyped",
        "priority": 0,
        "value": -1
      },
      {
        "_id": "0wyddrhp",
        "formula": "-1",
        "operator": "+",
        "target": "savingThrows",
        "subTarget": "allSavingThrows",
        "modifier": "untyped",
        "priority": 0,
        "value": -1
      },
      {
        "_id": "qgh4wvhx",
        "formula": "-1",
        "operator": "+",
        "target": "skills",
        "subTarget": "skills",
        "modifier": "untyped",
        "priority": 0,
        "value": -1
      }
    ],
    "changeFlags": {
      "loseDexToAC": false,
      "noStr": false,
      "noDex": false,
      "oneInt": false,
      "oneWis": false,
      "oneCha": false,
      "noEncumbrance": false,
      "mediumArmorFullSpeed": false,
      "heavyArmorFullSpeed": false
    },
    "contextNotes": [],
    "links": {
      "children": []
    },
    "buffType": "temp",
    "active": false,
    "level": "",
    "hideFromToken": false,
    "damage": {
      "parts": []
    }
  },
  "sort": 6700000,
  "flags": {},
  "img": "systems/pf1/icons/skills/yellow_13.jpg",
  "effects": []
}