{
  "_id": "uynVENa0deVdmf53",
  "name": "Antipaladin",
  "permission": {
    "default": 0
  },
  "type": "class",
  "data": {
    "description": {
      "value": "<p>Although it is a rare occurrence, paladins do sometimes stray from the path of righteousness. Most of these wayward holy warriors seek out redemption and forgiveness for their misdeeds, regaining their powers through piety, charity, and powerful magic. Yet there are others, the dark and disturbed few, who turn actively to evil, courting the dark powers they once railed against in order to take vengeance on their former brothers. It’s said that those who climb the farthest have the farthest to fall, and antipaladins are living proof of this fact, their pride and hatred blinding them to the glory of their forsaken patrons.</p>\n<p>Antipaladins become the antithesis of their former selves. They make pacts with fiends, take the lives of the innocent, and put nothing ahead of their personal power and wealth. Champions of evil, they often lead armies of evil creatures and work with other villains to bring ruin to the holy and tyranny to the weak. Not surprisingly, paladins stop at nothing to put an end to such nefarious antiheroes.</p>\n<p><strong>Role</strong>: Antipaladins are villains at their most dangerous. They care nothing for the lives of others and actively seek to bring death and destruction to ordered society. They rarely travel with those that they do not subjugate, unless as part of a ruse to bring ruin from within.</p>\n<p><strong>Alignment</strong>: Chaotic evil.</p>\n<p><strong>Hit Die</strong>: d10.</p>\n<p><strong>Starting Wealth</strong>: 5d6 × 10 gp (average 175 gp.) In addition, each character begins play with an outfit worth 10 gp or less.</p>\n<h2><span id=\"Class_skills\">Class skills</span></h2>\n<p>The antipaladin’s class skills are&nbsp;<a href=\"https://www.d20pfsrd.com/skills/bluff\">Bluff</a>&nbsp;(<a href=\"https://www.d20pfsrd.com/basics-ability-scores/ability-scores#TOC-Charisma-Cha-\">Cha</a>),&nbsp;<a href=\"https://www.d20pfsrd.com/skills/craft\">Craft</a>&nbsp;(<a href=\"https://www.d20pfsrd.com/basics-ability-scores/ability-scores#TOC-Intelligence-Int-\">Int</a>),&nbsp;<a href=\"https://www.d20pfsrd.com/skills/disguise\">Disguise</a>&nbsp;(<a href=\"https://www.d20pfsrd.com/basics-ability-scores/ability-scores#TOC-Charisma-Cha-\">Cha</a>),&nbsp;<a href=\"https://www.d20pfsrd.com/skills/handle-animal\">Handle Animal</a>&nbsp;(<a href=\"https://www.d20pfsrd.com/basics-ability-scores/ability-scores#TOC-Charisma-Cha-\">Cha</a>),&nbsp;<a href=\"https://www.d20pfsrd.com/skills/intimidate\">Intimidate</a>&nbsp;(<a href=\"https://www.d20pfsrd.com/basics-ability-scores/ability-scores#TOC-Charisma-Cha-\">Cha</a>),&nbsp;<a href=\"https://www.d20pfsrd.com/skills/knowledge\">Knowledge</a>&nbsp;(religion) (<a href=\"https://www.d20pfsrd.com/basics-ability-scores/ability-scores#TOC-Intelligence-Int-\">Int</a>),&nbsp;<a href=\"https://www.d20pfsrd.com/skills/profession\">Profession</a>&nbsp;(<a href=\"https://www.d20pfsrd.com/basics-ability-scores/ability-scores#TOC-Wisdom-Wis-\">Wis</a>),&nbsp;<a href=\"https://www.d20pfsrd.com/skills/ride\">Ride</a>&nbsp;(<a href=\"https://www.d20pfsrd.com/basics-ability-scores/ability-scores#TOC-Dexterity-Dex-\">Dex</a>),&nbsp;<a href=\"https://www.d20pfsrd.com/skills/sense-motive\">Sense Motive</a>&nbsp;(<a href=\"https://www.d20pfsrd.com/basics-ability-scores/ability-scores#TOC-Wisdom-Wis-\">Wis</a>),&nbsp;<a href=\"https://www.d20pfsrd.com/skills/spellcraft\">Spellcraft</a>&nbsp;(<a href=\"https://www.d20pfsrd.com/basics-ability-scores/ability-scores#TOC-Intelligence-Int-\">Int</a>), and&nbsp;<a href=\"https://www.d20pfsrd.com/skills/stealth\">Stealth</a>&nbsp;(<a href=\"https://www.d20pfsrd.com/basics-ability-scores/ability-scores#TOC-Dexterity-Dex-\">Dex</a>).</p>\n<p><strong>Skill Ranks per Level</strong>: 2 +&nbsp;<a href=\"https://www.d20pfsrd.com/basics-ability-scores/ability-scores#TOC-Intelligence-Int-\">Int</a> modifier.</p>",
      "chat": "",
      "unidentified": ""
    },
    "tags": [],
    "changes": [],
    "changeFlags": {
      "loseDexToAC": false,
      "noStr": false,
      "noDex": false,
      "oneInt": false,
      "oneWis": false,
      "oneCha": false,
      "noEncumbrance": false,
      "mediumArmorFullSpeed": false,
      "heavyArmorFullSpeed": false
    },
    "links": {
      "children": [],
      "classAssociations": [
        {
          "id": "pf1.class-abilities.2YA3Ken4K90rB0EE",
          "dataType": "compendium",
          "name": "Aura of Evil",
          "img": "systems/pf1/icons/skills/blood_10.jpg",
          "hiddenLinks": {},
          "level": 1,
          "_index": 0
        },
        {
          "id": "pf1.class-abilities.aqB7IymBc8kzJbzQ",
          "dataType": "compendium",
          "name": "Unholy Champion",
          "img": "systems/pf1/icons/skills/yellow_14.jpg",
          "hiddenLinks": {},
          "level": 20,
          "_index": 1
        },
        {
          "id": "pf1.class-abilities.LkbGAZaa2KDrnS89",
          "dataType": "compendium",
          "name": "Aura of Depravity",
          "img": "systems/pf1/icons/spells/horror-red-1.jpg",
          "hiddenLinks": {},
          "level": 17,
          "_index": 2
        },
        {
          "id": "pf1.class-abilities.nyz3JgtYMrJZF6o5",
          "dataType": "compendium",
          "name": "Aura of Sin",
          "img": "systems/pf1/icons/spells/enchant-red-1.jpg",
          "hiddenLinks": {},
          "level": 14,
          "_index": 3
        },
        {
          "id": "pf1.class-abilities.SqTaI2sHPIZpLDtQ",
          "dataType": "compendium",
          "name": "Aura of Vengeance",
          "img": "systems/pf1/icons/spells/slice-spirit-3.jpg",
          "hiddenLinks": {},
          "level": 11,
          "_index": 4
        },
        {
          "id": "pf1.class-abilities.31CVgcirb74C3ieQ",
          "dataType": "compendium",
          "name": "Aura of Despair (APA)",
          "img": "systems/pf1/icons/skills/affliction_03.jpg",
          "hiddenLinks": {},
          "level": 8,
          "_index": 5
        },
        {
          "id": "pf1.class-abilities.LYWqXODjRJjVJeQ1",
          "dataType": "compendium",
          "name": "Fiendish Boon",
          "img": "systems/pf1/icons/skills/weapon_29.jpg",
          "hiddenLinks": {},
          "level": 5,
          "_index": 6
        },
        {
          "id": "pf1.class-abilities.veyAa4qdI9lqSx6m",
          "dataType": "compendium",
          "name": "Channel Negative Energy",
          "img": "systems/pf1/icons/skills/violet_17.jpg",
          "hiddenLinks": {},
          "level": 4,
          "_index": 7
        },
        {
          "id": "pf1.class-abilities.dhBZs1g1QQNQM3vm",
          "dataType": "compendium",
          "name": "Aura of Cowardice",
          "img": "systems/pf1/icons/skills/yellow_18.jpg",
          "hiddenLinks": {},
          "level": 3,
          "_index": 8
        },
        {
          "id": "pf1.class-abilities.jz0LkAoq9lgyZXGM",
          "dataType": "compendium",
          "name": "Plague Bringer",
          "img": "systems/pf1/icons/skills/affliction_03.jpg",
          "hiddenLinks": {},
          "level": 3,
          "_index": 9
        },
        {
          "id": "pf1.class-abilities.zwZnq5WCBCijev6o",
          "dataType": "compendium",
          "name": "Cruelty",
          "img": "systems/pf1/icons/skills/affliction_04.jpg",
          "hiddenLinks": {},
          "level": 3,
          "_index": 10
        },
        {
          "id": "pf1.class-abilities.aabyB4FV9OH7hcYZ",
          "dataType": "compendium",
          "name": "Touch of Corruption",
          "img": "systems/pf1/icons/skills/green_15.jpg",
          "hiddenLinks": {},
          "level": 2,
          "_index": 11
        },
        {
          "id": "pf1.class-abilities.J0CtwXcv94eGCSaW",
          "dataType": "compendium",
          "name": "Unholy Resilience",
          "img": "systems/pf1/icons/skills/yellow_08.jpg",
          "hiddenLinks": {},
          "level": 2,
          "_index": 12
        },
        {
          "id": "pf1.class-abilities.4RSsmGUZBhTiGmSj",
          "dataType": "compendium",
          "name": "Detect Good",
          "img": "systems/pf1/icons/skills/shadow_03.jpg",
          "hiddenLinks": {},
          "level": 1,
          "_index": 13
        },
        {
          "id": "pf1.class-abilities.DbC7QZBYYIClw1m6",
          "dataType": "compendium",
          "name": "Smite Good",
          "img": "systems/pf1/icons/skills/red_16.jpg",
          "hiddenLinks": {},
          "level": 1,
          "_index": 14
        }
      ]
    },
    "tag": "antipaladin",
    "useCustomTag": true,
    "armorProf": {
      "value": [
        "lgt",
        "med",
        "hvy",
        "shl"
      ],
      "custom": ""
    },
    "weaponProf": {
      "value": [
        "sim",
        "mar"
      ],
      "custom": ""
    },
    "classType": "base",
    "levels": {
      "value": 0,
      "_deprecated": true
    },
    "level": 1,
    "hd": 10,
    "hp": 10,
    "bab": "high",
    "skillsPerLevel": 2,
    "savingThrows": {
      "fort": {
        "value": "high"
      },
      "ref": {
        "value": "low"
      },
      "will": {
        "value": "high"
      }
    },
    "fc": {
      "hp": {
        "value": 0
      },
      "skill": {
        "value": 0
      },
      "alt": {
        "value": 0
      }
    },
    "classSkills": {
      "blf": true,
      "acr": false,
      "apr": false,
      "art": false,
      "clm": false,
      "crf": true,
      "dip": false,
      "dev": false,
      "dis": true,
      "esc": false,
      "fly": false,
      "han": true,
      "hea": false,
      "int": true,
      "kar": false,
      "kdu": false,
      "ken": false,
      "kge": false,
      "khi": false,
      "klo": false,
      "kna": false,
      "kno": false,
      "kpl": false,
      "kre": true,
      "lin": false,
      "lor": false,
      "per": false,
      "prf": false,
      "pro": true,
      "rid": true,
      "sen": true,
      "slt": false,
      "spl": true,
      "ste": true,
      "sur": false,
      "swm": false,
      "umd": false
    },
    "extraDescription": {
      "value": "<h2>Weapon and Armor Proficiency</h2>\n<p>Antipaladins are proficient with all&nbsp;<a href=\"https://www.d20pfsrd.com/equipment/weapons#TOC-simple-martial-and-exotic-weapons\" rel=\"nofollow\">simple</a>&nbsp;and&nbsp;<a href=\"https://www.d20pfsrd.com/equipment/weapons#TOC-simple-martial-and-exotic-weapons\" rel=\"nofollow\">martial</a>&nbsp;weapons, with all types of armor (heavy, medium, and light), and with shields (except tower shields).</p>\n<h2>Aura of Evil (Ex)</h2>\n<p>The power of an antipaladin’s aura of evil (see the&nbsp;<a href=\"https://www.d20pfsrd.com/magic/all-spells/d/detect-evil\">detect evil</a>&nbsp;spell) is equal to his antipaladin level. A&nbsp;<a href=\"https://www.d20pfsrd.com/classes/core-classes/paladin\">paladin</a>&nbsp;who uses&nbsp;<a href=\"https://www.d20pfsrd.com/classes/core-classes/paladin#TOC-Smite-Evil-Su-\">smite evil</a>&nbsp;on an antipaladin deals 2 points of damage per&nbsp;<a href=\"https://www.d20pfsrd.com/classes/core-classes/paladin\">paladin</a>&nbsp;level on his first successful attack.</p>\n<h2>Detect Good (Sp)</h2>\n<p>At will, an antipaladin can use&nbsp;<a href=\"https://www.d20pfsrd.com/magic/all-spells/d/detect-good\">detect good</a>, as the spell. An antipaladin can, as a&nbsp;<a href=\"https://www.d20pfsrd.com/gamemastering/combat#TOC-Move-Actions\">move action</a>, concentrate on a single Item or individual within 60 feet and determine if it is good, learning the&nbsp;<a href=\"https://www.d20pfsrd.com/basics-ability-scores/ability-scores#TOC-Strength-Str-\">strength</a>&nbsp;of its aura as if having studied it for 3 rounds. While focusing on one individual or object, the antipaladin does not&nbsp;<a href=\"https://www.d20pfsrd.com/magic/all-spells/d/detect-good\">detect good</a>&nbsp;in any other object or individual within range.</p>\n<h2>Smite Good (Su)</h2>\n<p>Once per day, an antipaladin can call out to the dark powers to crush the forces of good. As a&nbsp;<a href=\"https://www.d20pfsrd.com/gamemastering/combat#TOC-Swift-Actions\">swift action</a>, the antipaladin chooses one target within sight to smite. If this target is&nbsp;<a href=\"https://www.d20pfsrd.com/bestiary/rules-for-monsters/creature-types#TOC-Good\">good</a>, the antipaladin adds his&nbsp;<a href=\"https://www.d20pfsrd.com/basics-ability-scores/ability-scores#TOC-Charisma-Cha-\">Charisma</a>&nbsp;bonus (if any) on his attack rolls and adds his antipaladin level on all damage rolls made against the target of his smite. If the target of smite good is an&nbsp;<a href=\"https://www.d20pfsrd.com/bestiary/rules-for-monsters/creature-types#TOC-Outsider\">outsider</a>&nbsp;with the&nbsp;<a href=\"https://www.d20pfsrd.com/bestiary/rules-for-monsters/creature-types#TOC-Good\">good</a>&nbsp;subtype, a good-aligned&nbsp;<a href=\"https://www.d20pfsrd.com/bestiary/rules-for-monsters/creature-types#TOC-Dragon\">dragon</a>, or a good creature with levels of&nbsp;<a href=\"https://www.d20pfsrd.com/classes/core-classes/cleric\">cleric</a>&nbsp;or&nbsp;<a href=\"https://www.d20pfsrd.com/classes/core-classes/paladin\">paladin</a>, the bonus to damage on the first successful attack increases to 2 points of damage per level the antipaladin possesses. Regardless of the target, smite good attacks automatically bypass any&nbsp;<a href=\"https://www.d20pfsrd.com/gamemastering/special-abilities#TOC-Damage-Reduction\">DR</a>&nbsp;the creature might possess.</p>\n<p>In addition, while smite good is in effect, the antipaladin gains a deflection bonus equal to his&nbsp;<a href=\"https://www.d20pfsrd.com/basics-ability-scores/ability-scores#TOC-Charisma-Cha-\">Charisma</a>&nbsp;modifier (if any) to his&nbsp;<a href=\"https://www.d20pfsrd.com/gamemastering/combat#TOC-armor-Class\">AC</a>&nbsp;against attacks made by the target of the smite. If the antipaladin targets a creature that is not good, the smite is wasted with no effect.</p>\n<p>The smite good effect remains until the target of the smite is&nbsp;<a href=\"https://www.d20pfsrd.com/gamemastering/conditions#TOC-Dead\">dead</a>&nbsp;or the next time the antipaladin rests and regains his uses of this ability. At 4th level, and at every three levels thereafter, the antipaladin may smite good one additional time per day, as indicated on&nbsp;Table: Antipaladin, to a maximum of seven times per day at 19th level.</p>\n<h2>Unholy Resilience (Su)</h2>\n<p>At 2nd level, an antipaladin gains a bonus equal to his&nbsp;<a href=\"https://www.d20pfsrd.com/basics-ability-scores/ability-scores#TOC-Charisma-Cha-\">Charisma</a>&nbsp;bonus (if any) on all&nbsp;<a href=\"https://www.d20pfsrd.com/gamemastering/combat#TOC-Saving-Throws\">saving throws</a>.</p>\n<h2>Touch of Corruption (Su)</h2>\n<p>Beginning at 2nd level, an antipaladin surrounds his hand with a fiendish flame, causing terrible wounds to open on those he touches. Each day he can use this ability a number of times equal to 1/2 his antipaladin level + his&nbsp;<a href=\"https://www.d20pfsrd.com/basics-ability-scores/ability-scores#TOC-Charisma-Cha-\">Charisma</a>&nbsp;modifier. As a&nbsp;<a href=\"https://www.d20pfsrd.com/gamemastering/combat#TOC-Touch-Attacks\">touch attack</a>, an antipaladin can cause 1d6 points of damage for every two antipaladin levels he possesses. Using this ability is a&nbsp;<a href=\"https://www.d20pfsrd.com/gamemastering/combat#TOC-Standard-Actions\">standard action</a>&nbsp;that does not provoke&nbsp;<a href=\"https://www.d20pfsrd.com/gamemastering/combat#TOC-Attacks-of-Opportunity\">attacks of opportunity</a>.</p>\n<p>Alternatively, an antipaladin can use this power to heal&nbsp;<a href=\"https://www.d20pfsrd.com/bestiary/rules-for-monsters/creature-types#TOC-Undead\">undead</a>&nbsp;creatures, restoring 1d6&nbsp;<a href=\"https://www.d20pfsrd.com/gamemastering/combat#TOC-Hit-Points\">hit points</a>&nbsp;for every two levels the antipaladin possesses. This ability is modified by any feat, spell, or effect that specifically works with the lay on hands&nbsp;<a href=\"https://www.d20pfsrd.com/classes/core-classes/paladin\">paladin</a>&nbsp;class feature. For example, the&nbsp;<a href=\"https://www.d20pfsrd.com/feats/general-feats/extra-lay-on-hands\">Extra Lay On Hands</a>&nbsp;feat grants an antipaladin 2 additional uses of the touch of corruption class feature.</p>\n<h2>Aura of Cowardice (Su)</h2>\n<p>At 3rd level, an antipaladin radiates a palpably daunting aura that causes all enemies within 10 feet to take a –4 penalty on&nbsp;<a href=\"https://www.d20pfsrd.com/gamemastering/combat#TOC-Saving-Throws\">saving throws</a>&nbsp;against fear effects. Creatures that are normally immune to fear lose that&nbsp;<a href=\"https://www.d20pfsrd.com/bestiary/rules-for-monsters/universal-monster-rules#TOC-Immunity-Ex-or-Su-\">immunity</a>&nbsp;while within 10 feet of an antipaladin with this ability. This ability functions only while the antipaladin remains conscious, not if he is&nbsp;<a href=\"https://www.d20pfsrd.com/gamemastering/conditions#TOC-Unconscious\">unconscious</a>&nbsp;or&nbsp;<a href=\"https://www.d20pfsrd.com/gamemastering/conditions#TOC-Dead\">dead</a>.</p>\n<h2>Plague Bringer (Ex)</h2>\n<p>At 3rd level, the powers of darkness make an antipaladin a beacon of corruption and&nbsp;<a href=\"https://www.d20pfsrd.com/gamemastering/afflictions#TOC-Diseases\">disease</a>. An antipaladin does not take any damage or take any penalty from diseases. He can still contract diseases and spread them to others, but he is otherwise immune to their effects.</p>\n<h2>Cruelty (Su)</h2>\n<p>At 3rd level, and every three levels thereafter, an antipaladin can select one cruelty. Each cruelty adds an effect to the antipaladin’s touch of corruption ability. Whenever the antipaladin uses touch of corruption to deal damage to one target, the target also receives the additional effect from one of the cruelties possessed by the antipaladin. This choice is made when the touch is used. The target receives a&nbsp;<a href=\"https://www.d20pfsrd.com/gamemastering/combat#TOC-Fortitude\">Fortitude</a>&nbsp;save to avoid this cruelty. If the save is successful, the target takes the damage as normal, but not the effects of the cruelty. The DC of this save is equal to 10 + 1/2 the antipaladin’s level + the antipaladin’s&nbsp;<a href=\"https://www.d20pfsrd.com/basics-ability-scores/ability-scores#TOC-Charisma-Cha-\">Charisma</a>&nbsp;modifier.</p>\n<p>At 3rd level, the antipaladin can select from the following initial cruelties.</p>\n<div>\n<p><strong>Fatigued</strong>: The target is&nbsp;<a href=\"https://www.d20pfsrd.com/gamemastering/conditions#TOC-Fatigued\">fatigued</a>.</p>\n<p><strong>Shaken</strong>: The target is&nbsp;<a href=\"https://www.d20pfsrd.com/gamemastering/conditions#TOC-Shaken\">shaken</a>&nbsp;for 1 round per level of the antipaladin.</p>\n<p><strong>Sickened</strong>: The target is&nbsp;<a href=\"https://www.d20pfsrd.com/gamemastering/conditions#TOC-Sickened\">sickened</a>&nbsp;for 1 round per level of the antipaladin.</p>\n</div>\n<p>At 6th level, an antipaladin adds the following cruelties to the list of those that can be selected.</p>\n<div>\n<p><strong>Dazed</strong>: The target is&nbsp;<a href=\"https://www.d20pfsrd.com/gamemastering/conditions#TOC-Dazed\">dazed</a>&nbsp;for 1 round.</p>\n<p><strong>Diseased</strong>: The target contracts a&nbsp;<a href=\"https://www.d20pfsrd.com/gamemastering/afflictions#TOC-Diseases\">disease</a>, as if the antipaladin had cast&nbsp;<a href=\"https://www.d20pfsrd.com/magic/all-spells/c/contagion\">contagion</a>, using his antipaladin level as his&nbsp;<a href=\"https://www.d20pfsrd.com/magic#TOC-Caster-Level\">caster level</a>.</p>\n<p><strong>Staggered</strong>: The target is&nbsp;<a href=\"https://www.d20pfsrd.com/gamemastering/conditions#TOC-Staggered\">staggered</a>&nbsp;for 1 round per two levels of the antipaladin.</p>\n</div>\n<p>At 9th level, an antipaladin adds the following cruelties to the list of those that can be selected.</p>\n<div>\n<p><strong>Cursed</strong>: The target is cursed, as if the antipaladin had cast&nbsp;<a href=\"https://www.d20pfsrd.com/magic/all-spells/b/bestow-curse\">bestow curse</a>, using his antipaladin level as his&nbsp;<a href=\"https://www.d20pfsrd.com/magic#TOC-Caster-Level\">caster level</a>.</p>\n<p><strong>Exhausted</strong>: The target is&nbsp;<a href=\"https://www.d20pfsrd.com/gamemastering/conditions#TOC-Exhausted\">exhausted</a>. The antipaladin must have the&nbsp;<a href=\"https://www.d20pfsrd.com/gamemastering/conditions#TOC-Fatigued\">fatigue</a>&nbsp;cruelty before selecting this cruelty.</p>\n<p><strong>Frightened</strong>: The target is&nbsp;<a href=\"https://www.d20pfsrd.com/gamemastering/conditions#TOC-Frightened\">frightened</a>&nbsp;for 1 round per two levels of the antipaladin. The antipaladin must have the&nbsp;<a href=\"https://www.d20pfsrd.com/gamemastering/conditions#TOC-Shaken\">shaken</a>&nbsp;cruelty before selecting this cruelty.</p>\n<p><strong>Nauseated</strong>: The target is&nbsp;<a href=\"https://www.d20pfsrd.com/gamemastering/conditions#TOC-Nauseated\">nauseated</a>&nbsp;for 1 round per three levels of the antipaladin. The antipaladin must have the&nbsp;<a href=\"https://www.d20pfsrd.com/gamemastering/conditions#TOC-Sickened\">sickened</a>&nbsp;cruelty before selecting this cruelty.</p>\n<p><strong>Poisoned</strong>: The target is poisoned, as if the antipaladin had cast&nbsp;<a href=\"https://www.d20pfsrd.com/magic/all-spells/p/poison\">poison</a>, using the antipaladin’s level as the&nbsp;<a href=\"https://www.d20pfsrd.com/magic#TOC-Caster-Level\">caster level</a>.</p>\n</div>\n<p>At 12th level, an antipaladin adds the following cruelties to the list of those that can be selected.</p>\n<div>\n<p><strong>Blinded</strong>: The target is&nbsp;<a href=\"https://www.d20pfsrd.com/gamemastering/conditions#TOC-Blinded\">blinded</a>&nbsp;for 1 round per level of the antipaladin.</p>\n<p><strong>Deafened</strong>: The target is&nbsp;<a href=\"https://www.d20pfsrd.com/gamemastering/conditions#TOC-Deafened\">deafened</a>&nbsp;for 1 round per level of the antipaladin.</p>\n<p><strong>Paralyzed</strong>: The target is&nbsp;<a href=\"https://www.d20pfsrd.com/gamemastering/conditions#TOC-Paralyzed\">paralyzed</a>&nbsp;for 1 round.</p>\n<p><strong>Stunned</strong>: The target is&nbsp;<a href=\"https://www.d20pfsrd.com/gamemastering/conditions#TOC-Stunned\">stunned</a>&nbsp;for 1 round per four levels of the antipaladin.</p>\n</div>\n<p>These abilities are not cumulative. For example, a 12th-level antipaladin’s touch of corruption ability deals 6d6 points of damage and might also cause the target to become&nbsp;<a href=\"https://www.d20pfsrd.com/gamemastering/conditions#TOC-Fatigued\">fatigued</a>,&nbsp;<a href=\"https://www.d20pfsrd.com/gamemastering/conditions#TOC-Dazed\">dazed</a>, poisoned, or diseased. Once a cruelty is chosen, it can’t be changed.</p>\n<h2>Channel Negative Energy (Su)</h2>\n<p>When an antipaladin reaches 4th level, he gains the&nbsp;<a href=\"https://www.d20pfsrd.com/magic#TOC-Supernatural-Abilities-Su-\">supernatural</a>&nbsp;ability to channel negative energy like a&nbsp;<a href=\"https://www.d20pfsrd.com/classes/core-classes/cleric\">cleric</a>. Using this ability consumes two uses of his touch of corruption ability. An antipaladin uses his level as his effective&nbsp;<a href=\"https://www.d20pfsrd.com/classes/core-classes/cleric\">cleric</a>&nbsp;level when channeling negative energy. This is a&nbsp;<a href=\"https://www.d20pfsrd.com/basics-ability-scores/ability-scores#TOC-Charisma-Cha-\">Charisma</a>-based ability.</p>\n<h2>Spells</h2>\n<p>Beginning at 4th level, an antipaladin gains the ability to cast a small number of divine spells which are drawn from the&nbsp;<a href=\"https://www.d20pfsrd.com/magic/spell-lists-and-domains/antipaladin-spell-list\">antipaladin spell list</a>. An antipaladin must choose and prepare his spells in advance.</p>\n<p>To prepare or cast a spell, an antipaladin must have a&nbsp;<a href=\"https://www.d20pfsrd.com/basics-ability-scores/ability-scores#TOC-Charisma-Cha-\">Charisma</a>&nbsp;score equal to at least 10 + the spell level. The Difficulty Class for a&nbsp;<a href=\"https://www.d20pfsrd.com/gamemastering/combat#TOC-Saving-Throws\">saving throw</a>&nbsp;against an antipaladin’s spell is 10 + the spell level + the antipaladin’s&nbsp;<a href=\"https://www.d20pfsrd.com/basics-ability-scores/ability-scores#TOC-Charisma-Cha-\">Charisma</a>&nbsp;modifier.</p>\n<p>Like other spellcasters, an antipaladin can cast only a certain number of spells of each spell level per day. His base daily spell allotment is the same as that of a&nbsp;<a href=\"https://www.d20pfsrd.com/classes/core-classes/paladin\">paladin</a>&nbsp;and is given on&nbsp;Table: Antipaladin. In addition, he receives bonus spells per day if he has a high&nbsp;<a href=\"https://www.d20pfsrd.com/basics-ability-scores/ability-scores#TOC-Charisma-Cha-\">Charisma</a>&nbsp;score. When&nbsp;Table: Antipaladin&nbsp;indicates that the antipaladin gets 0 spells per day of a given spell level, he gains only the bonus spells he would be entitled to based on his&nbsp;<a href=\"https://www.d20pfsrd.com/basics-ability-scores/ability-scores#TOC-Charisma-Cha-\">Charisma</a>&nbsp;score for that spell level.</p>\n<p>An antipaladin must spend 1 hour each day in quiet prayer and meditation to regain his daily allotment of spells. An antipaladin may prepare and cast any spell on the antipaladin spell list, provided that he can cast spells of that level, but he must choose which spells to prepare during his daily meditation.</p>\n<p>Through 3rd level, an antipaladin has no&nbsp;<a href=\"https://www.d20pfsrd.com/magic#TOC-Caster-Level\">caster level</a>. At 4th level and higher, his&nbsp;<a href=\"https://www.d20pfsrd.com/magic#TOC-Caster-Level\">caster level</a>&nbsp;is equal to his antipaladin level –3.</p>\n<h2>Fiendish Boon (Sp)</h2>\n<p>Upon reaching 5th level, an antipaladin receives a boon from his dark patrons. This boon can take one of two forms. Once the form is chosen, it cannot be changed.</p>\n<p>The first type of bond allows the antipaladin to enhance his weapon as a&nbsp;<a href=\"https://www.d20pfsrd.com/gamemastering/combat#TOC-Standard-Actions\">standard action</a>&nbsp;by calling upon the aid of a fiendish spirit for 1 minute per antipaladin level. When called, the spirit causes the weapon to shed&nbsp;<a href=\"https://www.d20pfsrd.com/magic-items/magic-weapons#TOC-Unholy\">unholy</a>&nbsp;light as a torch. At 5th level, this spirit grants the weapon a +1&nbsp;<a href=\"https://www.d20pfsrd.com/basics-ability-scores/glossary#TOC-Enhancement-Bonus\">enhancement bonus</a>. For every three levels beyond 5th, the weapon gains another +1&nbsp;<a href=\"https://www.d20pfsrd.com/basics-ability-scores/glossary#TOC-Enhancement-Bonus\">enhancement bonus</a>, to a maximum of +6 at 20th level.</p>\n<p>Adding these properties consumes an amount of bonus equal to the property’s cost (sorted and listed below).</p>\n<p>These bonuses can be added to the weapon, stacking with existing weapon bonuses to a maximum of +5, or they can be used to add any of the following weapon properties:</p>\n<div>\n<p>+1:&nbsp;<a href=\"https://www.d20pfsrd.com/magic-items/magic-weapons/magic-weapon-special-abilities/flaming/\" rel=\"nofollow\">flaming</a>,&nbsp;<a href=\"https://www.d20pfsrd.com/magic-items/magic-weapons/magic-weapon-special-abilities/keen/\">keen</a>,&nbsp;<a href=\"https://www.d20pfsrd.com/magic-items/magic-weapons/magic-weapon-special-abilities/vicious/\">vicious</a></p>\n<p>+2:&nbsp;<a href=\"https://www.d20pfsrd.com/magic-items/magic-weapons/magic-weapon-special-abilities/anarchic/\">anarchic</a>,&nbsp;<a href=\"https://www.d20pfsrd.com/magic-items/magic-weapons/magic-weapon-special-abilities/flaming-burst/\">flaming burst</a>,&nbsp;<a href=\"https://www.d20pfsrd.com/magic-items/magic-weapons/magic-weapon-special-abilities/unholy/\">unholy</a>,&nbsp;<a href=\"https://www.d20pfsrd.com/magic-items/magic-weapons/magic-weapon-special-abilities/wounding/\">wounding</a></p>\n<p>+3:&nbsp;<a href=\"https://www.d20pfsrd.com/magic-items/magic-weapons/magic-weapon-special-abilities/speed/\">speed</a></p>\n<p>+5:&nbsp;<a href=\"https://www.d20pfsrd.com/magic-items/magic-weapons/magic-weapon-special-abilities/vorpal/\">vorpal</a></p>\n</div>\n<p>These bonuses are added to any properties the weapon already has, but duplicate abilities do not stack. If the weapon is not magical, at least a +1&nbsp;<a href=\"https://www.d20pfsrd.com/basics-ability-scores/glossary#TOC-Enhancement-Bonus\">enhancement bonus</a>&nbsp;must be added before any other properties can be added. The bonus and properties granted by the spirit are determined when the spirit is called and cannot be changed until the spirit is called again. The fiendish spirit imparts no bonuses if the weapon is held by anyone other than the antipaladin but resumes giving bonuses if returned to the antipaladin. These bonuses apply to only one end of a double weapon. An antipaladin can use this ability once per day at 5th level, and one additional time per day for every four levels beyond 5th, to a total of four times per day at 17th level.</p>\n<p>If a weapon bonded with a fiendish spirit is destroyed, the antipaladin loses the use of this ability for 30 days, or until he gains a level, whichever comes first. During this 30-day period, the antipaladin takes a –1 penalty on attack and weapon damage rolls.</p>\n<p>The second type of bond allows an antipaladin to gain the service of a fiendish servant. This functions as&nbsp;<a href=\"https://www.d20pfsrd.com/magic/all-spells/s/summon-monster\">summon monster III</a>, except the duration is permanent and the antipaladin can only gain the service of a single creature and that creature must either have the&nbsp;<a href=\"https://www.d20pfsrd.com/bestiary/rules-for-monsters/creature-types#TOC-Chaotic\">chaotic</a>&nbsp;and&nbsp;<a href=\"https://www.d20pfsrd.com/bestiary/rules-for-monsters/creature-types#TOC-Evil\">evil</a>&nbsp;subtypes or it must be a fiendish&nbsp;<a href=\"https://www.d20pfsrd.com/bestiary/rules-for-monsters/creature-types#TOC-Animal\">animal</a>. Once selected, the choice is set, but it may be changed whenever the antipaladin gains a level. Upon reaching 7th level, and every two levels thereafter, the level of the&nbsp;<a href=\"https://www.d20pfsrd.com/magic/all-spells/s/summon-monster\">summon monster</a>&nbsp;spell increases by one, to a maximum of&nbsp;<a href=\"https://www.d20pfsrd.com/magic/all-spells/s/summon-monster\">summon monster IX</a>&nbsp;at 17th level. Once per day, as a&nbsp;<a href=\"https://www.d20pfsrd.com/gamemastering/combat#TOC-Full-Round-Actions\">full-round action</a>, an antipaladin may magically call his servant to his side. This ability is the equivalent of a spell of a level equal to one-third the antipaladin’s level. The servant immediately appears adjacent to the antipaladin. An antipaladin can use this ability once per day at 5th level, and one additional time per day for every four levels thereafter, for a total of four times per day at 17th level.</p>\n<p>At 11th level, the servant gains the&nbsp;<a href=\"https://www.d20pfsrd.com/bestiary/monster-listings/templates/advanced-creature-cr-1\">advanced template</a>. At 15th level, an antipaladin’s servant gains&nbsp;<a href=\"https://www.d20pfsrd.com/gamemastering/special-abilities#TOC-Spell-Resistance\">spell resistance</a>&nbsp;equal to the antipaladin’s level + 11.</p>\n<p>Should the antipaladin’s fiendish servant die or be banished, the antipaladin may not summon another servant for 30 days or until he gains an antipaladin level, whichever comes first. During this 30-day period, the antipaladin takes a –1 penalty on attack and weapon damage rolls.</p>\n<h2>Aura of Despair (Su)</h2>\n<p>At 8th level, enemies within 10 feet of an antipaladin take a –2 penalty on all&nbsp;<a href=\"https://www.d20pfsrd.com/gamemastering/combat#TOC-Saving-Throws\">saving throws</a>. This penalty does not stack with the penalty from aura of cowardice.</p>\n<p>This ability functions only while the antipaladin is conscious, not if he is&nbsp;<a href=\"https://www.d20pfsrd.com/gamemastering/conditions#TOC-Unconscious\">unconscious</a>&nbsp;or&nbsp;<a href=\"https://www.d20pfsrd.com/gamemastering/conditions#TOC-Dead\">dead</a>.</p>\n<h2>Aura of Vengeance (Su)</h2>\n<p>At 11th level, an antipaladin can expend two uses of his smite&nbsp;<a href=\"https://www.d20pfsrd.com/bestiary/rules-for-monsters/creature-types#TOC-Good\">good</a>&nbsp;ability to grant the ability to smite&nbsp;<a href=\"https://www.d20pfsrd.com/bestiary/rules-for-monsters/creature-types#TOC-Good\">good</a>&nbsp;to all allies within 10 feet, using his bonuses. Allies must use this smite&nbsp;<a href=\"https://www.d20pfsrd.com/bestiary/rules-for-monsters/creature-types#TOC-Good\">good</a>&nbsp;ability by the start of the antipaladin’s next turn and the bonuses last for 1 minute. Using this ability is a&nbsp;<a href=\"https://www.d20pfsrd.com/gamemastering/combat#TOC-Free-Actions\">free action</a>.&nbsp;<a href=\"https://www.d20pfsrd.com/bestiary/rules-for-monsters/creature-types#TOC-Good\">Good</a>&nbsp;creatures gain no benefit from this ability.</p>\n<h2>Aura of Sin (Su)</h2>\n<p>At 14th level, an antipaladin’s weapons are treated as&nbsp;<a href=\"https://www.d20pfsrd.com/bestiary/rules-for-monsters/creature-types#TOC-Evil\">evil</a>-aligned for the purposes of overcoming&nbsp;<a href=\"https://www.d20pfsrd.com/gamemastering/special-abilities#TOC-Damage-Reduction\">damage reduction</a>. Any attack made against an enemy within 10 feet of him is treated as&nbsp;<a href=\"https://www.d20pfsrd.com/bestiary/rules-for-monsters/creature-types#TOC-Evil\">evil</a>-aligned for the purposes of overcoming&nbsp;<a href=\"https://www.d20pfsrd.com/gamemastering/special-abilities#TOC-Damage-Reduction\">damage reduction</a>. This ability functions only while the antipaladin is conscious, not if he is&nbsp;<a href=\"https://www.d20pfsrd.com/gamemastering/conditions#TOC-Unconscious\">unconscious</a>&nbsp;or&nbsp;<a href=\"https://www.d20pfsrd.com/gamemastering/conditions#TOC-Dead\">dead</a>.</p>\n<h2>Aura of Depravity (Su)</h2>\n<p>At 17th level, an antipaladin gains&nbsp;<a href=\"https://www.d20pfsrd.com/gamemastering/special-abilities#TOC-Damage-Reduction\">DR</a>&nbsp;5/<a href=\"https://www.d20pfsrd.com/bestiary/rules-for-monsters/creature-types#TOC-Good\">good</a>. Each enemy within 10 feet takes a –4 penalty on&nbsp;<a href=\"https://www.d20pfsrd.com/gamemastering/combat#TOC-Saving-Throws\">saving throws</a>&nbsp;against compulsion effects. This ability functions only while the antipaladin is conscious, not if he is&nbsp;<a href=\"https://www.d20pfsrd.com/gamemastering/conditions#TOC-Unconscious\">unconscious</a>&nbsp;or&nbsp;<a href=\"https://www.d20pfsrd.com/gamemastering/conditions#TOC-Dead\">dead</a>.</p>\n<h2>Unholy Champion (Su)</h2>\n<p>At 20th level, an antipaladin becomes a conduit for the might of the dark powers. His&nbsp;<a href=\"https://www.d20pfsrd.com/gamemastering/special-abilities#TOC-Damage-Reduction\">DR</a>&nbsp;increases to 10/<a href=\"https://www.d20pfsrd.com/bestiary/rules-for-monsters/creature-types#TOC-Good\">good</a>. Whenever he uses smite&nbsp;<a href=\"https://www.d20pfsrd.com/bestiary/rules-for-monsters/creature-types#TOC-Good\">good</a>&nbsp;and successfully strikes an&nbsp;<a href=\"https://www.d20pfsrd.com/bestiary/rules-for-monsters/creature-types#TOC-Good\">good</a>&nbsp;<a href=\"https://www.d20pfsrd.com/bestiary/rules-for-monsters/creature-types#TOC-Outsider\">outsider</a>, the&nbsp;<a href=\"https://www.d20pfsrd.com/bestiary/rules-for-monsters/creature-types#TOC-Outsider\">outsider</a>&nbsp;is also subject to a&nbsp;<a href=\"https://www.d20pfsrd.com/magic/all-spells/b/banishment\">banishment</a>, using his antipaladin level as the&nbsp;<a href=\"https://www.d20pfsrd.com/magic#TOC-Caster-Level\">caster level</a>&nbsp;(his weapon and&nbsp;<a href=\"https://www.d20pfsrd.com/magic-items/magic-weapons#TOC-Unholy\">unholy</a>&nbsp;symbol automatically count as objects that the subject hates). After the&nbsp;<a href=\"https://www.d20pfsrd.com/magic/all-spells/b/banishment\">banishment</a>&nbsp;effect and the damage from the attack is resolved, the smite immediately ends. In addition, whenever he channels negative energy or uses touch of corruption to damage a creature, he deals the maximum possible amount.</p>",
      "chat": "",
      "unidentified": ""
    },
    "damage": {
      "parts": [],
      "critParts": [],
      "nonCritParts": []
    },
    "preparation": {
      "maxAmount": 0
    },
    "weaponData": {
      "critRange": 20,
      "critMult": 2
    },
    "uses": {
      "value": 0,
      "max": 0
    }
  },
  "flags": {},
  "img": "systems/pf1/icons/skills/shadow_03.jpg",
  "effects": []
}