{
  "_id": "u1ed3H9xtYQXTP5v",
  "name": "Cavalier",
  "permission": {
    "default": 0
  },
  "type": "class",
  "data": {
    "description": {
      "value": "<p>While many warriors strive to perfect their art, spending all of their time honing their skill at martial arms, others spend as much effort dedicating themselves to a cause. These warriors, known as cavaliers, swear themselves to a purpose, serving it above all else. Cavaliers are skilled at fighting from horseback, and are often found charging across a battlefield, with the symbol of their order trailing on a long, fluttering banner. The cavalier’s true power comes from the conviction of his ideals, the oaths that he swears, and the challenges he makes.</p>\n<p><strong>Role</strong>: Cavaliers tend to marshal forces on the battlefield, using their mounted talents and challenges to control the flow of the fight. Outside of battle, cavaliers can be found advancing their cause through diplomacy and, if needed, subterfuge. The cavalier is no stranger to courtly intrigue and can hold his own in even the most delicate of social situations.</p>\n<p><strong>Alignment</strong>: Any.</p>\n<p><strong>Hit Dice</strong>: d10.</p>\n<p><strong>Starting Wealth</strong>: 5d6 × 10 gp (average 175gp.) In addition, each character begins play with an outfit worth 10 gp or less.</p>\n<h2><span id=\"Class_Skills\">Class Skills</span></h2>\n<p>The cavalier’s class skills are&nbsp;<a href=\"https://www.d20pfsrd.com/skills/bluff\">Bluff</a>&nbsp;(<a href=\"https://www.d20pfsrd.com/basics-ability-scores/ability-scores#TOC-Charisma-Cha-\">Cha</a>),&nbsp;<a href=\"https://www.d20pfsrd.com/skills/climb\">Climb</a>&nbsp;(<a href=\"https://www.d20pfsrd.com/basics-ability-scores/ability-scores#TOC-Strength-Str-\">Str</a>),&nbsp;<a href=\"https://www.d20pfsrd.com/skills/craft\">Craft</a>&nbsp;(<a href=\"https://www.d20pfsrd.com/basics-ability-scores/ability-scores#TOC-Intelligence-Int-\">Int</a>),&nbsp;<a href=\"https://www.d20pfsrd.com/skills/diplomacy\">Diplomacy</a>&nbsp;(<a href=\"https://www.d20pfsrd.com/basics-ability-scores/ability-scores#TOC-Charisma-Cha-\">Cha</a>),&nbsp;<a href=\"https://www.d20pfsrd.com/skills/handle-animal\">Handle Animal</a>&nbsp;(<a href=\"https://www.d20pfsrd.com/basics-ability-scores/ability-scores#TOC-Charisma-Cha-\">Cha</a>),&nbsp;<a href=\"https://www.d20pfsrd.com/skills/intimidate\">Intimidate</a>&nbsp;(<a href=\"https://www.d20pfsrd.com/basics-ability-scores/ability-scores#TOC-Charisma-Cha-\">Cha</a>),&nbsp;<a href=\"https://www.d20pfsrd.com/skills/profession\">Profession</a>&nbsp;(<a href=\"https://www.d20pfsrd.com/basics-ability-scores/ability-scores#TOC-Wisdom-Wis-\">Wis</a>),&nbsp;<a href=\"https://www.d20pfsrd.com/skills/ride\">Ride</a>&nbsp;(<a href=\"https://www.d20pfsrd.com/basics-ability-scores/ability-scores#TOC-Dexterity-Dex-\">Dex</a>),&nbsp;<a href=\"https://www.d20pfsrd.com/skills/sense-motive\">Sense Motive</a>&nbsp;(<a href=\"https://www.d20pfsrd.com/basics-ability-scores/ability-scores#TOC-Wisdom-Wis-\">Wis</a>), and&nbsp;<a href=\"https://www.d20pfsrd.com/skills/swim\">Swim</a>&nbsp;(<a href=\"https://www.d20pfsrd.com/basics-ability-scores/ability-scores#TOC-Strength-Str-\">Str</a>).</p>\n<p><strong>Skill Ranks per Level</strong>: 4 +&nbsp;<a href=\"https://www.d20pfsrd.com/basics-ability-scores/ability-scores#TOC-Intelligence-Int-\">Int</a> modifier</p>",
      "chat": "",
      "unidentified": ""
    },
    "tags": [],
    "changes": [],
    "changeFlags": {
      "loseDexToAC": false,
      "noStr": false,
      "noDex": false,
      "oneInt": false,
      "oneWis": false,
      "oneCha": false,
      "noEncumbrance": false,
      "mediumArmorFullSpeed": false,
      "heavyArmorFullSpeed": false
    },
    "links": {
      "children": [],
      "classAssociations": [
        {
          "id": "pf1.class-abilities.WNi2SBF6Z2zhBMCl",
          "dataType": "compendium",
          "name": "Challenge (CAV)",
          "img": "systems/pf1/icons/skills/light_05.jpg",
          "hiddenLinks": {},
          "level": 1,
          "_index": 0
        },
        {
          "id": "pf1.class-abilities.P2XyBCDEUGOFwRAF",
          "dataType": "compendium",
          "name": "Mount",
          "img": "systems/pf1/icons/feats/animal-affinity.jpg",
          "hiddenLinks": {},
          "level": 1,
          "_index": 1
        },
        {
          "id": "pf1.class-abilities.c3MSLdplxdRZrSxL",
          "dataType": "compendium",
          "name": "Order",
          "img": "systems/pf1/icons/feats/dazzling-display.jpg",
          "hiddenLinks": {},
          "level": 1,
          "_index": 2
        },
        {
          "id": "pf1.class-abilities.YKyAQ2o5Yzox79B8",
          "dataType": "compendium",
          "name": "Tactician",
          "img": "systems/pf1/icons/feats/strike-back.jpg",
          "hiddenLinks": {},
          "level": 1,
          "_index": 3
        },
        {
          "id": "pf1.class-abilities.QGv2YjclwgkruFE6",
          "dataType": "compendium",
          "name": "Cavalier's Charge",
          "img": "systems/pf1/icons/feats/trample.jpg",
          "hiddenLinks": {},
          "level": 3,
          "_index": 4
        },
        {
          "id": "pf1.class-abilities.nBpz562qzAntafUI",
          "dataType": "compendium",
          "name": "Expert Trainer",
          "img": "systems/pf1/icons/feats/stand-still.jpg",
          "hiddenLinks": {},
          "level": 4,
          "_index": 5
        },
        {
          "id": "pf1.class-abilities.pqu1Mvo46iRpVH3I",
          "dataType": "compendium",
          "name": "Banner",
          "img": "systems/pf1/icons/items/inventory/badge-banner.jpg",
          "hiddenLinks": {},
          "level": 5,
          "_index": 6
        },
        {
          "id": "pf1.class-abilities.vfu0FW2XYF7cBUQp",
          "dataType": "compendium",
          "name": "Bonus Feat (CAV)",
          "img": "systems/pf1/icons/items/inventory/map-treasure.jpg",
          "hiddenLinks": {},
          "level": 6,
          "_index": 7
        },
        {
          "id": "pf1.class-abilities.ikVwT8b9zfj701k1",
          "dataType": "compendium",
          "name": "Greater Tactician",
          "img": "systems/pf1/icons/items/inventory/scroll-druid.jpg",
          "hiddenLinks": {},
          "level": 9,
          "_index": 8
        },
        {
          "id": "pf1.class-abilities.fo3SQLOjFcQSmVMJ",
          "dataType": "compendium",
          "name": "Mighty Charge",
          "img": "systems/pf1/icons/feats/spirited-charge.jpg",
          "hiddenLinks": {},
          "level": 11,
          "_index": 9
        },
        {
          "id": "pf1.class-abilities.jqXRcfZYvBL50z0q",
          "dataType": "compendium",
          "name": "Demanding Challenge",
          "img": "systems/pf1/icons/feats/stunning-critical.jpg",
          "hiddenLinks": {},
          "level": 12,
          "_index": 10
        },
        {
          "id": "pf1.class-abilities.1Yy6Fn3UD82uviFg",
          "dataType": "compendium",
          "name": "Greater Banner",
          "img": "systems/pf1/icons/items/inventory/tabard-green.jpg",
          "hiddenLinks": {},
          "level": 14,
          "_index": 11
        },
        {
          "id": "pf1.class-abilities.mrJ61WiA6PuZgPTJ",
          "dataType": "compendium",
          "name": "Master Tacitician",
          "img": "systems/pf1/icons/items/inventory/note-scroll.jpg",
          "hiddenLinks": {},
          "level": 17,
          "_index": 12
        },
        {
          "id": "pf1.class-abilities.pZaZcT8gMPQGX9Ur",
          "dataType": "compendium",
          "name": "Supreme Charge",
          "img": "systems/pf1/icons/feats/spirited-charge.jpg",
          "hiddenLinks": {},
          "level": 20,
          "_index": 13
        }
      ]
    },
    "tag": "cavalier",
    "useCustomTag": true,
    "armorProf": {
      "value": [
        "lgt",
        "med",
        "hvy",
        "shl"
      ],
      "custom": ""
    },
    "weaponProf": {
      "value": [
        "sim",
        "mar"
      ],
      "custom": ""
    },
    "classType": "base",
    "levels": {
      "value": 0,
      "_deprecated": true
    },
    "level": 1,
    "hd": 10,
    "hp": 10,
    "bab": "high",
    "skillsPerLevel": 4,
    "savingThrows": {
      "fort": {
        "value": "high"
      },
      "ref": {
        "value": "low"
      },
      "will": {
        "value": "low"
      }
    },
    "fc": {
      "hp": {
        "value": 0
      },
      "skill": {
        "value": 0
      },
      "alt": {
        "value": 0
      }
    },
    "classSkills": {
      "blf": true,
      "acr": false,
      "apr": false,
      "art": false,
      "clm": true,
      "crf": true,
      "dip": true,
      "dev": false,
      "dis": false,
      "esc": false,
      "fly": false,
      "han": true,
      "hea": false,
      "int": true,
      "kar": false,
      "kdu": false,
      "ken": false,
      "kge": false,
      "khi": false,
      "klo": false,
      "kna": false,
      "kno": false,
      "kpl": false,
      "kre": false,
      "lin": false,
      "lor": false,
      "per": false,
      "prf": false,
      "pro": true,
      "rid": true,
      "sen": true,
      "slt": false,
      "spl": false,
      "ste": false,
      "sur": false,
      "swm": true,
      "umd": false
    },
    "extraDescription": {
      "value": "<h2><span id=\"Weapon_and_Armor_Proficiency\">Weapon and Armor Proficiency</span></h2>\n<p>Cavaliers are proficient with all simple and martial weapons, with all types of armor (heavy, light, and medium) and with shields (except tower shields).</p>\n<h2><span id=\"Challenge_Ex\"><a name=\"TOC-Challenge-Ex-\"></a>Challenge (Ex)</span></h2>\n<p>Once per day, a cavalier can challenge a foe to combat. As a&nbsp;<a href=\"https://www.d20pfsrd.com/gamemastering/combat#TOC-Swift-Actions\">swift action</a>, the cavalier chooses one target within sight to challenge. The cavalier’s melee attacks deal extra damage whenever the attacks are made against the target of his challenge. This extra damage is equal to the cavalier’s level. The cavalier can use this ability once per day at 1st level, plus one additional time per day for every three levels beyond 1st, to a maximum of seven times per day at 19th level.</p>\n<p>Challenging a foe requires much of the cavalier’s concentration. The cavalier takes a –2 penalty to his&nbsp;<a href=\"https://www.d20pfsrd.com/gamemastering/combat#TOC-Armor-Class\">Armor Class</a>, except against attacks made by the target of his challenge.</p>\n<p>The challenge remains in effect until the target is&nbsp;<a href=\"https://www.d20pfsrd.com/gamemastering/conditions#TOC-Dead\">dead</a>&nbsp;or&nbsp;<a href=\"https://www.d20pfsrd.com/gamemastering/conditions#TOC-Unconscious\">unconscious</a>&nbsp;or until the combat ends. Each cavalier’s challenge also includes another effect which is listed in the section describing the cavalier’s order.</p>\n<h2>Mount (Ex)</h2>\n<p>A cavalier gains the service of a loyal and trusty steed to carry him into battle. This mount functions as a&nbsp;<a href=\"https://www.d20pfsrd.com/classes/core-classes/druid/animal-companions\">druid’s animal companion</a>, using the cavalier’s level as his effective&nbsp;<a href=\"https://www.d20pfsrd.com/classes/core-classes/druid#TOC-Class-Level\">druid level</a>. The creature must be one that he is capable of riding and is suitable as a mount.</p>\n<p>A Medium cavalier can select an axebeak, camel, elk, giant seahorse, giant tortoise,&nbsp;<a href=\"https://www.d20pfsrd.com/bestiary/monster-listings/animals/horse\">horse</a>, giraffe, or a zebra&nbsp;as a mount.</p>\n<p>A Small cavalier can select an antelope, a capybara, giant weasel,&nbsp;<a href=\"https://www.d20pfsrd.com/bestiary/monster-listings/animals/lizard/lizard-common\">lizard</a>&nbsp;(<a href=\"https://www.d20pfsrd.com/bestiary/monster-listings/animals/lizard/lizard-giant-gecko\">giant gecko</a>), kangarooP,&nbsp;<a href=\"https://www.d20pfsrd.com/bestiary/monster-listings/animals/horse/pony\">pony</a>, ram, reindeer, stag,&nbsp;<a href=\"https://www.d20pfsrd.com/bestiary/monster-listings/animals/canines/wolf/\">wolf</a>&nbsp;or wolfdog as a mount but can also select a&nbsp;<a href=\"https://www.d20pfsrd.com/bestiary/monster-listings/animals/boar/boar\">boar</a>&nbsp;or a&nbsp;<a href=\"https://www.d20pfsrd.com/bestiary/monster-listings/animals/dog/dog\">dog</a>&nbsp;if he is at least 4th level. The GM might approve other animals as suitable mounts.</p>\n<p>The&nbsp;<a href=\"https://www.d20pfsrd.com/classes/core-classes/druid/animal-companions/animal-companion-archetypes/augmented-companion-archetype/\">augmented companion</a>,&nbsp;<a href=\"https://www.d20pfsrd.com/classes/core-classes/druid/animal-companions/animal-companion-archetypes/bodyguard-companion-archetype/\">bodyguard</a>,&nbsp;<a href=\"https://www.d20pfsrd.com/classes/core-classes/druid/animal-companions/animal-companion-archetypes/bully-companion-archetype/\">bully</a>,&nbsp;<a href=\"https://www.d20pfsrd.com/classes/core-classes/druid/animal-companions/animal-companion-archetypes/daredevil-companion-archetype/\">daredevil</a>,&nbsp;<a href=\"https://www.d20pfsrd.com/classes/core-classes/druid/animal-companions/animal-companion-archetypes/draconic-companion-archetype/\">draconic</a>,&nbsp;<a href=\"https://www.d20pfsrd.com/classes/core-classes/druid/animal-companions/animal-companion-archetypes/racer-companion-archetype/\">racer</a>, and&nbsp;<a href=\"https://www.d20pfsrd.com/classes/core-classes/druid/animal-companions/animal-companion-archetypes/wrecker-companion-archetype/\">wrecker companion</a>&nbsp;archetypes are all particularly appropriate for a cavalier’s mount.</p>\n<p>A cavalier does not take an armor check penalty on&nbsp;<a href=\"https://www.d20pfsrd.com/skills/ride\">Ride</a>&nbsp;checks while riding his mount. The mount is always considered combat trained and begins play with&nbsp;<a href=\"https://www.d20pfsrd.com/feats/combat-feats/armor-proficiency-light\">Light Armor Proficiency</a>&nbsp;as a bonus feat. A cavalier’s mount does not gain the share spells special ability.</p>\n<p>A cavalier’s bond with his mount is strong, with the pair learning to anticipate each other’s moods and moves. Should a cavalier’s mount die, the cavalier may find another mount to serve him after 1 week of mourning. This new mount does not gain the link, evasion, devotion, or improved evasion special abilities until the next time the cavalier gains a level.</p>\n<h2>Order (Ex)</h2>\n<p>At 1st level, a cavalier must pledge himself to a specific order. The order grants the cavalier a number of bonuses, class skills, and special abilities. In addition, each order includes a number of edicts that the cavalier must follow. If he violates any of these edicts, he loses the benefits from his order’s challenge ability for 24 hours. The violation of an edict is subject to GM interpretation. A cavalier cannot change his order without undertaking a lengthy process to dedicate himself to a new cause. When this choice is made, he immediately loses all of the benefits from his old order. He must then follow the edicts of his new order for one entire level without gaining any benefits from that order. Once accomplished, he gains all of the bonuses from his new order. Note that the names of these orders might vary depending upon the campaign setting or GM’s preference.</p>\n<p>The following&nbsp;<a href=\"https://www.d20pfsrd.com/classes/base-classes/Cavalier/#orders\">orders</a>&nbsp;can be chosen by both cavaliers and&nbsp;<a href=\"https://www.d20pfsrd.com/classes/alternate-classes/samurai\">samurai</a>.</p>\n<p>Members of these orders are not necessarily bound together, but some organizations do exist that are comprised of cavaliers that all belong to one specific order.</p>\n<h2>Tactician (Ex)</h2>\n<p>At 1st level, a cavalier receives a&nbsp;<a href=\"https://www.d20pfsrd.com/feats/teamwork-feats\">teamwork feat</a>&nbsp;as a bonus feat. He must meet the prerequisites for this feat. As a&nbsp;<a href=\"https://www.d20pfsrd.com/gamemastering/combat#TOC-Standard-Actions\">standard action</a>, the cavalier can grant this feat to all allies within 30 feet who can see and hear him. Allies retain the use of this bonus feat for 3 rounds plus 1 round for every two levels the cavalier possesses. Allies do not need to meet the prerequisites of these bonus feats. The cavalier can use this ability once per day at 1st level, plus one additional time per day at 5th level and for every 5 levels thereafter.</p>\n<h2>Cavalier's Charge (Ex)</h2>\n<p>At 3rd level, a cavalier learns to make more accurate&nbsp;<a href=\"https://www.d20pfsrd.com/gamemastering/combat#TOC-Charge\">charge</a>&nbsp;attacks while mounted. The cavalier receives a +4 bonus on melee&nbsp;<a href=\"https://www.d20pfsrd.com/gamemastering/combat#TOC-Attack-Roll\">attack rolls</a>&nbsp;on a&nbsp;<a href=\"https://www.d20pfsrd.com/gamemastering/combat#TOC-Charge\">charge</a>&nbsp;while mounted (instead of the normal +2). In addition, the cavalier does not suffer any penalty to his&nbsp;<a href=\"https://www.d20pfsrd.com/gamemastering/combat#TOC-Armor-Class\">AC</a>&nbsp;after making a&nbsp;<a href=\"https://www.d20pfsrd.com/gamemastering/combat#TOC-Charge\">charge</a>&nbsp;attack while mounted.</p>\n<h2>Expert Trainer (Ex)</h2>\n<p>At 4th level, a cavalier learns to train mounts with speed and unsurpassed expertise. The cavalier receives a bonus equal to 1/2 his cavalier level whenever he uses&nbsp;<a href=\"https://www.d20pfsrd.com/skills/handle-animal\">Handle Animal</a>&nbsp;on an animal that serves as a mount. In addition, he can reduce the time needed to teach a mount a new trick or train a mount for a general purpose to 1 day per 1 week required by increasing the DC by +5. He can also train more than one mount at once, although each mount after the first adds +2 to the DC.</p>\n<h2>Banner (Ex)</h2>\n<p>At 5th level, a cavalier’s banner becomes a symbol of inspiration to his allies and companions. As long as the cavalier’s banner is clearly visible, all allies within 60 feet receive a +2&nbsp;<a href=\"https://www.d20pfsrd.com/basics-ability-scores/glossary#TOC-Morale-Bonus\">morale bonus</a>&nbsp;on&nbsp;<a href=\"https://www.d20pfsrd.com/gamemastering/combat#TOC-Saving-Throws\">saving throws</a>&nbsp;against&nbsp;<a href=\"https://www.d20pfsrd.com/gamemastering/special-abilities#TOC-Fear\">fear</a>&nbsp;and a +1&nbsp;<a href=\"https://www.d20pfsrd.com/basics-ability-scores/glossary#TOC-Morale-Bonus\">morale bonus</a>&nbsp;on&nbsp;<a href=\"https://www.d20pfsrd.com/gamemastering/combat#TOC-Attack-Roll\">attack rolls</a>&nbsp;made as part of a&nbsp;<a href=\"https://www.d20pfsrd.com/gamemastering/combat#TOC-Charge\">charge</a>. At 10th level, and every five levels thereafter, these bonuses increase by +1. The banner must be at least Small or larger and must be carried or displayed by the cavalier or his mount to function.</p>\n<h2>Bonus Feat</h2>\n<p>At 6th level, and at every six levels thereafter, a cavalier gains a bonus feat in addition to those gained from normal advancement. These bonus feats must be selected from those listed as combat feats. The cavalier must meet the prerequisites of these bonus feats.</p>\n<h2>Greater Tactician (Ex)</h2>\n<p>At 9th level, the cavalier receives an additional&nbsp;<a href=\"https://www.d20pfsrd.com/feats/teamwork-feats\">teamwork feat</a>&nbsp;as a bonus feat. He must meet the prerequisites for this feat. The cavalier can grant this feat to his allies using the tactician ability. Using the tactician ability is a&nbsp;<a href=\"https://www.d20pfsrd.com/gamemastering/combat#TOC-Swift-Actions\">swift action</a>.</p>\n<h2>Mighty Charge (Ex)</h2>\n<p>At 11th level, a cavalier learns to make devastating&nbsp;<a href=\"https://www.d20pfsrd.com/gamemastering/combat#TOC-Charge\">charge</a>&nbsp;attacks while mounted. Double the threat range of any weapons wielded during a&nbsp;<a href=\"https://www.d20pfsrd.com/gamemastering/combat#TOC-Charge\">charge</a>&nbsp;while mounted. This increase does not stack with other effects that increase the threat range of the weapon. In addition, the cavalier can make a free&nbsp;<a href=\"https://www.d20pfsrd.com/gamemastering/combat#TOC-Bull-Rush\">bull rush</a>,&nbsp;<a href=\"https://www.d20pfsrd.com/gamemastering/combat#TOC-Disarm\">disarm</a>,&nbsp;<a href=\"https://www.d20pfsrd.com/gamemastering/combat#TOC-Sunder\">sunder</a>, or&nbsp;<a href=\"https://www.d20pfsrd.com/gamemastering/combat#TOC-Trip\">trip</a>&nbsp;combat maneuver if his&nbsp;<a href=\"https://www.d20pfsrd.com/gamemastering/combat#TOC-Charge\">charge</a>&nbsp;attack is successful. This free combat maneuver does not provoke an&nbsp;<a href=\"https://www.d20pfsrd.com/gamemastering/combat#TOC-Attacks-of-Opportunity\">attack of opportunity</a>.</p>\n<h2>Demanding Challenge (Ex)</h2>\n<p>At 12th level, whenever a cavalier declares a challenge, his target must pay attention to the threat he poses. As long as the target is within the threatened area of the cavalier, it takes a –2 penalty to its&nbsp;<a href=\"https://www.d20pfsrd.com/gamemastering/combat#TOC-Armor-Class\">AC</a>&nbsp;from attacks made by anyone other than the cavalier.</p>\n<h2>Greater Banner (Ex)</h2>\n<p>At 14th level, the cavalier’s banner becomes a rallying call to his allies. All allies within 60 feet receive a +2&nbsp;<a href=\"https://www.d20pfsrd.com/basics-ability-scores/glossary#TOC-Morale-Bonus\">morale bonus</a>&nbsp;on&nbsp;<a href=\"https://www.d20pfsrd.com/gamemastering/combat#TOC-Saving-Throws\">saving throws</a>&nbsp;against&nbsp;<a href=\"https://www.d20pfsrd.com/gamemastering/special-abilities#TOC-Charm-and-Compulsion\">charm and compulsion</a>&nbsp;spells and effects. In addition, while his banner is displayed, the cavalier can spend a&nbsp;<a href=\"https://www.d20pfsrd.com/gamemastering/combat#TOC-Standard-Actions\">standard action</a>&nbsp;to wave the banner through the air, granting all allies within 60 feet an additional&nbsp;<a href=\"https://www.d20pfsrd.com/gamemastering/combat#TOC-Saving-Throws\">saving throw</a>&nbsp;against any one spell or effect that is targeting them. This save is made at the original DC. Spells and effects that do not allow&nbsp;<a href=\"https://www.d20pfsrd.com/gamemastering/combat#TOC-Saving-Throws\">saving throws</a>&nbsp;are unaffected by this ability. An ally cannot benefit from this ability more than once per day.</p>\n<h2>Master Tactician (Ex)</h2>\n<p>At 17th level, the cavalier receives an additional&nbsp;<a href=\"https://www.d20pfsrd.com/feats/teamwork-feats\">teamwork feat</a>&nbsp;as a bonus feat. He must meet the prerequisites for this feat. The cavalier can grant this feat to his allies using the tactician ability. Whenever the cavalier uses the tactician ability, he grants any two teamwork feats that he knows. He can select from any of his teamwork feats, not just his bonus feats.</p>\n<h2>Supreme Charge (Ex)</h2>\n<p>At 20th level, whenever the cavalier makes a&nbsp;<a href=\"https://www.d20pfsrd.com/gamemastering/combat#TOC-Charge\">charge</a>&nbsp;attack while mounted, he deals double the normal amount of&nbsp;<a href=\"https://www.d20pfsrd.com/gamemastering/combat#TOC-Damage\">damage</a>&nbsp;(or triple if using a lance). In addition, if the cavalier confirms a critical hit on a&nbsp;<a href=\"https://www.d20pfsrd.com/gamemastering/combat#TOC-Charge\">charge</a>&nbsp;attack while mounted, the target is&nbsp;<a href=\"https://www.d20pfsrd.com/gamemastering/conditions#TOC-Stunned\">stunned</a>&nbsp;for 1d4 rounds. A&nbsp;<a href=\"https://www.d20pfsrd.com/gamemastering/combat#TOC-Will\">Will</a>&nbsp;save reduces this to&nbsp;<a href=\"https://www.d20pfsrd.com/gamemastering/conditions#TOC-Staggered\">staggered</a>&nbsp;for 1d4 rounds. The DC is equal to 10 + the cavalier’s base&nbsp;<a href=\"https://www.d20pfsrd.com/gamemastering/combat#TOC-Attack-Bonus\">attack bonus</a>.</p>",
      "chat": "",
      "unidentified": ""
    },
    "damage": {
      "parts": [],
      "critParts": [],
      "nonCritParts": []
    },
    "preparation": {
      "maxAmount": 0
    },
    "weaponData": {
      "critRange": 20,
      "critMult": 2
    },
    "uses": {
      "value": 0,
      "max": 0
    }
  },
  "flags": {},
  "img": "systems/pf1/icons/items/inventory/horseshoe.jpg",
  "effects": []
}