{
  "_id": "vh9TZBE6BRu9sCfE",
  "name": "Kineticist",
  "permission": {
    "default": 0
  },
  "type": "class",
  "data": {
    "description": {
      "value": "<p>Kineticists are living channels for elemental matter and energy, manipulating the world around them by drawing upon inner reserves from their own bodies. Kineticists often awaken to their kinetic abilities during a violent or traumatic experience, releasing their power involuntarily. As kinetic power is seldom inherited, kineticists are rarely able to find mentors to guide them, so they must delve into these mysteries on their own to learn to control their gifts.</p>\n<p><strong>Role:</strong> Kineticists generally use their powers to assail their foes from range, but based on the way their talents develop, they can channel their kinetic abilities for a variety of situations. Kineticists are usually quite different from their families and friends, so they often strike out on their own or alongside others with extraordinary talents.</p>\n<p><strong>Alignment:</strong> Any.</p>\n<p><strong>Hit Die</strong>: d8.</p>\n<p><strong>Starting Wealth</strong>: 1d6 × 10 gp (average 35 gp.) In addition, each character begins play with an outfit worth 10 gp or less.</p>\n<h2><span id=\"Class_Skills\">Class Skills</span></h2>\n<p>The kineticist’s class skills are <a href=\"https://www.d20pfsrd.com/skills/acrobatics\">Acrobatics</a>&nbsp;(<a href=\"https://www.d20pfsrd.com/basics-ability-scores/ability-scores#TOC-Dexterity-Dex-\">Dex</a>), <a href=\"https://www.d20pfsrd.com/skills/craft\">Craft</a>&nbsp;(<a href=\"https://www.d20pfsrd.com/basics-ability-scores/ability-scores#TOC-Intelligence-Int-\">Int</a>), <a href=\"https://www.d20pfsrd.com/skills/heal\">Heal</a>&nbsp;(<a href=\"https://www.d20pfsrd.com/basics-ability-scores/ability-scores#TOC-Wisdom-Wis-\">Wis</a>), <a href=\"https://www.d20pfsrd.com/skills/intimidate\">Intimidate</a>&nbsp;(<a href=\"https://www.d20pfsrd.com/basics-ability-scores/ability-scores#TOC-Charisma-Cha-\">Cha</a>), <a href=\"https://www.d20pfsrd.com/skills/perception\">Perception</a>&nbsp;(<a href=\"https://www.d20pfsrd.com/basics-ability-scores/ability-scores#TOC-Wisdom-Wis-\">Wis</a>), <a href=\"https://www.d20pfsrd.com/skills/profession\">Profession</a>&nbsp;(<a href=\"https://www.d20pfsrd.com/basics-ability-scores/ability-scores#TOC-Wisdom-Wis-\">Wis</a>), <a href=\"https://www.d20pfsrd.com/skills/stealth\">Stealth</a>&nbsp;(<a href=\"https://www.d20pfsrd.com/basics-ability-scores/ability-scores#TOC-Dexterity-Dex-\">Dex</a>), and&nbsp;<a href=\"https://www.d20pfsrd.com/skills/use-magic-device\">Use Magic Device</a>&nbsp;(<a href=\"https://www.d20pfsrd.com/basics-ability-scores/ability-scores#TOC-Charisma-Cha-\">Cha</a>).</p>\n<p><strong>Skill Ranks per Level</strong>: 4 +&nbsp;<a href=\"https://www.d20pfsrd.com/basics-ability-scores/ability-scores#TOC-Intelligence-Int-\">Int</a>&nbsp;modifier.</p>",
      "chat": "",
      "unidentified": ""
    },
    "tags": [],
    "changes": [],
    "changeFlags": {
      "loseDexToAC": false,
      "noStr": false,
      "noDex": false,
      "oneInt": false,
      "oneWis": false,
      "oneCha": false,
      "noEncumbrance": false,
      "mediumArmorFullSpeed": false,
      "heavyArmorFullSpeed": false
    },
    "links": {
      "children": [],
      "classAssociations": [
        {
          "id": "pf1.class-abilities.GJQ0VVH3rishb9X1",
          "dataType": "compendium",
          "name": "Burn",
          "img": "systems/pf1/icons/skills/fire_11.jpg",
          "hiddenLinks": {},
          "level": 1,
          "_index": 0
        },
        {
          "id": "pf1.class-abilities.x9TM9MHoUl4cv9Ht",
          "dataType": "compendium",
          "name": "Elemental Focus",
          "img": "systems/pf1/icons/skills/blue_09.jpg",
          "hiddenLinks": {},
          "level": 1,
          "_index": 1
        },
        {
          "id": "pf1.class-abilities.1omEP6hrq86Bt46B",
          "dataType": "compendium",
          "name": "Gather Power",
          "img": "systems/pf1/icons/spells/beam-red-3.jpg",
          "hiddenLinks": {},
          "level": 1,
          "_index": 2
        },
        {
          "id": "pf1.class-abilities.3MqENnx0U6aWGZ4o",
          "dataType": "compendium",
          "name": "Physical Kinetic Blast",
          "img": "systems/pf1/icons/skills/fire_02.jpg",
          "hiddenLinks": {},
          "level": 1,
          "_index": 3
        },
        {
          "id": "pf1.class-abilities.u6q3Zk8XL1AMPxY4",
          "dataType": "compendium",
          "name": "Energy Kinetic Blast",
          "img": "systems/pf1/icons/skills/affliction_12.jpg",
          "hiddenLinks": {},
          "level": 1,
          "_index": 4
        },
        {
          "id": "pf1.class-abilities.ecaBwckdxXf22eSg",
          "dataType": "compendium",
          "name": "Elemental Defense",
          "img": "systems/pf1/icons/spells/protect-royal-1.jpg",
          "hiddenLinks": {},
          "level": 2,
          "_index": 5
        },
        {
          "id": "pf1.class-abilities.35iKiKfbpaHKdBmw",
          "dataType": "compendium",
          "name": "Wild Talents",
          "img": "systems/pf1/icons/skills/blue_38.jpg",
          "hiddenLinks": {},
          "level": 2,
          "_index": 6
        },
        {
          "id": "pf1.class-abilities.NOhmhKgboJ9qdGvg",
          "dataType": "compendium",
          "name": "Elemental Overflow",
          "img": "systems/pf1/icons/spells/explosion-royal-3.jpg",
          "hiddenLinks": {},
          "level": 3,
          "_index": 7
        },
        {
          "id": "pf1.class-abilities.3QJ79Cq3qXHRxJZq",
          "dataType": "compendium",
          "name": "Infusion Specialization",
          "img": "systems/pf1/icons/spells/light-air-fire-2.jpg",
          "hiddenLinks": {},
          "level": 5,
          "_index": 8
        },
        {
          "id": "pf1.class-abilities.2Od2zrFivfso93Iz",
          "dataType": "compendium",
          "name": "Metakinesis",
          "img": "systems/pf1/icons/spells/link-spirit-2.jpg",
          "hiddenLinks": {},
          "level": 5,
          "_index": 9
        },
        {
          "id": "pf1.class-abilities.Deoj4aUYuCQzFwJo",
          "dataType": "compendium",
          "name": "Metakinetic Master",
          "img": "systems/pf1/icons/spells/link-royal-3.jpg",
          "hiddenLinks": {},
          "level": 19,
          "_index": 10
        },
        {
          "id": "pf1.class-abilities.ZtvIQOXhB0yWYIIR",
          "dataType": "compendium",
          "name": "Internal Buffer",
          "img": "systems/pf1/icons/spells/shielding-fire-3.jpg",
          "hiddenLinks": {},
          "level": 6,
          "_index": 11
        },
        {
          "id": "pf1.class-abilities.Fjsv2wNC223ofCE8",
          "dataType": "compendium",
          "name": "Expanded Element ",
          "img": "systems/pf1/icons/spells/fog-orange-2.jpg",
          "hiddenLinks": {},
          "level": 7,
          "_index": 12
        },
        {
          "id": "pf1.class-abilities.hArwE7SbM3qGvlMs",
          "dataType": "compendium",
          "name": "Supercharge",
          "img": "systems/pf1/icons/skills/shadow_07.jpg",
          "hiddenLinks": {},
          "level": 11,
          "_index": 13
        },
        {
          "id": "pf1.class-abilities.w7TIla7F0RcPW0ga",
          "dataType": "compendium",
          "name": "Composite Specialization",
          "img": "systems/pf1/icons/spells/beam-magenta-3.jpg",
          "hiddenLinks": {},
          "level": 16,
          "_index": 14
        },
        {
          "id": "pf1.class-abilities.xj7Dp0lzyv7IYHcz",
          "dataType": "compendium",
          "name": "Omnikinesis",
          "img": "systems/pf1/icons/spells/light-sky-3.jpg",
          "hiddenLinks": {},
          "level": 20,
          "_index": 15
        }
      ]
    },
    "tag": "kineticist",
    "useCustomTag": true,
    "armorProf": {
      "value": [
        "lgt"
      ],
      "custom": ""
    },
    "weaponProf": {
      "value": [
        "sim"
      ],
      "custom": ""
    },
    "classType": "base",
    "levels": {
      "value": 0,
      "_deprecated": true
    },
    "level": 1,
    "hd": 8,
    "hp": 8,
    "bab": "med",
    "skillsPerLevel": 4,
    "savingThrows": {
      "fort": {
        "value": "high"
      },
      "ref": {
        "value": "high"
      },
      "will": {
        "value": "low"
      }
    },
    "fc": {
      "hp": {
        "value": 0
      },
      "skill": {
        "value": 0
      },
      "alt": {
        "value": 0
      }
    },
    "classSkills": {
      "acr": true,
      "apr": false,
      "art": false,
      "blf": false,
      "clm": false,
      "crf": true,
      "dip": false,
      "dev": false,
      "dis": false,
      "esc": false,
      "fly": false,
      "han": false,
      "hea": true,
      "int": true,
      "kar": false,
      "kdu": false,
      "ken": false,
      "kge": false,
      "khi": false,
      "klo": false,
      "kna": false,
      "kno": false,
      "kpl": false,
      "kre": false,
      "lin": false,
      "lor": false,
      "per": true,
      "prf": false,
      "pro": true,
      "rid": false,
      "sen": false,
      "slt": false,
      "spl": false,
      "ste": true,
      "sur": false,
      "swm": false,
      "umd": true
    },
    "damage": {
      "parts": [],
      "critParts": [],
      "nonCritParts": []
    },
    "preparation": {
      "maxAmount": 0
    },
    "weaponData": {
      "critRange": 20,
      "critMult": 2
    },
    "uses": {
      "value": 0,
      "max": 0
    }
  },
  "flags": {},
  "img": "systems/pf1/icons/skills/violet_28.jpg",
  "effects": []
}