{
  "_id": "xZLcyrEKYZoJPS2k",
  "name": "Magus",
  "permission": {
    "default": 0
  },
  "type": "class",
  "data": {
    "description": {
      "value": "<p>There are those who spend their lives poring over ancient tomes and texts, unlocking the power of magic, and there are those who spend their time perfecting the use of individual weapons, becoming masters without equal. The magus is at once a student of both philosophies, blending magical ability and martial prowess into something entirely unique, a discipline in which both spell and steel are used to devastating effect. As he grows in power, the magus unlocks powerful forms of arcana that allow him to merge his talents further, and at the pinnacle of his art, the magus becomes a blur of steel and magic, a force that few foes would dare to stand against.</p>\n<p><strong>Role</strong>: Magi spend much of their time traveling the world, learning whatever martial or arcane secrets they can find. They might spend months learning a new sword-fighting style from a master warrior, while simultaneously moonlighting in the local library, poring through tomes of ancient lore. Most who take this path dabble in all sorts of lore, picking up anything that might aid them in their search for perfection.</p>\n<p><strong>Alignment</strong>: Any.</p>\n<p><strong>Hit Die</strong>: d8.</p>\n<p><strong>Starting Wealth</strong>: 4d6 × 10 gp (average 140 gp.) In addition, each character begins play with an outfit worth 10 gp or less.</p>\n<h2><span id=\"Class_skills\">Class skills</span></h2>\n<p>The magus’s class skills are <a href=\"https://www.d20pfsrd.com/skills/climb\">Climb</a>&nbsp;(<a href=\"https://www.d20pfsrd.com/basics-ability-scores/ability-scores#TOC-Strength-Str-\">Str</a>), <a href=\"https://www.d20pfsrd.com/skills/craft\">Craft</a>&nbsp;(<a href=\"https://www.d20pfsrd.com/basics-ability-scores/ability-scores#TOC-Intelligence-Int-\">Int</a>), <a href=\"https://www.d20pfsrd.com/skills/fly\">Fly</a>&nbsp;(<a href=\"https://www.d20pfsrd.com/basics-ability-scores/ability-scores#TOC-Dexterity-Dex-\">Dex</a>), <a href=\"https://www.d20pfsrd.com/skills/intimidate\">Intimidate</a>&nbsp;(<a href=\"https://www.d20pfsrd.com/basics-ability-scores/ability-scores#TOC-Charisma-Cha-\">Cha</a>), <a href=\"https://www.d20pfsrd.com/skills/knowledge\">Knowledge</a>&nbsp;(arcana) (<a href=\"https://www.d20pfsrd.com/basics-ability-scores/ability-scores#TOC-Intelligence-Int-\">Int</a>), <a href=\"https://www.d20pfsrd.com/skills/knowledge\">Knowledge</a>&nbsp;(dungeoneering) (<a href=\"https://www.d20pfsrd.com/basics-ability-scores/ability-scores#TOC-Intelligence-Int-\">Int</a>), <a href=\"https://www.d20pfsrd.com/skills/knowledge\">Knowledge</a>&nbsp;(planes) (<a href=\"https://www.d20pfsrd.com/basics-ability-scores/ability-scores#TOC-Intelligence-Int-\">Int</a>), <a href=\"https://www.d20pfsrd.com/skills/profession\">Profession</a>&nbsp;(<a href=\"https://www.d20pfsrd.com/basics-ability-scores/ability-scores#TOC-Wisdom-Wis-\">Wis</a>), <a href=\"https://www.d20pfsrd.com/skills/ride\">Ride</a>&nbsp;(<a href=\"https://www.d20pfsrd.com/basics-ability-scores/ability-scores#TOC-Dexterity-Dex-\">Dex</a>), <a href=\"https://www.d20pfsrd.com/skills/spellcraft\">Spellcraft</a>&nbsp;(<a href=\"https://www.d20pfsrd.com/basics-ability-scores/ability-scores#TOC-Intelligence-Int-\">Int</a>), <a href=\"https://www.d20pfsrd.com/skills/swim\">Swim</a>&nbsp;(<a href=\"https://www.d20pfsrd.com/basics-ability-scores/ability-scores#TOC-Strength-Str-\">Str</a>), and <a href=\"https://www.d20pfsrd.com/skills/use-magic-device\">Use Magic Device</a>&nbsp;(<a href=\"https://www.d20pfsrd.com/basics-ability-scores/ability-scores#TOC-Charisma-Cha-\">Cha</a>).</p>\n<p><strong>Skill Ranks per Level</strong>: 2 +&nbsp;<a href=\"https://www.d20pfsrd.com/basics-ability-scores/ability-scores#TOC-Intelligence-Int-\">Int</a> modifier.</p>",
      "chat": "",
      "unidentified": ""
    },
    "tags": [],
    "changes": [],
    "changeFlags": {
      "loseDexToAC": false,
      "noStr": false,
      "noDex": false,
      "oneInt": false,
      "oneWis": false,
      "oneCha": false,
      "noEncumbrance": false,
      "mediumArmorFullSpeed": false,
      "heavyArmorFullSpeed": false
    },
    "links": {
      "children": [],
      "classAssociations": [
        {
          "id": "pf1.class-abilities.mpe3JHJMINddqLWr",
          "dataType": "compendium",
          "name": "Arcane Pool",
          "img": "systems/pf1/icons/spells/runes-blue-1.jpg",
          "hiddenLinks": {},
          "level": 1,
          "_index": 0
        },
        {
          "id": "pf1.class-abilities.lj4yLDvoxGFHiwSk",
          "dataType": "compendium",
          "name": "Spell Combat",
          "img": "systems/pf1/icons/spells/enchant-red-2.jpg",
          "hiddenLinks": {},
          "level": 1,
          "_index": 1
        },
        {
          "id": "pf1.class-abilities.G1z392b58wRybqjL",
          "dataType": "compendium",
          "name": "Improved Spell Combat",
          "img": "systems/pf1/icons/feats/disruptive.jpg",
          "hiddenLinks": {},
          "level": 8,
          "_index": 2
        },
        {
          "id": "pf1.class-abilities.nWDMATASYzzAShr6",
          "dataType": "compendium",
          "name": "Greater Spell Combat",
          "img": "systems/pf1/icons/feats/improved-vital-strike.jpg",
          "hiddenLinks": {},
          "level": 14,
          "_index": 3
        },
        {
          "id": "pf1.class-abilities.OsEuRDHP7jcJ2fIJ",
          "dataType": "compendium",
          "name": "Spellstrike",
          "img": "systems/pf1/icons/spells/enchant-royal-3.jpg",
          "hiddenLinks": {},
          "level": 2,
          "_index": 4
        },
        {
          "id": "pf1.class-abilities.HJ2vLLDYkihPxFkD",
          "dataType": "compendium",
          "name": "Magus Arcana",
          "img": "systems/pf1/icons/spells/runes-magenta-1.jpg",
          "hiddenLinks": {},
          "level": 3,
          "_index": 5
        },
        {
          "id": "pf1.class-abilities.QhHS0Qr5FxH4LtaI",
          "dataType": "compendium",
          "name": "Knowledge Pool",
          "img": "systems/pf1/icons/feats/blinding-critical.jpg",
          "hiddenLinks": {},
          "level": 7,
          "_index": 6
        },
        {
          "id": "pf1.class-abilities.IyfoUjtyaS8lakWc",
          "dataType": "compendium",
          "name": "Spell Recall",
          "img": "systems/pf1/icons/spells/evil-eye-eerie-1.jpg",
          "hiddenLinks": {},
          "level": 4,
          "_index": 7
        },
        {
          "id": "pf1.class-abilities.gzBR0qkMdu0KkLV0",
          "dataType": "compendium",
          "name": "Bonus Feats (MAG)",
          "img": "systems/pf1/icons/feats/combat-expertise.jpg",
          "hiddenLinks": {},
          "level": 5,
          "_index": 8
        },
        {
          "id": "pf1.class-abilities.Js83QWyHQQ4PjP0m",
          "dataType": "compendium",
          "name": "Medium Armor",
          "img": "systems/pf1/icons/feats/arcane-armor-training.jpg",
          "hiddenLinks": {},
          "level": 7,
          "_index": 9
        },
        {
          "id": "pf1.class-abilities.ePNt8fgtaAxmLnHs",
          "dataType": "compendium",
          "name": "Fighter Training",
          "img": "systems/pf1/icons/feats/double-slice.jpg",
          "hiddenLinks": {},
          "level": 10,
          "_index": 10
        },
        {
          "id": "pf1.class-abilities.dakApiblq3ad7AZI",
          "dataType": "compendium",
          "name": "Improved Spell Recall",
          "img": "systems/pf1/icons/feats/extra-lay-on-hands.jpg",
          "hiddenLinks": {},
          "level": 11,
          "_index": 11
        },
        {
          "id": "pf1.class-abilities.0AXAMXGLJIw7CGBd",
          "dataType": "compendium",
          "name": "Heavy Armor",
          "img": "systems/pf1/icons/feats/armor-proficiency-heavy.png",
          "hiddenLinks": {},
          "level": 13,
          "_index": 12
        },
        {
          "id": "pf1.class-abilities.zLXBKnWXbZ2YKOBo",
          "dataType": "compendium",
          "name": "Counterstrike",
          "img": "systems/pf1/icons/feats/channel-smite.jpg",
          "hiddenLinks": {},
          "level": 16,
          "_index": 13
        },
        {
          "id": "pf1.class-abilities.i64BU7HTfaRJEYFj",
          "dataType": "compendium",
          "name": "Greater Spell Access",
          "img": "systems/pf1/icons/feats/extend-spell.jpg",
          "hiddenLinks": {},
          "level": 19,
          "_index": 14
        },
        {
          "id": "pf1.class-abilities.XAMIufM24q2qAB7o",
          "dataType": "compendium",
          "name": "True Magus",
          "img": "systems/pf1/icons/spells/enchant-sky-3.jpg",
          "hiddenLinks": {},
          "level": 20,
          "_index": 15
        }
      ]
    },
    "tag": "magus",
    "useCustomTag": true,
    "armorProf": {
      "value": [
        "lgt"
      ],
      "custom": ""
    },
    "weaponProf": {
      "value": [
        "sim",
        "mar"
      ],
      "custom": ""
    },
    "classType": "base",
    "levels": {
      "value": 0,
      "_deprecated": true
    },
    "level": 1,
    "hd": 8,
    "hp": 8,
    "bab": "med",
    "skillsPerLevel": 2,
    "savingThrows": {
      "fort": {
        "value": "high"
      },
      "ref": {
        "value": "low"
      },
      "will": {
        "value": "high"
      }
    },
    "fc": {
      "hp": {
        "value": 0
      },
      "skill": {
        "value": 0
      },
      "alt": {
        "value": 0
      }
    },
    "classSkills": {
      "acr": false,
      "apr": false,
      "art": false,
      "blf": false,
      "clm": true,
      "crf": true,
      "dip": false,
      "dev": false,
      "dis": false,
      "esc": false,
      "fly": true,
      "han": false,
      "hea": false,
      "int": true,
      "kar": true,
      "kdu": true,
      "ken": false,
      "kge": false,
      "khi": false,
      "klo": false,
      "kna": false,
      "kno": false,
      "kpl": true,
      "kre": false,
      "lin": false,
      "lor": false,
      "per": false,
      "prf": false,
      "pro": true,
      "rid": true,
      "sen": false,
      "slt": false,
      "spl": true,
      "ste": false,
      "sur": false,
      "swm": true,
      "umd": true
    },
    "extraDescription": {
      "value": "<h2>Weapon and Armor Proficiency</h2>\n<p>A magus is proficient with all simple and martial weapons. A magus is also proficient with light armor. He can cast magus spells while wearing light armor without incurring the normal arcane spell failure chance. Like any other arcane spellcaster, a magus wearing medium armor, heavy armor, or a shield incurs a chance of arcane spell failure if the spell in question has a somatic component. A multiclass magus still incurs the normal arcane spell failure chance for arcane spells received from other classes.</p>\n<h2>Spells</h2>\n<p>A magus casts arcane spells drawn from the&nbsp;<a href=\"https://www.d20pfsrd.com/magic/spell-lists-and-domains/magus-spell-list\">magus spell list</a>. A magus must choose and prepare his spells ahead of time.</p>\n<p>To learn, prepare, or cast a spell, the magus must have an&nbsp;<a href=\"https://www.d20pfsrd.com/basics-ability-scores/ability-scores#TOC-Intelligence-Int-\">Intelligence</a>&nbsp;score equal to at least 10 + the spell level. The&nbsp;<a href=\"https://www.d20pfsrd.com/basics-ability-scores/glossary#TOC-Difficulty-Class-DC-\">Difficulty Class</a>&nbsp;for a&nbsp;<a href=\"https://www.d20pfsrd.com/gamemastering/combat#TOC-Saving-Throws\">saving throw</a>&nbsp;against a magus’s spell is 10 + the spell level + the magus’s&nbsp;<a href=\"https://www.d20pfsrd.com/basics-ability-scores/ability-scores#TOC-Intelligence-Int-\">Intelligence</a>&nbsp;modifier.</p>\n<p>A magus can cast only a certain number of spells of each spell level per day. His base daily spell allotment is given on&nbsp;Table: Magus. In addition, he receives&nbsp;<a href=\"https://www.d20pfsrd.com/basics-ability-scores/ability-scores#TOC-Abilities-and-Spellcasters\">bonus spells per day if he has a high&nbsp;</a><a href=\"https://www.d20pfsrd.com/basics-ability-scores/ability-scores/#Intelligence_Int\">Intelligence</a>&nbsp;score.</p>\n<p>A magus may know any number of spells. He must choose and prepare his spells ahead of time by getting 8 hours of sleep and spending 1 hour studying his spellbook. While studying, the magus decides which spells to prepare.</p>\n<p><a name=\"TOC-Cantrips-\"></a><strong>Cantrips</strong>: A magus can prepare a number of cantrips, or 0-level spells, each day, as noted on&nbsp;Table: Magus&nbsp;under “Spells per Day.” These spells are cast like any other spell, but they are not expended when cast and may be used again.</p>\n<p><a name=\"TOC-Spellbooks\"></a><strong>Spellbooks</strong>: A magus must study his spellbook each day to prepare his spells. He cannot prepare any spell not recorded in his spellbook except for&nbsp;<a href=\"https://www.d20pfsrd.com/magic/all-spells/r/read-magic\">read magic</a>, which all magi can prepare from memory. A magus begins play with a spellbook containing&nbsp;<a href=\"https://www.d20pfsrd.com/magic/spell-lists-and-domains/magus-spell-list#TOC-0-Level-Magus-Spells-Cantrips-\">all 0-level magus spells</a>&nbsp;plus three&nbsp;<a href=\"https://www.d20pfsrd.com/magic/spell-lists-and-domains/magus-spell-list#TOC-1st-Level-Magus-Spells\">1st-level magus spells</a>&nbsp;of his choice. The magus also selects a number of additional&nbsp;<a href=\"https://www.d20pfsrd.com/magic/spell-lists-and-domains/magus-spell-list#TOC-1st-Level-Magus-Spells\">1st-level magus spells</a>&nbsp;equal to his&nbsp;<a href=\"https://www.d20pfsrd.com/basics-ability-scores/ability-scores#TOC-Intelligence-Int-\">Intelligence</a>&nbsp;modifier to add to his spellbook. At each new magus level, he gains two new magus spells of any spell level or levels that he can cast (based on his new magus level) for his spellbook. At any time, a magus can also add spells found in other spellbooks to his own.</p>\n<p>A magus can learn spells from a&nbsp;<a href=\"https://www.d20pfsrd.com/classes/core-classes/wizard\">wizard’s</a>&nbsp;spellbook, just as a&nbsp;<a href=\"https://www.d20pfsrd.com/classes/core-classes/wizard\">wizard</a>&nbsp;can from a magus’s spellbook. The spells learned must be on&nbsp;<a href=\"https://www.d20pfsrd.com/magic/spell-lists-and-domains/magus-spell-list\">the magus spell list</a>, as normal. An&nbsp;<a href=\"https://www.d20pfsrd.com/classes/base-classes/alchemist\">alchemist</a>&nbsp;can learn formulae from a magus’s spellbook, if the spells are also on the&nbsp;<a href=\"https://www.d20pfsrd.com/classes/base-classes/alchemist\">alchemist</a>&nbsp;spell list. A magus cannot learn spells from an&nbsp;<a href=\"https://www.d20pfsrd.com/classes/base-classes/alchemist\">alchemist</a>.</p>\n<h2>Arcane Pool (Su)</h2>\n<p>At 1st level, the magus gains a reservoir of mystical arcane energy that he can draw upon to fuel his powers and enhance his weapon. This arcane pool has a number of points equal to 1/2 his magus level (minimum 1) + his&nbsp;<a href=\"https://www.d20pfsrd.com/basics-ability-scores/ability-scores#TOC-Intelligence-Int-\">Intelligence</a>&nbsp;modifier. The pool refreshes once per day when the magus prepares his spells.</p>\n<p>At 1st level, a magus can expend 1 point from his arcane pool as a&nbsp;<a href=\"https://www.d20pfsrd.com/gamemastering/combat#TOC-Swift-Actions\">swift action</a>&nbsp;to grant any weapon he is holding a +1&nbsp;<a href=\"https://www.d20pfsrd.com/basics-ability-scores/glossary#TOC-Enhancement-Bonus\">enhancement bonus</a>&nbsp;for 1 minute. For every four levels beyond 1st, the weapon gains another +1&nbsp;<a href=\"https://www.d20pfsrd.com/basics-ability-scores/glossary#TOC-Enhancement-Bonus\">enhancement bonus</a>, to a maximum of +5 at 17th level. These bonuses can be added to the weapon, stacking with existing weapon enhancement to a maximum of +5. Multiple uses of this ability do not stack with themselves.</p>\n<p>At 5th level, these bonuses can be used to add any of the following weapon properties:&nbsp;<a href=\"https://www.d20pfsrd.com/magic-items/magic-weapons/magic-weapon-special-abilities/dancing\">dancing</a>,&nbsp;<a href=\"https://www.d20pfsrd.com/magic-items/magic-weapons/magic-weapon-special-abilities/flaming\">flaming</a>,&nbsp;<a href=\"https://www.d20pfsrd.com/magic-items/magic-weapons/magic-weapon-special-abilities/flaming-burst\">flaming burst</a>,&nbsp;<a href=\"https://www.d20pfsrd.com/magic-items/magic-weapons/magic-weapon-special-abilities/frost\">frost</a>,&nbsp;<a href=\"https://www.d20pfsrd.com/magic-items/magic-weapons/magic-weapon-special-abilities/icy-burst\">icy burst</a>,&nbsp;<a href=\"https://www.d20pfsrd.com/magic-items/magic-weapons/magic-weapon-special-abilities/keen\">keen</a>,&nbsp;<a href=\"https://www.d20pfsrd.com/magic-items/magic-weapons/magic-weapon-special-abilities/shock\">shock</a>,&nbsp;<a href=\"https://www.d20pfsrd.com/magic-items/magic-weapons/magic-weapon-special-abilities/shocking-burst\">shocking burst</a>,&nbsp;<a href=\"https://www.d20pfsrd.com/magic-items/magic-weapons/magic-weapon-special-abilities/speed\">speed</a>, or&nbsp;<a href=\"https://www.d20pfsrd.com/magic-items/magic-weapons/magic-weapon-special-abilities/vorpal\">vorpal</a>.</p>\n<p>Adding these properties consumes an amount of bonus equal to the property’s base price modifier. These properties are added to any the weapon already has, but duplicates do not stack. If the weapon is not magical, at least a +1 enhancement bonus must be added before any other properties can be added. These bonuses and properties are decided when the arcane pool point is spent and cannot be changed until the next time the magus uses this ability. These bonuses do not function if the weapon is wielded by anyone other than the magus.</p>\n<p>A magus can only enhance one weapon in this way at one time. If he uses this ability again, the first use immediately ends.</p>\n<h2>Spell Combat (Ex)</h2>\n<p>At 1st level, a magus learns to cast spells and wield his weapons at the same time. This functions much like&nbsp;<a href=\"https://www.d20pfsrd.com/feats/combat-feats/two-weapon-fighting-combat\">two-weapon fighting</a>, but the off-hand weapon is a spell that is being cast. To use this ability, the magus must have one hand free (even if the spell being cast does not have somatic&nbsp;<a href=\"https://www.d20pfsrd.com/magic#TOC-Components\">components</a>), while wielding a light or one-handed melee weapon in the other hand. As a&nbsp;<a href=\"https://www.d20pfsrd.com/gamemastering/combat#TOC-Full-Round-Actions\">full-round action</a>, he can make all of his attacks with his melee weapon at a –2 penalty and can also cast any spell from the magus spell list with a&nbsp;<a href=\"https://www.d20pfsrd.com/magic#TOC-Casting-Time\">casting time</a>&nbsp;of 1&nbsp;<a href=\"https://www.d20pfsrd.com/gamemastering/combat#TOC-Standard-Actions\">standard action</a>&nbsp;(any&nbsp;<a href=\"https://www.d20pfsrd.com/gamemastering/combat#TOC-Attack-Roll\">attack roll</a>&nbsp;made as part of this spell also takes this penalty). If he casts this spell defensively, he can decide to take an additional penalty on his&nbsp;<a href=\"https://www.d20pfsrd.com/gamemastering/combat#TOC-Attack-Roll\">attack rolls</a>, up to his&nbsp;<a href=\"https://www.d20pfsrd.com/basics-ability-scores/ability-scores#TOC-Intelligence-Int-\">Intelligence</a>&nbsp;bonus, and add the same amount as a&nbsp;<a href=\"https://www.d20pfsrd.com/basics-ability-scores/glossary#TOC-Circumstance-Bonus\">circumstance bonus</a>&nbsp;on his&nbsp;<a href=\"https://www.d20pfsrd.com/magic#TOC-Concentration\">concentration</a>&nbsp;check. If the check fails, the spell is wasted, but the attacks still take the penalty. A magus can choose to cast the spell first or make the weapon attacks first, but if he has more than one attack, he cannot cast the spell between weapon attacks.</p>\n<h2>Spellstrike (Su)</h2>\n<p>At 2nd level, whenever a magus casts a spell with a range of “touch” from the magus spell list, he can deliver the spell through any weapon he is wielding as part of a melee attack. Instead of the free melee&nbsp;<a href=\"https://www.d20pfsrd.com/gamemastering/combat#TOC-Touch-Attacks\">touch attack</a>&nbsp;normally allowed to deliver the spell, a magus can make one free melee attack with his weapon (at his highest&nbsp;<a href=\"https://www.d20pfsrd.com/gamemastering/combat#TOC-Attack-Bonus\">base attack bonus</a>) as part of casting this spell. If successful, this melee attack deals its normal damage as well as the effects of the spell. If the magus makes this attack in concert with spell combat, this melee attack takes all the penalties accrued by spell combat melee attacks. This attack uses the weapon’s critical range (20, 19–20, or 18–20 and modified by the&nbsp;<a href=\"https://www.d20pfsrd.com/magic-items/magic-weapons#TOC-Keen\">keen</a>&nbsp;weapon property or similar effects), but the spell effect only deals ×2 damage on a successful&nbsp;<a href=\"https://www.d20pfsrd.com/gamemastering/combat#TOC-Critical-Hits\">critical hit</a>, while the weapon damage uses its own critical modifier.</p>\n<h2>Magus Arcana</h2>\n<p>As he gains levels, a magus learns arcane secrets tailored to his specific way of blending martial puissance and magical skill. Starting at 3rd level, a magus gains one magus arcana. He gains an additional&nbsp;<a href=\"https://www.d20pfsrd.com/classes/base-classes/magus/magus-arcana\">magus arcana</a>&nbsp;for every three levels of magus attained after 3rd level. Unless specifically noted in a&nbsp;<a href=\"https://www.d20pfsrd.com/classes/base-classes/magus/magus-arcana\">magus arcana’s</a>&nbsp;description, a magus cannot select a particular&nbsp;<a href=\"https://www.d20pfsrd.com/classes/base-classes/magus/magus-arcana\">magus arcana</a>&nbsp;more than once.&nbsp;<a href=\"https://www.d20pfsrd.com/classes/base-classes/magus/magus-arcana\">Magus arcana</a>&nbsp;that affect spells can only be used to modify spells from the magus spell list unless otherwise noted.</p>\n<ul>\n<li>A complete list of magus arcana can be found here:&nbsp;<a href=\"https://www.d20pfsrd.com/classes/base-classes/magus/magus-arcana\">Magus Arcana</a></li>\n</ul>\n<h2>Spell Recall (Su)</h2>\n<p>At 4th level, the magus learns to use his arcane pool to recall spells he has already cast. With a&nbsp;<a href=\"https://www.d20pfsrd.com/gamemastering/combat#TOC-Swift-Actions\">swift action</a>&nbsp;he can recall any single magus spell that he has already prepared and cast that day by expending a number of points from his arcane pool equal to the spell’s level (minimum 1). The spell is prepared again, just as if it had not been cast.</p>\n<h2>Bonus Feats</h2>\n<p>At 5th level, and every six levels thereafter, a magus gains a bonus feat in addition to those gained from normal advancement. These bonus feats must be selected from those listed as&nbsp;<a href=\"https://www.d20pfsrd.com/feats/combat-feats\">combat</a>,&nbsp;<a href=\"https://www.d20pfsrd.com/feats/item-creation-feats\">item creation</a>, or&nbsp;<a href=\"https://www.d20pfsrd.com/feats/metamagic-feats\">metamagic feats</a>. He must meet the prerequisites for these feats as normal.</p>\n<h2>Knowledge Pool (Su)</h2>\n<p>At 7th level, when a magus prepares his magus spells, he can decide to expend 1 or more points from his arcane pool, up to his&nbsp;<a href=\"https://www.d20pfsrd.com/basics-ability-scores/ability-scores#TOC-Intelligence-Int-\">Intelligence</a>&nbsp;bonus. For each point he expends, he can treat any one spell from the magus spell list as if it were in his spellbook and can prepare that spell as normal that day. If he does not cast spells prepared in this way before the next time he prepares spells, he loses those spells. He can also cast spells added in this way using his spell recall ability, but only until he prepares spells again.</p>\n<h2>Medium Armor (Ex)</h2>\n<p>At 7th level, a magus gains proficiency with medium armor. A magus can cast magus spells while wearing medium armor without incurring the normal arcane spell failure chance. Like any other arcane spellcaster, a magus wearing heavy armor or using a shield incurs a chance of arcane spell failure if the spell in question has a somatic component.</p>\n<h2>Improved Spell Combat (Ex)</h2>\n<p>At 8th level, the magus’s ability to cast spells and make melee attacks improves. When using the spell combat ability, the magus receives a +2&nbsp;<a href=\"https://www.d20pfsrd.com/basics-ability-scores/glossary#TOC-Circumstance-Bonus\">circumstance bonus</a>&nbsp;on&nbsp;<a href=\"https://www.d20pfsrd.com/magic#TOC-Concentration\">concentration</a>&nbsp;checks, in addition to any bonus granted by taking an additional penalty on the&nbsp;<a href=\"https://www.d20pfsrd.com/gamemastering/combat#TOC-Attack-Roll\">attack roll</a>.</p>\n<h2>Fighter Training (Ex)</h2>\n<p>Starting at 10th level, a magus counts 1/2 his total magus level as his&nbsp;<a href=\"https://www.d20pfsrd.com/classes/core-classes/fighter\">fighter</a>&nbsp;level for the purpose of qualifying for feats. If he has levels in&nbsp;<a href=\"https://www.d20pfsrd.com/classes/core-classes/fighter\">fighter</a>, these levels stack.</p>\n<h2>Improved Spell Recall (Su)</h2>\n<p>At 11th level, the magus’s ability to recall spells using his arcane pool becomes more efficient. Whenever he recalls a spell with spell recall, he expends a number of points from his arcane pool equal to 1/2 the spell’s level (minimum 1). Furthermore, instead of recalling a used spell, as a&nbsp;<a href=\"https://www.d20pfsrd.com/gamemastering/combat#TOC-Swift-Actions\">swift action</a>&nbsp;the magus can prepare a spell of the same level that he has in his spellbook. He does so by expending a number of points from his arcane pool equal to the spell’s level (minimum 1). The magus cannot apply&nbsp;<a href=\"https://www.d20pfsrd.com/feats/metamagic-feats\">metamagic feats</a>&nbsp;to a spell prepared in this way. The magus does not need to reference his spellbook to prepare a spell in this way.</p>\n<h2>Heavy Armor (Ex)</h2>\n<p>At 13th level, a magus gains proficiency with heavy armor. A magus can cast magus spells while wearing heavy armor without incurring the normal arcane spell failure chance. Like any other arcane spellcaster, a magus using a shield incurs a chance of arcane spell failure if the spell in question has a somatic component.</p>\n<h2>Greater Spell Combat (Ex)</h2>\n<p>At 14th level, the magus gains the ability to seamlessly cast spells and make melee attacks. Whenever he uses the spell combat ability, his&nbsp;<a href=\"https://www.d20pfsrd.com/magic#TOC-Concentration\">concentration</a>&nbsp;check bonus equals double the amount of the attack penalty taken.</p>\n<h2>Counterstrike (Ex)</h2>\n<p>At 16th level, whenever an enemy within reach of the magus successfully casts a spell defensively, that enemy provokes an&nbsp;<a href=\"https://www.d20pfsrd.com/gamemastering/combat#TOC-Attacks-of-Opportunity\">attack of opportunity</a>&nbsp;from the magus after the spell is complete. This&nbsp;<a href=\"https://www.d20pfsrd.com/gamemastering/combat#TOC-Attacks-of-Opportunity\">attack of opportunity</a>&nbsp;cannot disrupt the spell.</p>\n<h2>Greater Spell Access (Su)</h2>\n<p>At 19th level, the magus gains access to an expanded spell list. He learns and places 14 spells from the&nbsp;<a href=\"https://www.d20pfsrd.com/classes/core-classes/wizard\">wizard’s</a>&nbsp;spell list into his spellbook as magus spells of their&nbsp;<a href=\"https://www.d20pfsrd.com/classes/core-classes/wizard\">wizard</a>&nbsp;level. He gains two of each of the following&nbsp;<a href=\"https://www.d20pfsrd.com/classes/core-classes/wizard\">wizard</a>&nbsp;spells not on the magus spell list:</p>\n<p>0-level, 1st-level, 2nd-level, 3rd-level, 4th-level, 5th-level, and 6th-level.</p>\n<p>He can ignore the somatic component of these spells, casting them without the normal chance of spell failure.</p>\n<h2>True Magus (Su)</h2>\n<p>At 20th level, the magus becomes a master of spells and combat. Whenever he uses his spell combat ability, he does not need to make a&nbsp;<a href=\"https://www.d20pfsrd.com/magic#TOC-Concentration\">concentration</a>&nbsp;check to cast the spell defensively. Whenever the magus uses spell combat and his spell targets the same creature as his melee attacks, he can choose to either increase the DC to resist the spell by +2, grant himself a +2&nbsp;<a href=\"https://www.d20pfsrd.com/basics-ability-scores/glossary#TOC-Circumstance-Bonus\">circumstance bonus</a>&nbsp;on any checks made to overcome&nbsp;<a href=\"https://www.d20pfsrd.com/gamemastering/special-abilities#TOC-Spell-Resistance\">spell resistance</a>, or grant himself a +2&nbsp;<a href=\"https://www.d20pfsrd.com/basics-ability-scores/glossary#TOC-Circumstance-Bonus\">circumstance bonus</a>&nbsp;on all&nbsp;<a href=\"https://www.d20pfsrd.com/gamemastering/combat#TOC-Attack-Roll\">attack rolls</a>&nbsp;made against the target during his turn.</p>",
      "chat": "",
      "unidentified": ""
    },
    "damage": {
      "parts": [],
      "critParts": [],
      "nonCritParts": []
    },
    "preparation": {
      "maxAmount": 0
    },
    "weaponData": {
      "critRange": 20,
      "critMult": 2
    },
    "uses": {
      "value": 0,
      "max": 0
    }
  },
  "flags": {},
  "img": "systems/pf1/icons/spells/enchant-magenta-3.jpg",
  "effects": []
}