{
  "_id": "5mQIOIw4hDhlREPo",
  "name": "Monk (Unchained)",
  "permission": {
    "default": 0
  },
  "type": "class",
  "data": {
    "description": {
      "value": "<p>Physical and mental perfection&mdash;that is the life goal of every monk. For these skilled warriors, martial prowess and mental clarity are one and the same. Capable of pummeling foes with both f ist and weapon, monks are among the more versatile combatants on the battlef ield. Monks are also able to harness their ki, a spiritual life force that resides within, allowing them to perform amazing acts of acrobatics and mystical skill. All of this depends on incredible discipline and focus, and monks spend their entire lives perfecting these arts.</p>\n<p><strong>Unchained:</strong> Much of the monk has been reworked, including its base attack bonus, Hit Die, saves, and many of its special abilities. The result is a version of the monk that not only is easier to play, but also possesses a great deal more versatility. Flurry of blows is now much simpler to use in play. Many of the higher-level abilities of the monk, such as abundant step and quivering palm, have been incorporated into the new system of ki powers. As a monk advances in level, he can select from a variety of ki powers, allowing the player to truly customize his character.</p>\n<p><strong>Alignment:</strong> Any lawful.</p>\n<p><strong>Hit Die:</strong> d10.</p>\n<p><strong>Starting Wealth:</strong> 1d6 x 10 gp (average 35 gp).</p>\n<h2><span id=\"Class_Skills\">Class Skills</span></h2>\n<p>The monk&rsquo;s class skills are&nbsp;<a href=\"https://www.d20pfsrd.com/skills/acrobatics\">Acrobatics</a>&nbsp;(<a href=\"https://www.d20pfsrd.com/basics-ability-scores/ability-scores#TOC-Dexterity-Dex-\">Dex</a>),&nbsp;<a href=\"https://www.d20pfsrd.com/skills/climb\">Climb</a>&nbsp;(<a href=\"https://www.d20pfsrd.com/basics-ability-scores/ability-scores#TOC-Strength-Str-\">Str</a>),&nbsp;<a href=\"https://www.d20pfsrd.com/skills/craft\">Craft</a>&nbsp;(<a href=\"https://www.d20pfsrd.com/basics-ability-scores/ability-scores#TOC-Intelligence-Int-\">Int</a>),&nbsp;<a href=\"https://www.d20pfsrd.com/skills/escape-artist\">Escape Artist</a>&nbsp;(<a href=\"https://www.d20pfsrd.com/basics-ability-scores/ability-scores#TOC-Dexterity-Dex-\">Dex</a>),&nbsp;<a href=\"https://www.d20pfsrd.com/skills/intimidate\">Intimidate</a>&nbsp;(<a href=\"https://www.d20pfsrd.com/basics-ability-scores/ability-scores#TOC-Charisma-Cha-\">Cha</a>),&nbsp;<a href=\"https://www.d20pfsrd.com/skills/knowledge\">Knowledge</a>&nbsp;(history) (<a href=\"https://www.d20pfsrd.com/basics-ability-scores/ability-scores#TOC-Intelligence-Int-\">Int</a>),&nbsp;<a href=\"https://www.d20pfsrd.com/skills/knowledge\">Knowledge</a>&nbsp;(religion) (<a href=\"https://www.d20pfsrd.com/basics-ability-scores/ability-scores#TOC-Intelligence-Int-\">Int</a>),&nbsp;<a href=\"https://www.d20pfsrd.com/skills/perception\">Perception</a>&nbsp;(<a href=\"https://www.d20pfsrd.com/basics-ability-scores/ability-scores#TOC-Wisdom-Wis-\">Wis</a>),&nbsp;<a href=\"https://www.d20pfsrd.com/skills/perform\">Perform</a>&nbsp;(<a href=\"https://www.d20pfsrd.com/basics-ability-scores/ability-scores#TOC-Charisma-Cha-\">Cha</a>),&nbsp;<a href=\"https://www.d20pfsrd.com/skills/profession\">Profession</a>&nbsp;(<a href=\"https://www.d20pfsrd.com/basics-ability-scores/ability-scores#TOC-Wisdom-Wis-\">Wis</a>),&nbsp;<a href=\"https://www.d20pfsrd.com/skills/ride\">Ride</a>&nbsp;(<a href=\"https://www.d20pfsrd.com/basics-ability-scores/ability-scores#TOC-Dexterity-Dex-\">Dex</a>),&nbsp;<a href=\"https://www.d20pfsrd.com/skills/sense-motive\">Sense Motive</a>&nbsp;(<a href=\"https://www.d20pfsrd.com/basics-ability-scores/ability-scores#TOC-Wisdom-Wis-\">Wis</a>),&nbsp;<a href=\"https://www.d20pfsrd.com/skills/stealth\">Stealth</a>&nbsp;(<a href=\"https://www.d20pfsrd.com/basics-ability-scores/ability-scores#TOC-Dexterity-Dex-\">Dex</a>), and&nbsp;<a href=\"https://www.d20pfsrd.com/skills/swim\">Swim</a>&nbsp;(<a href=\"https://www.d20pfsrd.com/basics-ability-scores/ability-scores#TOC-Strength-Str-\">Str</a>).</p>\n<p><strong>Skill Ranks per Level</strong>: 4 +&nbsp;<a href=\"https://www.d20pfsrd.com/basics-ability-scores/ability-scores#TOC-Intelligence-Int-\">Int</a> modifier.</p>",
      "chat": "",
      "unidentified": ""
    },
    "tags": [],
    "changes": [],
    "changeFlags": {
      "loseDexToAC": false,
      "noStr": false,
      "noDex": false,
      "oneInt": false,
      "oneWis": false,
      "oneCha": false,
      "noEncumbrance": false,
      "mediumArmorFullSpeed": false,
      "heavyArmorFullSpeed": false
    },
    "links": {
      "children": [],
      "classAssociations": [
        {
          "id": "pf1.class-abilities.hp7tP0bRAj8eNqN9",
          "dataType": "compendium",
          "name": "Perfect Self (UC)",
          "img": "systems/pf1/icons/skills/violet_03.jpg",
          "hiddenLinks": {},
          "level": 20,
          "_index": 0
        },
        {
          "id": "pf1.class-abilities.VjHjPja5QABBgRvR",
          "dataType": "compendium",
          "name": "Bonus Feat (MNK)",
          "img": "systems/pf1/icons/skills/blue_10.jpg",
          "hiddenLinks": {},
          "level": 1,
          "_index": 1
        },
        {
          "id": "pf1.class-abilities.TaBxJdJQp5SFDPyn",
          "dataType": "compendium",
          "name": "Flurry of Blows (UC)",
          "img": "systems/pf1/icons/items/weapons/cestus.png",
          "hiddenLinks": {},
          "level": 1,
          "_index": 2
        },
        {
          "id": "pf1.class-abilities.2ausI8g6SsmbOpgF",
          "dataType": "compendium",
          "name": "Stunning Fist",
          "img": "systems/pf1/icons/skills/yellow_08.jpg",
          "hiddenLinks": {},
          "level": 1,
          "_index": 3
        },
        {
          "id": "pf1.class-abilities.a4SPdPuOFdmfJdHN",
          "dataType": "compendium",
          "name": "Unarmed Strike",
          "img": "systems/pf1/icons/skills/blood_11.jpg",
          "hiddenLinks": {},
          "level": 1,
          "_index": 4
        },
        {
          "id": "pf1.class-abilities.KQYCRLEdD4bGA5ak",
          "dataType": "compendium",
          "name": "Evasion",
          "img": "systems/pf1/icons/skills/blue_06.jpg",
          "hiddenLinks": {},
          "level": 2,
          "_index": 5
        },
        {
          "id": "pf1.class-abilities.Cc2eFfhJYlClCGEH",
          "dataType": "compendium",
          "name": "Improved Evasion",
          "img": "systems/pf1/icons/skills/blue_06.jpg",
          "hiddenLinks": {},
          "level": 9,
          "_index": 6
        },
        {
          "id": "pf1.class-abilities.7BfYNNkYjjBevun8",
          "dataType": "compendium",
          "name": "Ki Pool (UC)",
          "img": "systems/pf1/icons/skills/red_09.jpg",
          "hiddenLinks": {},
          "level": 3,
          "_index": 7
        },
        {
          "id": "pf1.class-abilities.NsP31IshAuY4gv0s",
          "dataType": "compendium",
          "name": "Ki powers (UC)",
          "img": "systems/pf1/icons/skills/ice_10.jpg",
          "hiddenLinks": {},
          "level": 4,
          "_index": 8
        },
        {
          "id": "pf1.class-abilities.8VUae7CIgCidvSfg",
          "dataType": "compendium",
          "name": "Still Mind",
          "img": "systems/pf1/icons/feats/blind-fight.jpg",
          "hiddenLinks": {},
          "level": 4,
          "_index": 9
        },
        {
          "id": "pf1.class-abilities.82G7gl4C1AvtSHI4",
          "dataType": "compendium",
          "name": "Purity of Body",
          "img": "systems/pf1/icons/skills/blue_35.jpg",
          "hiddenLinks": {},
          "level": 5,
          "_index": 10
        },
        {
          "id": "pf1.class-abilities.0eJ9MA8iVuOG8VJi",
          "dataType": "compendium",
          "name": "Style Strikes (UC)",
          "img": "systems/pf1/icons/skills/yellow_08.jpg",
          "hiddenLinks": {},
          "level": 5,
          "_index": 11
        },
        {
          "id": "pf1.class-abilities.TX1sNG0DXRxr9Tlx",
          "dataType": "compendium",
          "name": "Tongue of the Sun and Moon (UC)",
          "img": "systems/pf1/icons/skills/green_13.jpg",
          "hiddenLinks": {},
          "level": 13,
          "_index": 12
        },
        {
          "id": "pf1.class-abilities.5JlthJkVGEHPZypG",
          "dataType": "compendium",
          "name": "Timeless Body",
          "img": "systems/pf1/icons/skills/green_15.jpg",
          "hiddenLinks": {},
          "level": 17,
          "_index": 13
        },
        {
          "id": "pf1.class-abilities.TXGAg84E7T6MFA8v",
          "dataType": "compendium",
          "name": "Flawless Mind (UC)",
          "img": "systems/pf1/icons/skills/blue_35.jpg",
          "hiddenLinks": {},
          "level": 19,
          "_index": 14
        },
        {
          "id": "pf1.class-abilities.MJbeCji2yK4omd80",
          "dataType": "compendium",
          "name": "AC Bonus (UMK)",
          "img": "systems/pf1/icons/spells/fog-air-1.jpg",
          "hiddenLinks": {},
          "level": 1,
          "_index": 15
        },
        {
          "id": "pf1.class-abilities.Ic2FoBmkW0lrmMHS",
          "dataType": "compendium",
          "name": "Fast Movement (UMK)",
          "img": "systems/pf1/icons/feats/dodge.jpg",
          "hiddenLinks": {},
          "level": 3,
          "_index": 16
        }
      ]
    },
    "tag": "monkUnchained",
    "useCustomTag": true,
    "armorProf": {
      "value": [],
      "custom": ""
    },
    "weaponProf": {
      "value": [],
      "custom": ""
    },
    "classType": "base",
    "levels": {
      "value": 0,
      "_deprecated": true
    },
    "level": 1,
    "hd": 10,
    "hp": 10,
    "bab": "high",
    "skillsPerLevel": 4,
    "savingThrows": {
      "fort": {
        "value": "high"
      },
      "ref": {
        "value": "high"
      },
      "will": {
        "value": "low"
      }
    },
    "fc": {
      "hp": {
        "value": 0
      },
      "skill": {
        "value": 0
      },
      "alt": {
        "value": 0
      }
    },
    "classSkills": {
      "acr": true,
      "apr": false,
      "art": false,
      "blf": false,
      "clm": true,
      "crf": true,
      "dip": false,
      "dev": false,
      "dis": false,
      "esc": true,
      "fly": false,
      "han": false,
      "hea": false,
      "int": true,
      "kar": false,
      "kdu": false,
      "ken": false,
      "kge": false,
      "khi": true,
      "klo": false,
      "kna": false,
      "kno": false,
      "kpl": false,
      "kre": true,
      "lin": false,
      "lor": false,
      "per": true,
      "prf": true,
      "pro": true,
      "rid": true,
      "sen": true,
      "slt": false,
      "spl": false,
      "ste": true,
      "sur": false,
      "swm": true,
      "umd": false
    },
    "extraDescription": {
      "value": "<h2>Weapon Proficiency</h2>\n<p>Monks are proficient with the&nbsp;<a href=\"https://www.d20pfsrd.com/equipment/weapons/weapon-descriptions/brass-knuckles\">brass knuckles</a>,&nbsp;<a href=\"https://www.d20pfsrd.com/equipment/weapons/weapon-descriptions/cestus\">cestus</a>,&nbsp;<a href=\"https://www.d20pfsrd.com/equipment/weapons/weapon-descriptions/club\">club</a>, crossbow (<a href=\"https://www.d20pfsrd.com/equipment/weapons/weapon-descriptions/crossbow-light\">light</a>&nbsp;or&nbsp;<a href=\"https://www.d20pfsrd.com/equipment/weapons/weapon-descriptions/crossbow-heavy\">heavy</a>),&nbsp;<a href=\"https://www.d20pfsrd.com/equipment/weapons/weapon-descriptions/dagger\">dagger</a>,&nbsp;<a href=\"https://www.d20pfsrd.com/equipment/weapons/weapon-descriptions/handaxe\">handaxe</a>,&nbsp;<a href=\"https://www.d20pfsrd.com/equipment/weapons/weapon-descriptions/javelin\">javelin</a>,&nbsp;<a href=\"https://www.d20pfsrd.com/equipment/weapons/weapon-descriptions/kama\">kama</a>,&nbsp;<a href=\"https://www.d20pfsrd.com/equipment/weapons/weapon-descriptions/nunchaku\">nunchaku</a>,&nbsp;<a href=\"https://www.d20pfsrd.com/equipment/weapons/weapon-descriptions/quarterstaff\">quarterstaff</a>,&nbsp;<a href=\"https://www.d20pfsrd.com/equipment/weapons/weapon-descriptions/sai\">sai</a>,&nbsp;<a href=\"https://www.d20pfsrd.com/equipment/weapons/weapon-descriptions/shortspear\">shortspear</a>,&nbsp;<a href=\"https://www.d20pfsrd.com/equipment/weapons/weapon-descriptions/shortsword\">short sword</a>,&nbsp;<a href=\"https://www.d20pfsrd.com/equipment/weapons/weapon-descriptions/ammunition/ammunition-thrown-shuriken\">shuriken</a>,&nbsp;<a href=\"https://www.d20pfsrd.com/equipment/weapons/weapon-descriptions/siangham\">siangham</a>,&nbsp;<a href=\"https://www.d20pfsrd.com/equipment/weapons/weapon-descriptions/sling\">sling</a>,&nbsp;<a href=\"https://www.d20pfsrd.com/equipment/weapons/weapon-descriptions/spear\">spear</a>&nbsp;and&nbsp;<a href=\"https://www.d20pfsrd.com/equipment/weapons/weapon-descriptions/sword-temple\">temple sword</a>.</p>\n<p><strong>Armor and Shield Proficiency</strong>: Monks are not proficient with any armor or shields. When wearing&nbsp;<a href=\"https://www.d20pfsrd.com/basics-ability-scores/glossary#TOC-Armor-Bonus\">armor</a>, using a shield, or carrying a medium or heavy load, a monk loses his&nbsp;<a href=\"https://www.d20pfsrd.com/gamemastering/combat#TOC-Armor-Class\">AC</a>&nbsp;bonus, as well as his&nbsp;<a href=\"https://www.d20pfsrd.com/classes/core-classes/barbarian#TOC-Fast-Movement-Ex-\">fast movement</a>&nbsp;and&nbsp;<a href=\"https://www.d20pfsrd.com/classes/core-classes/Monk/#TOC-Flurry-of-Blows-Ex-\">flurry of blows</a>&nbsp;abilities.</p>\n<h2>AC Bonus (Ex)</h2>\n<p>When unarmored and unencumbered, the monk adds his&nbsp;<a href=\"https://www.d20pfsrd.com/basics-ability-scores/ability-scores#TOC-Wisdom-Wis-\">Wisdom</a>&nbsp;bonus (if any) to his&nbsp;<a href=\"https://www.d20pfsrd.com/gamemastering/combat#TOC-Armor-class\">AC</a>&nbsp;and his&nbsp;<a href=\"https://www.d20pfsrd.com/gamemastering/combat#TOC-Combat-Maneuver-Defense\">CMD</a>. In addition, a monk gains a +1 bonus to&nbsp;<a href=\"https://www.d20pfsrd.com/gamemastering/combat#TOC-Armor-Class\">AC</a>&nbsp;and&nbsp;<a href=\"https://www.d20pfsrd.com/gamemastering/combat#TOC-Combat-Maneuver-Defense\">CMD</a>&nbsp;at 4th level. This bonus increases by 1 for every four monk levels thereafter, up to a maximum of +5 at 20th level.</p>\n<p>These bonuses to&nbsp;<a href=\"https://www.d20pfsrd.com/gamemastering/combat#TOC-Armor-Class\">AC</a>&nbsp;apply even against touch attacks or when the monk is&nbsp;<a href=\"https://www.d20pfsrd.com/gamemastering/conditions#TOC-Flat-Footed\">flat-footed</a>. He loses these bonuses when he is immobilized or&nbsp;<a href=\"https://www.d20pfsrd.com/gamemastering/conditions#TOC-Helpless\">helpless</a>, when he wears any&nbsp;<a href=\"https://www.d20pfsrd.com/basics-ability-scores/glossary#TOC-Armor-Bonus\">armor</a>, when he carries a shield, or when he carries a medium or heavy load.</p>\n<h2>Flurry of Blows (Ex)</h2>\n<p>Starting at 1st level, a monk can make a flurry of blows as a full-attack action.</p>\n<p>When doing so, he may make one additional attack, taking a –2 penalty on all of his&nbsp;<a href=\"https://www.d20pfsrd.com/gamemastering/combat#TOC-Attack-Roll\">attack rolls</a>, as if using the&nbsp;<a href=\"https://www.d20pfsrd.com/feats/combat-feats/two-weapon-fighting-combat\">Two-Weapon Fighting</a>&nbsp;feat. These attacks can be any combination of unarmed strikes and attacks with a&nbsp;<a href=\"https://www.d20pfsrd.com/classes/core-classes/monk\">monk</a>&nbsp;special weapon (he does not need to use two weapons to utilize this ability).</p>\n<p>For the purpose of these attacks, the monk’s&nbsp;<a href=\"https://www.d20pfsrd.com/gamemastering/combat#TOC-Attack-Bonus\">base attack bonus</a>&nbsp;from his monk class levels is equal to his monk level. For all other purposes, such as qualifying for a feat or a prestige class, the monk uses his normal&nbsp;<a href=\"https://www.d20pfsrd.com/gamemastering/combat#TOC-Attack-Bonus\">base attack bonus</a>.</p>\n<p>At 8th level, the monk can make two additional attacks when he uses flurry of blows, as if using&nbsp;<a href=\"https://www.d20pfsrd.com/feats/combat-feats/improved-two-weapon-fighting-combat\">Improved Two-Weapon Fighting</a>&nbsp;(even if the monk does not meet the prerequisites for the feat).</p>\n<p>At 15th level, the monk can make three additional attacks using flurry of blows, as if using&nbsp;<a href=\"https://www.d20pfsrd.com/feats/combat-feats/greater-two-weapon-fighting-combat\">Greater Two-Weapon Fighting</a>&nbsp;(even if the monk does not meet the prerequisites for the feat).</p>\n<p>A monk applies his full&nbsp;<a href=\"https://www.d20pfsrd.com/basics-ability-scores/ability-scores#TOC-Strength-Str-\">Strength</a>&nbsp;bonus to his damage rolls for all successful attacks made with flurry of blows, whether the attacks are made with an off-hand or with a weapon wielded in both hands. A monk may substitute&nbsp;<a href=\"https://www.d20pfsrd.com/gamemastering/combat#TOC-Disarm\">disarm</a>,&nbsp;<a href=\"https://www.d20pfsrd.com/gamemastering/combat#TOC-Sunder\">sunder</a>, and&nbsp;<a href=\"https://www.d20pfsrd.com/gamemastering/combat#TOC-Trip\">trip</a>&nbsp;<a href=\"https://www.d20pfsrd.com/gamemastering/combat#TOC-Combat-Maneuvers\">combat maneuvers</a>&nbsp;for unarmed attacks as part of a flurry of blows. A monk cannot use any weapon other than an&nbsp;<a href=\"https://www.d20pfsrd.com/equipment/weapons/weapon-descriptions/strike-unarmed\">unarmed strike</a>&nbsp;or a special monk weapon as part of a flurry of blows. A monk with&nbsp;<a href=\"https://www.d20pfsrd.com/bestiary/rules-for-monsters/universal-monster-rules#TOC-Natural-Attacks\">natural weapons</a>&nbsp;cannot use such weapons as part of a flurry of blows, nor can he make&nbsp;<a href=\"https://www.d20pfsrd.com/bestiary/rules-for-monsters/universal-monster-rules#TOC-Natural-Attacks\">natural attacks</a>&nbsp;in addition to his flurry of blows attacks.</p>\n<h2>Unarmed Strike</h2>\n<p>At 1st level, a monk gains&nbsp;<a href=\"https://www.d20pfsrd.com/feats/combat-feats/improved-unarmed-strike-combat\">Improved Unarmed Strike</a>&nbsp;as a bonus feat. A monk’s attacks may be with fist, elbows, knees, and feet. This means that a monk may make unarmed strikes with his hands full. There is no such thing as an off-hand attack for a monk striking unarmed. A monk may thus apply his full&nbsp;<a href=\"https://www.d20pfsrd.com/basics-ability-scores/ability-scores#TOC-Strength-Str-\">Strength</a>&nbsp;bonus on damage rolls for all his unarmed strikes.</p>\n<p>Usually a monk’s unarmed strikes deal lethal damage, but he can choose to deal&nbsp;<a href=\"https://www.d20pfsrd.com/gamemastering/combat#TOC-Nonlethal-Damage\">nonlethal damage</a>&nbsp;instead with no penalty on his&nbsp;<a href=\"https://www.d20pfsrd.com/gamemastering/combat#TOC-Attack-Roll\">attack roll</a>. He has the same choice to deal lethal or&nbsp;<a href=\"https://www.d20pfsrd.com/gamemastering/combat#TOC-Nonlethal-Damage\">nonlethal damage</a>&nbsp;while&nbsp;<a href=\"https://www.d20pfsrd.com/gamemastering/combat#TOC-Grapple\">grappling</a>.</p>\n<p>A monk’s unarmed strike is treated as both a manufactured weapon and a natural weapon for the purpose of spells and effects that enhance or improve either manufactured weapons or&nbsp;<a href=\"https://www.d20pfsrd.com/bestiary/rules-for-monsters/universal-monster-rules#TOC-Natural-Attacks\">natural weapons</a>.</p>\n<p>A monk also deals more damage with his unarmed strikes than a normal person would, as shown above on&nbsp;Table: Monk. The unarmed damage values listed on&nbsp;<a href=\"https://www.d20pfsrd.com/classes/core-classes/monk#TABLE-Monk\">Table: Monk</a>&nbsp;are for Medium monks. A Small monk deals less damage than the amount given there with his unarmed attacks, while a Large monk deals more damage; see&nbsp;Table: Small or Large Monk Unarmed Damage.</p>\n<table style=\"background-color: #ffffff; border-color: #888888; margin-left: auto; margin-right: auto; height: 154px;\" border=\"1\" cellspacing=\"0px\" cellpadding=\"5\"><caption style=\"box-sizing: border-box; padding-top: 8px; padding-bottom: 8px; color: black; text-align: left; font-weight: bold;\">Table: Small or Large Monk Unarmed Damage</caption>\n<thead style=\"box-sizing: border-box; background-color: #cfe2f3;\">\n<tr style=\"box-sizing: border-box; height: 22px;\">\n<td class=\"text\" style=\"box-sizing: border-box; padding: 2px; text-align: center; height: 22px; width: 97px; border: 1px solid #888888;\">Level</td>\n<td class=\"text\" style=\"box-sizing: border-box; padding: 2px; text-align: center; height: 22px; width: 202px; border: 1px solid #888888;\">Damage (Small monk)</td>\n<td class=\"text\" style=\"box-sizing: border-box; padding: 2px; text-align: center; height: 22px; width: 201px; border: 1px solid #888888;\">Damage (Large monk)</td>\n</tr>\n</thead>\n<tbody style=\"box-sizing: border-box;\">\n<tr style=\"box-sizing: border-box; height: 22px;\">\n<td class=\"text\" style=\"box-sizing: border-box; padding: 2px; vertical-align: top; height: 22px; width: 97px; text-align: center; border: 1px solid #888888;\">1st–3rd</td>\n<td class=\"number\" style=\"box-sizing: border-box; padding: 2px; vertical-align: top; text-align: center; height: 22px; width: 202px; border: 1px solid #888888;\">1d4</td>\n<td class=\"number\" style=\"box-sizing: border-box; padding: 2px; vertical-align: top; text-align: center; height: 22px; width: 201px; border: 1px solid #888888;\">1d8</td>\n</tr>\n<tr style=\"box-sizing: border-box; background-color: #f3f3f3; height: 22px;\">\n<td class=\"text\" style=\"box-sizing: border-box; padding: 2px; vertical-align: top; height: 22px; width: 97px; text-align: center; border: 1px solid #888888;\">4th–7th</td>\n<td class=\"number\" style=\"box-sizing: border-box; padding: 2px; vertical-align: top; text-align: center; height: 22px; width: 202px; border: 1px solid #888888;\">1d6</td>\n<td class=\"number\" style=\"box-sizing: border-box; padding: 2px; vertical-align: top; text-align: center; height: 22px; width: 201px; border: 1px solid #888888;\">2d6</td>\n</tr>\n<tr style=\"box-sizing: border-box; height: 22px;\">\n<td class=\"text\" style=\"box-sizing: border-box; padding: 2px; vertical-align: top; height: 22px; width: 97px; text-align: center; border: 1px solid #888888;\">8th–11th</td>\n<td class=\"number\" style=\"box-sizing: border-box; padding: 2px; vertical-align: top; text-align: center; height: 22px; width: 202px; border: 1px solid #888888;\">1d8</td>\n<td class=\"number\" style=\"box-sizing: border-box; padding: 2px; vertical-align: top; text-align: center; height: 22px; width: 201px; border: 1px solid #888888;\">2d8</td>\n</tr>\n<tr style=\"box-sizing: border-box; background-color: #f3f3f3; height: 22px;\">\n<td class=\"text\" style=\"box-sizing: border-box; padding: 2px; vertical-align: top; height: 22px; width: 97px; text-align: center; border: 1px solid #888888;\">12th–15th</td>\n<td class=\"number\" style=\"box-sizing: border-box; padding: 2px; vertical-align: top; text-align: center; height: 22px; width: 202px; border: 1px solid #888888;\">1d10</td>\n<td class=\"number\" style=\"box-sizing: border-box; padding: 2px; vertical-align: top; text-align: center; height: 22px; width: 201px; border: 1px solid #888888;\">3d6</td>\n</tr>\n<tr style=\"box-sizing: border-box; height: 22px;\">\n<td class=\"text\" style=\"box-sizing: border-box; padding: 2px; vertical-align: top; height: 22px; width: 97px; text-align: center; border: 1px solid #888888;\">16th–19th</td>\n<td class=\"number\" style=\"box-sizing: border-box; padding: 2px; vertical-align: top; text-align: center; height: 22px; width: 202px; border: 1px solid #888888;\">2d6</td>\n<td class=\"number\" style=\"box-sizing: border-box; padding: 2px; vertical-align: top; text-align: center; height: 22px; width: 201px; border: 1px solid #888888;\">3d8</td>\n</tr>\n<tr style=\"box-sizing: border-box; background-color: #f3f3f3; height: 22px;\">\n<td class=\"number\" style=\"box-sizing: border-box; padding: 2px; vertical-align: top; text-align: center; height: 22px; width: 97px; border: 1px solid #888888;\">20th</td>\n<td class=\"number\" style=\"box-sizing: border-box; padding: 2px; vertical-align: top; text-align: center; height: 22px; width: 202px; border: 1px solid #888888;\">2d8</td>\n<td class=\"number\" style=\"box-sizing: border-box; padding: 2px; vertical-align: top; text-align: center; height: 22px; width: 201px; border: 1px solid #888888;\">4d8</td>\n</tr>\n</tbody>\n</table>\n<h2>Bonus Feat</h2>\n<p>At 1st level, 2nd level, and every 4 levels thereafter, a monk may select a bonus feat. These feats must be taken from the following list:</p>\n<p><a href=\"https://www.d20pfsrd.com/feats/combat-feats/catch-off-guard-combat\">Catch Off-Guard</a>,&nbsp;<a href=\"https://www.d20pfsrd.com/feats/combat-feats/combat-reflexes-combat\">Combat Reflexes</a>,&nbsp;<a href=\"https://www.d20pfsrd.com/feats/combat-feats/deflect-arrows-combat\">Deflect Arrows</a>,&nbsp;<a href=\"https://www.d20pfsrd.com/feats/combat-feats/dodge-combat\">Dodge</a>,&nbsp;<a href=\"https://www.d20pfsrd.com/feats/combat-feats/improved-grapple-combat\">Improved Grapple</a>,&nbsp;<a href=\"https://www.d20pfsrd.com/feats/combat-feats/scorpion-style-combat\">Scorpion Style</a>, and&nbsp;<a href=\"https://www.d20pfsrd.com/feats/combat-feats/throw-anything-combat\">Throw Anything</a>.</p>\n<p>At 6th level, the following feats are added to the list:</p>\n<p><a href=\"https://www.d20pfsrd.com/feats/combat-feats/gorgon-s-fist-combat\">Gorgon’s Fist</a>,&nbsp;<a href=\"https://www.d20pfsrd.com/feats/combat-feats/improved-bull-rush-combat\">Improved Bull Rush</a>,&nbsp;<a href=\"https://www.d20pfsrd.com/feats/combat-feats/improved-disarm-combat\">Improved Disarm</a>,&nbsp;<a href=\"https://www.d20pfsrd.com/feats/combat-feats/improved-feint-combat\">Improved Feint</a>,&nbsp;<a href=\"https://www.d20pfsrd.com/feats/combat-feats/improved-trip-combat\">Improved Trip</a>, and&nbsp;<a href=\"https://www.d20pfsrd.com/feats/combat-feats/mobility-combat\">Mobility</a>.</p>\n<p>At 10th level, the following feats are added to the list:</p>\n<p><a href=\"https://www.d20pfsrd.com/feats/combat-feats/improved-critical-combat-\">Improved Critical</a>,&nbsp;<a href=\"https://www.d20pfsrd.com/feats/combat-feats/medusa-s-wrath-combat\">Medusa’s Wrath</a>,&nbsp;<a href=\"https://www.d20pfsrd.com/feats/combat-feats/snatch-arrows-combat\">Snatch Arrows</a>, and&nbsp;<a href=\"https://www.d20pfsrd.com/feats/combat-feats/spring-attack-combat\">Spring Attack</a>.</p>\n<p>A monk need not have any of the prerequisites normally required for these feats to select them.</p>\n<h2>Stunning Fist (Ex)</h2>\n<p>At 1st level, the monk gains&nbsp;<a href=\"https://www.d20pfsrd.com/feats/combat-feats/stunning-fist-combat\">Stunning Fist</a>&nbsp;as a bonus feat, even if he does not meet the prerequisites. The monk may attempt a stunning attack a number of times per day equal to his monk level, plus one more time per day for every four levels he has in classes other than monk.</p>\n<p>At 4th level, and every 4 levels thereafter, the monk gains the ability to apply a new condition to the target of his&nbsp;<a href=\"https://www.d20pfsrd.com/feats/combat-feats/stunning-fist-combat\">Stunning Fist</a>. This condition replaces stunning the target for 1 round, and a successful&nbsp;<a href=\"https://www.d20pfsrd.com/gamemastering/combat#TOC-Saving-Throws\">saving throw</a>&nbsp;still negates the effect.</p>\n<p>At 4th level, he can choose to make the target&nbsp;<a href=\"https://www.d20pfsrd.com/gamemastering/conditions#TOC-Fatigued\">fatigued</a>.</p>\n<p>At 8th level, he can make the target&nbsp;<a href=\"https://www.d20pfsrd.com/gamemastering/conditions#TOC-Sickened\">sickened</a>&nbsp;for 1 minute.</p>\n<p>At 12th level, he can make the target&nbsp;<a href=\"https://www.d20pfsrd.com/gamemastering/conditions#TOC-Staggered\">staggered</a>&nbsp;for 1d6+1 rounds.</p>\n<p>At 16th level, he can permanently&nbsp;<a href=\"https://www.d20pfsrd.com/gamemastering/conditions#TOC-Blinded\">blind</a>&nbsp;or&nbsp;<a href=\"https://www.d20pfsrd.com/gamemastering/conditions#TOC-Deafened\">deafen</a>&nbsp;the target.</p>\n<p>At 20th level, he can&nbsp;<a href=\"https://www.d20pfsrd.com/gamemastering/conditions#TOC-Paralyzed\">paralyze</a>&nbsp;the target for 1d6+1 rounds.</p>\n<p>The monk must choose which condition will apply before the&nbsp;<a href=\"https://www.d20pfsrd.com/gamemastering/combat#TOC-Attack-Roll\">attack roll</a>&nbsp;is made. These effects do not stack with themselves (a creature&nbsp;<a href=\"https://www.d20pfsrd.com/gamemastering/conditions#TOC-Sickened\">sickened</a>&nbsp;by&nbsp;<a href=\"https://www.d20pfsrd.com/feats/combat-feats/stunning-fist-combat\">Stunning Fist</a>&nbsp;cannot become&nbsp;<a href=\"https://www.d20pfsrd.com/gamemastering/conditions#TOC-Nauseated\">nauseated</a>&nbsp;if hit by&nbsp;<a href=\"https://www.d20pfsrd.com/feats/combat-feats/stunning-fist-combat\">Stunning Fist</a>&nbsp;again), but additional hits do increase the duration.</p>\n<h2>Evasion (Ex)</h2>\n<p>At 2nd level or higher, a monk can avoid damage from many area-effect attacks. If a monk makes a successful&nbsp;<a href=\"https://www.d20pfsrd.com/gamemastering/combat#TOC-Reflex\">Reflex</a>&nbsp;<a href=\"https://www.d20pfsrd.com/gamemastering/combat#TOC-Saving-Throws\">saving throw</a>&nbsp;against an attack that normally deals half damage on a successful save, he instead takes no damage. Evasion can be used only if a monk is wearing light armor or no armor. A&nbsp;<a href=\"https://www.d20pfsrd.com/gamemastering/conditions#TOC-Helpless\">helpless</a>&nbsp;monk does not gain the benefit of&nbsp;<a href=\"https://www.d20pfsrd.com/classes/core-classes/rogue#TOC-Evasion-Ex-\">evasion</a>.</p>\n<h2>Fast Movement (Ex)</h2>\n<p>At 3rd level, a monk gains an&nbsp;<a href=\"https://www.d20pfsrd.com/basics-ability-scores/glossary#TOC-Enhancement-Bonus\">enhancement bonus</a>&nbsp;to his land speed, as shown on&nbsp;Table: monk. A monk in armor or carrying a medium or heavy load loses this extra speed.</p>\n<h2>Maneuver Training (Ex)</h2>\n<p>At 3rd level, a monk uses his monk level in place of his&nbsp;<a href=\"https://www.d20pfsrd.com/gamemastering/combat#TOC-Attack-Bonus\">base attack bonus</a>&nbsp;when calculating his&nbsp;<a href=\"https://www.d20pfsrd.com/gamemastering/combat#TOC-Combat-Maneuver-Bonus\">Combat Maneuver Bonus</a>. Base attack bonuses granted from other classes are unaffected and are added normally.</p>\n<h2>Still Mind (Ex)</h2>\n<p>A monk of 3rd level or higher gains a +2 bonus on&nbsp;<a href=\"https://www.d20pfsrd.com/gamemastering/combat#TOC-Saving-Throws\">saving throws</a>&nbsp;against&nbsp;<a href=\"https://www.d20pfsrd.com/magic#TOC-Enchantment\">enchantment</a>&nbsp;spells and effects.</p>\n<h2>Ki Pool (Su)</h2>\n<p>At 4th level, a monk gains a pool of&nbsp;ki&nbsp;points, supernatural energy he can use to accomplish amazing feats. The number of points in a monk’s&nbsp;ki&nbsp;pool is equal to 1/2 his monk level + his&nbsp;<a href=\"https://www.d20pfsrd.com/basics-ability-scores/ability-scores#TOC-Wisdom-Wis-\">Wisdom</a>&nbsp;modifier. As long as he has at least 1 point in his&nbsp;ki&nbsp;pool, he can make a&nbsp;ki&nbsp;strike.</p>\n<ul>\n<li>At 4th level,&nbsp;ki&nbsp;strike allows his unarmed attacks to be treated as magic weapons for the purpose of overcoming&nbsp;<a href=\"https://www.d20pfsrd.com/gamemastering/special-abilities#TOC-Damage-Reduction\">damage reduction</a>.</li>\n<li>At 7th level,&nbsp;his unarmed attacks are also treated as&nbsp;<a href=\"https://www.d20pfsrd.com/equipment/special-materials#TOC-Iron-Cold\">cold iron</a>&nbsp;and&nbsp;<a href=\"https://www.d20pfsrd.com/equipment/special-materials#TOC-Silver-Alchemical\">silver</a>&nbsp;for the purpose of overcoming&nbsp;<a href=\"https://www.d20pfsrd.com/gamemastering/special-abilities#TOC-Damage-Reduction\">damage reduction</a>.</li>\n<li>At 10th level, his unarmed attacks are also treated as lawful weapons for the purpose of overcoming&nbsp;<a href=\"https://www.d20pfsrd.com/gamemastering/special-abilities#TOC-Damage-Reduction\">damage reduction</a>.</li>\n<li>At 16th level, his unarmed attacks are treated as&nbsp;<a href=\"https://www.d20pfsrd.com/equipment/special-materials#TOC-Adamantine\">adamantine</a>&nbsp;weapons for the purpose of overcoming&nbsp;<a href=\"https://www.d20pfsrd.com/gamemastering/special-abilities#TOC-Damage-Reduction\">damage reduction</a>&nbsp;and bypassing&nbsp;<a href=\"https://www.d20pfsrd.com/equipment/damaging-objects#TOC-Hardness\">hardness</a>.</li>\n</ul>\n<p>By spending 1 point from his&nbsp;ki&nbsp;pool, a monk can do one of the following:</p>\n<ul>\n<li>Make one additional attack at his highest&nbsp;<a href=\"https://www.d20pfsrd.com/gamemastering/combat#TOC-Attack-Bonus\">attack bonus</a>&nbsp;when making a flurry of blows attack, or</li>\n<li>Increase his speed by 20 feet for 1 round, or</li>\n<li>Give himself a +4&nbsp;<a href=\"https://www.d20pfsrd.com/gamemastering/combat#TOC-Dodge-Bonuses\">dodge bonus</a>&nbsp;to&nbsp;<a href=\"https://www.d20pfsrd.com/gamemastering/combat#TOC-Armor-Class\">AC</a>&nbsp;for 1 round.</li>\n</ul>\n<p>Each of these powers is activated as a&nbsp;<a href=\"https://www.d20pfsrd.com/gamemastering/combat#TOC-Swift-Actions\">swift action</a>.</p>\n<p>The&nbsp;ki&nbsp;pool is replenished each morning after 8 hours of rest or meditation; these hours do not need to be consecutive.</p>\n<h2>Slow Fall (Ex)</h2>\n<p>At 4th level or higher, a monk within arm’s reach of a wall can use it to slow his descent. When first gaining this ability, he takes damage as if the fall were 20 feet shorter than it actually is. The monk’s ability to slow his fall (that is, to reduce the effective distance of the fall when next to a wall) improves with his monk level until at 20th level he can use a nearby wall to slow his descent and fall any distance without harm.</p>\n<h2>High Jump (Ex)</h2>\n<p>At 5th level, a monk adds his level to all&nbsp;<a href=\"https://www.d20pfsrd.com/skills/acrobatics\">Acrobatics</a>&nbsp;checks made to jump, both for vertical jumps and horizontal jumps. In addition, he always counts as having a running start when making jump checks using&nbsp;<a href=\"https://www.d20pfsrd.com/skills/acrobatics\">Acrobatics</a>. By spending 1 point from his&nbsp;ki&nbsp;pool as a&nbsp;<a href=\"https://www.d20pfsrd.com/gamemastering/combat#TOC-Swift-Actions\">swift action</a>, a monk gains a +20 bonus on&nbsp;<a href=\"https://www.d20pfsrd.com/skills/acrobatics\">Acrobatics</a>&nbsp;checks made to jump for 1 round.</p>\n<h2>Purity of Body (Ex)</h2>\n<p>At 5th level, a monk gains&nbsp;<a href=\"https://www.d20pfsrd.com/bestiary/rules-for-monsters/universal-monster-rules#TOC-Immunity-Ex-or-Su-\">immunity</a>&nbsp;to all diseases, including&nbsp;<a href=\"https://www.d20pfsrd.com/magic#TOC-Supernatural-Abilities-Su-\">supernatural</a>&nbsp;and magical diseases.</p>\n<h2>Wholeness of Body (Su)</h2>\n<p>At 7th level or higher, a monk can heal his own wounds as a&nbsp;<a href=\"https://www.d20pfsrd.com/gamemastering/combat#TOC-Standard-Actions\">standard action</a>. He can heal a number of&nbsp;<a href=\"https://www.d20pfsrd.com/gamemastering/combat#TOC-Hit-Points\">hit points</a>&nbsp;of damage equal to his monk level by using 2 points from his&nbsp;ki&nbsp;pool.</p>\n<h2>Improved Evasion (Ex)</h2>\n<p>At 9th level, a monk’s&nbsp;<a href=\"https://www.d20pfsrd.com/classes/core-classes/rogue#TOC-Evasion-Ex-\">evasion</a>&nbsp;ability improves. He still takes no damage on a successful&nbsp;<a href=\"https://www.d20pfsrd.com/gamemastering/combat#TOC-Reflex\">Reflex</a>&nbsp;<a href=\"https://www.d20pfsrd.com/gamemastering/combat#TOC-Saving-Throws\">saving throw</a>&nbsp;against attacks, but henceforth he takes only half damage on a failed save. A&nbsp;<a href=\"https://www.d20pfsrd.com/gamemastering/conditions#TOC-Helpless\">helpless</a>&nbsp;monk does not gain the benefit of&nbsp;<a href=\"https://www.d20pfsrd.com/classes/core-classes/rogue#TOC-Improved-Evasion-Ex-\">improved evasion</a>.</p>\n<h2>Diamond Body (Su)</h2>\n<p>At 11th level, a monk gains&nbsp;<a href=\"https://www.d20pfsrd.com/bestiary/rules-for-monsters/universal-monster-rules#TOC-Immunity-Ex-or-Su-\">immunity</a>&nbsp;to poisons of all kinds.</p>\n<h2>Abundant Step (Su)</h2>\n<p>At 12th level or higher, a monk can slip magically between spaces, as if using the spell&nbsp;<a href=\"https://www.d20pfsrd.com/magic/all-spells/d/dimension-door\">dimension door</a>. Using this ability is a&nbsp;<a href=\"https://www.d20pfsrd.com/gamemastering/combat#TOC-Move-Actions\">move action</a>&nbsp;that consumes 2 points from his&nbsp;ki&nbsp;pool. His&nbsp;<a href=\"https://www.d20pfsrd.com/magic#TOC-Caster-Level\">caster level</a>&nbsp;for this effect is equal to his monk level. He cannot take other creatures with him when he uses this ability.</p>\n<h2>Diamond Soul (Ex)</h2>\n<p>At 13th level, a monk gains&nbsp;<a href=\"https://www.d20pfsrd.com/gamemastering/special-abilities#TOC-Spell-Resistance\">spell resistance</a>&nbsp;equal to his current monk level + 10. In order to affect the monk with a spell, a spellcaster must get a result on a&nbsp;<a href=\"https://www.d20pfsrd.com/magic#TOC-Caster-Level\">caster level</a>&nbsp;check (1d20 +&nbsp;<a href=\"https://www.d20pfsrd.com/magic#TOC-Caster-Level\">caster level</a>) that equals or exceeds the monk’s&nbsp;<a href=\"https://www.d20pfsrd.com/gamemastering/special-abilities#TOC-Spell-Resistance\">spell resistance</a>.</p>\n<h2>Quivering Palm (Su)</h2>\n<p>Starting at 15th level, a monk can set up vibrations within the body of another creature that can thereafter be fatal if the monk so desires. He can use this quivering palm attack once per day, and he must announce his intent before making his&nbsp;<a href=\"https://www.d20pfsrd.com/gamemastering/combat#TOC-Attack-Roll\">attack roll</a>. Creatures immune to critical hits cannot be affected. Otherwise, if the monk strikes successfully and the target takes damage from the blow, the quivering palm attack succeeds. Thereafter, the monk can try to slay the victim at any later time, as long as the attempt is made within a number of days equal to his monk level. To make such an attempt, the monk merely wills the target to die (a&nbsp;<a href=\"https://www.d20pfsrd.com/gamemastering/combat#TOC-Free-Actions\">free action</a>), and unless the target makes a&nbsp;<a href=\"https://www.d20pfsrd.com/gamemastering/combat#TOC-Fortitude\">Fortitude</a>&nbsp;<a href=\"https://www.d20pfsrd.com/gamemastering/combat#TOC-Saving-Throws\">saving throw</a>&nbsp;(DC 10 + 1/2 the monk’s level + the monk’s&nbsp;<a href=\"https://www.d20pfsrd.com/basics-ability-scores/ability-scores#TOC-Wisdom-Wis-\">Wis</a>&nbsp;modifier), it dies. If the&nbsp;<a href=\"https://www.d20pfsrd.com/gamemastering/combat#TOC-Saving-Throws\">saving throw</a>&nbsp;is successful, the target is no longer in danger from that particular quivering palm attack, but it may still be affected by another one at a later time. A monk can have no more than 1 quivering palm in effect at one time. If a monk uses quivering palm while another is still in effect, the previous effect is negated.</p>\n<h2>Timeless Body (Ex)</h2>\n<p>At 17th level, a monk no longer takes penalties to his ability scores for aging and cannot be magically aged. Any such penalties that he has already taken, however, remain in place. Age bonuses still accrue, and the monk still dies of old age when his time is up.</p>\n<h2>Tongue of the Sun and Moon (Ex)</h2>\n<p>A monk of 17th level or higher can speak with any living creature.</p>\n<h2>Empty Body (Su)</h2>\n<p>At 19th level, a monk gains the ability to assume an ethereal state for 1 minute as though using the spell&nbsp;<a href=\"https://www.d20pfsrd.com/magic/all-spells/e/etherealness\">etherealness</a>. Using this ability is a&nbsp;<a href=\"https://www.d20pfsrd.com/gamemastering/combat#TOC-Move-Actions\">move action</a>&nbsp;that consumes 3 points from his&nbsp;ki&nbsp;pool. This ability only affects the monk and cannot be used to make other creatures ethereal.</p>\n<h2>Perfect Self</h2>\n<p>At 20th level, a monk becomes a magical creature. He is forevermore treated as an&nbsp;<a href=\"https://www.d20pfsrd.com/bestiary/rules-for-monsters/creature-types#TOC-Outsider\">outsider</a>&nbsp;rather than as a&nbsp;<a href=\"https://www.d20pfsrd.com/bestiary/rules-for-monsters/creature-types#TOC-Humanoid\">humanoid</a>&nbsp;(or whatever the monk’s creature type was) for the purpose of spells and magical effects. Additionally, the monk gains&nbsp;<a href=\"https://www.d20pfsrd.com/gamemastering/special-abilities#TOC-Damage-Reduction-DR-\">damage reduction</a>&nbsp;10/<a href=\"https://www.d20pfsrd.com/bestiary/rules-for-monsters/creature-types#TOC-Chaotic\">chaotic</a>, which allows him to ignore the first 10 points of damage from any attack made by a nonchaotic weapon or by any&nbsp;<a href=\"https://www.d20pfsrd.com/bestiary/rules-for-monsters/universal-monster-rules#TOC-Natural-Attacks\">natural attack</a>&nbsp;made by a creature that doesn’t have similar&nbsp;<a href=\"https://www.d20pfsrd.com/gamemastering/special-abilities#TOC-Damage-Reduction\">damage reduction</a>. Unlike other&nbsp;<a href=\"https://www.d20pfsrd.com/bestiary/rules-for-monsters/creature-types#TOC-Outsider\">outsiders</a>, the monk can still be brought back from the&nbsp;<a href=\"https://www.d20pfsrd.com/gamemastering/conditions#TOC-Dead\">dead</a>&nbsp;as if he were a member of his previous creature type.</p>",
      "chat": "",
      "unidentified": ""
    },
    "damage": {
      "parts": [],
      "critParts": [],
      "nonCritParts": []
    },
    "preparation": {
      "maxAmount": 0
    },
    "weaponData": {
      "critRange": 20,
      "critMult": 2
    },
    "uses": {
      "value": 0,
      "max": 0
    },
    "flags": {
      "boolean": [],
      "dictionary": []
    },
    "conditionals": [],
    "identifiedName": "Monk (Unchained)"
  },
  "flags": {},
  "img": "systems/pf1/icons/items/equipment/gloves.jpg",
  "effects": []
}