{
  "_id": "5iDrtRQMuIhLymUA",
  "name": "Summoner (Unchained)",
  "permission": {
    "default": 0
  },
  "type": "class",
  "data": {
    "description": {
      "value": "<p>There are those who take a different path when pursuing the arcane arts, reaching across the boundaries of the world to the far-f lung planes to call forth all manner of creatures to do their bidding. Known as summoners, these arcane practitioners form close bonds with particular outsiders, known as eidolons, which increase in power along with their callers. In the end, summoners and their eidolons become linked, sharing shards of the same souls.</p>\n<p><strong>Unchained:</strong> Most of the summoner’s class features are the same as those of the class’s original design—the biggest change comes to the eidolon. The unchained summoner selects a subtype for his eidolon (such as angel, demon, or protean), which determines a number of its evolutions and helps to shape the eidolon’s general attitude and appearance. In addition, some of the evolutions are now tied to one or more subtypes and base forms, to make eidolons that better match the expected appearances and abilities of such creatures. Finally, the summoner spell list has been greatly revised, removing a number of imbalances.</p>\n<p><strong>Alignment:</strong> Any.</p>\n<p><strong>Hit Die:</strong> d8.</p>\n<p><strong>Starting Wealth:</strong> 2d6 x 10 gp (average 70 gp).</p>\n<h2><span id=\"Class_Skills\">Class Skills</span></h2>\n<p>The summoner’s class skills are&nbsp;<a href=\"https://www.d20pfsrd.com/skills/craft\">Craft</a>&nbsp;(<a href=\"https://www.d20pfsrd.com/basics-ability-scores/ability-scores#TOC-Intelligence-Int-\" rel=\"nofollow\">Int</a>),&nbsp;<a href=\"https://www.d20pfsrd.com/skills/fly\">Fly</a>&nbsp;(<a href=\"https://www.d20pfsrd.com/basics-ability-scores/ability-scores#TOC-Dexterity-Dex-\" rel=\"nofollow\">Dex</a>),&nbsp;<a href=\"https://www.d20pfsrd.com/skills/handle-animal\">Handle Animal</a>&nbsp;(<a href=\"https://www.d20pfsrd.com/basics-ability-scores/ability-scores#TOC-Charisma-Cha-\" rel=\"nofollow\">Cha</a>),&nbsp;<a href=\"https://www.d20pfsrd.com/skills/knowledge\">Knowledge</a> (all) (<a href=\"https://www.d20pfsrd.com/basics-ability-scores/ability-scores#TOC-Intelligence-Int-\" rel=\"nofollow\">Int</a>),&nbsp;<a href=\"https://www.d20pfsrd.com/skills/linguistics\">Linguistics</a>&nbsp;(<a href=\"https://www.d20pfsrd.com/basics-ability-scores/ability-scores#TOC-Intelligence-Int-\" rel=\"nofollow\">Int</a>),&nbsp;<a href=\"https://www.d20pfsrd.com/skills/profession\">Profession</a>&nbsp;(Wis),&nbsp;<a href=\"https://www.d20pfsrd.com/skills/ride\">Ride</a>&nbsp;(<a href=\"https://www.d20pfsrd.com/basics-ability-scores/ability-scores#TOC-Dexterity-Dex-\" rel=\"nofollow\">Dex</a>),&nbsp;<a href=\"https://www.d20pfsrd.com/skills/spellcraft\">Spellcraft</a>&nbsp;(<a href=\"https://www.d20pfsrd.com/basics-ability-scores/ability-scores#TOC-Intelligence-Int-\" rel=\"nofollow\">Int</a>), and&nbsp;<a href=\"https://www.d20pfsrd.com/skills/use-magic-device\">Use Magic Device</a>&nbsp;(<a href=\"https://www.d20pfsrd.com/basics-ability-scores/ability-scores#TOC-Charisma-Cha-\" rel=\"nofollow\">Cha</a>).</p>\n<p><strong>Skill Ranks per Level</strong>: 2 +&nbsp;<a href=\"https://www.d20pfsrd.com/basics-ability-scores/ability-scores#TOC-Intelligence-Int-\">Int</a> modifier.</p>",
      "chat": "",
      "unidentified": ""
    },
    "tags": [],
    "changes": [],
    "changeFlags": {
      "loseDexToAC": false,
      "noStr": false,
      "noDex": false,
      "oneInt": false,
      "oneWis": false,
      "oneCha": false,
      "noEncumbrance": false,
      "mediumArmorFullSpeed": false,
      "heavyArmorFullSpeed": false
    },
    "links": {
      "children": [],
      "classAssociations": [
        {
          "id": "pf1.class-abilities.uURWe8xOp8w7YBQY",
          "dataType": "compendium",
          "name": "Twin Eidolon (UC)",
          "img": "systems/pf1/icons/skills/yellow_14.jpg",
          "hiddenLinks": {},
          "level": 20,
          "_index": 0
        },
        {
          "id": "pf1.class-abilities.Yr1ZNxgxDVsRwxtj",
          "dataType": "compendium",
          "name": "Eidolon (UC)",
          "img": "systems/pf1/icons/skills/blue_26.jpg",
          "hiddenLinks": {},
          "level": 1,
          "_index": 1
        },
        {
          "id": "pf1.class-abilities.xYuyemfGIFp0a97P",
          "dataType": "compendium",
          "name": "Life Link",
          "img": "systems/pf1/icons/spells/link-blue-3.jpg",
          "hiddenLinks": {},
          "level": 1,
          "_index": 2
        },
        {
          "id": "pf1.class-abilities.pMpN2f4mTgLt2NaR",
          "dataType": "compendium",
          "name": "Summon Monster (UC)",
          "img": "systems/pf1/icons/spells/runes-magenta-3.jpg",
          "hiddenLinks": {},
          "level": 1,
          "_index": 3
        },
        {
          "id": "pf1.class-abilities.AaZ3OdpKFsMC6dFg",
          "dataType": "compendium",
          "name": "Shield Ally",
          "img": "systems/pf1/icons/spells/protect-blue-1.jpg",
          "hiddenLinks": {},
          "level": 4,
          "_index": 4
        },
        {
          "id": "pf1.class-abilities.81XUmdEI8Yr0UXeG",
          "dataType": "compendium",
          "name": "Greater Shield Ally",
          "img": "systems/pf1/icons/skills/blue_18.jpg",
          "hiddenLinks": {},
          "level": 12,
          "_index": 5
        },
        {
          "id": "pf1.class-abilities.r5dE8fMdwjLVCHma",
          "dataType": "compendium",
          "name": "Aspect",
          "img": "systems/pf1/icons/skills/beast_01.jpg",
          "hiddenLinks": {},
          "level": 10,
          "_index": 6
        },
        {
          "id": "pf1.class-abilities.ew7BBQtX2HrVhxOu",
          "dataType": "compendium",
          "name": "Greater Aspect",
          "img": "systems/pf1/icons/skills/blue_34.jpg",
          "hiddenLinks": {},
          "level": 18,
          "_index": 7
        },
        {
          "id": "pf1.class-abilities.YOanbBgt7VuD5QDt",
          "dataType": "compendium",
          "name": "Maker's Call (UC)",
          "img": "systems/pf1/icons/spells/link-eerie-1.jpg",
          "hiddenLinks": {},
          "level": 6,
          "_index": 8
        },
        {
          "id": "pf1.class-abilities.fJuxnPlNDncuHuT5",
          "dataType": "compendium",
          "name": "Bond Senses (UC)",
          "img": "systems/pf1/icons/spells/evil-eye-eerie-2.jpg",
          "hiddenLinks": {},
          "level": 2,
          "_index": 9
        },
        {
          "id": "pf1.class-abilities.NAso2tQYl5bBfL1O",
          "dataType": "compendium",
          "name": "Transposition",
          "img": "systems/pf1/icons/spells/link-spirit-3.jpg",
          "hiddenLinks": {},
          "level": 8,
          "_index": 10
        },
        {
          "id": "pf1.class-abilities.ZF6FlGlFJRaiO4OH",
          "dataType": "compendium",
          "name": "Life Bond",
          "img": "systems/pf1/icons/skills/blood_04.jpg",
          "hiddenLinks": {},
          "level": 14,
          "_index": 11
        },
        {
          "id": "pf1.class-abilities.k9ZGUwUB9yJiz4Ea",
          "dataType": "compendium",
          "name": "Merge Forms (UC)",
          "img": "systems/pf1/icons/skills/blue_37.jpg",
          "hiddenLinks": {},
          "level": 16,
          "_index": 12
        }
      ]
    },
    "tag": "summonerUnchained",
    "useCustomTag": true,
    "armorProf": {
      "value": [
        "lgt"
      ],
      "custom": ""
    },
    "weaponProf": {
      "value": [
        "sim"
      ],
      "custom": ""
    },
    "classType": "base",
    "levels": {
      "value": 0,
      "_deprecated": true
    },
    "level": 1,
    "hd": 8,
    "hp": 8,
    "bab": "med",
    "skillsPerLevel": 2,
    "savingThrows": {
      "fort": {
        "value": "low"
      },
      "ref": {
        "value": "low"
      },
      "will": {
        "value": "high"
      }
    },
    "fc": {
      "hp": {
        "value": 0
      },
      "skill": {
        "value": 0
      },
      "alt": {
        "value": 0
      }
    },
    "classSkills": {
      "crf": true,
      "acr": false,
      "apr": false,
      "art": false,
      "blf": false,
      "clm": false,
      "dip": false,
      "dev": false,
      "dis": false,
      "esc": false,
      "fly": true,
      "han": true,
      "hea": false,
      "int": false,
      "kar": true,
      "kdu": true,
      "ken": true,
      "kge": true,
      "khi": true,
      "klo": true,
      "kna": true,
      "kno": true,
      "kpl": true,
      "kre": true,
      "lin": true,
      "lor": false,
      "per": false,
      "prf": false,
      "pro": true,
      "rid": true,
      "sen": false,
      "slt": false,
      "spl": true,
      "ste": false,
      "sur": false,
      "swm": false,
      "umd": true
    },
    "extraDescription": {
      "value": "<h2>Weapon and Armor Proficiency</h2>\n<p>Summoners are proficient with all simple weapons. Summoners are also proficient with light armor. A summoner can cast summoner spells while wearing light armor without incurring the normal arcane spell failure chance. Like any other arcane spellcaster, a summoner wearing medium or heavy&nbsp;<a href=\"https://www.d20pfsrd.com/basics-ability-scores/glossary#TOC-Armor-Bonus\">armor</a>, or using a shield, incurs a chance of arcane spell failure if the spell in question has a somatic component. A multiclass summoner still incurs the normal arcane spell failure chance for arcane spells received from other classes.</p>\n<h2>Spells</h2>\n<p>A summoner casts arcane spells drawn from the&nbsp;<a href=\"https://www.d20pfsrd.com/magic/spell-lists-and-domains/spell-lists-summoner\">summoner spell list</a>. He can cast any spell he knows without preparing it ahead of time, assuming he has not yet used up his allotment of spells per day for the spell’s level.</p>\n<p>To learn or cast a spell, a summoner must have a&nbsp;<a href=\"https://www.d20pfsrd.com/basics-ability-scores/ability-scores#TOC-Charisma-Cha-\">Charisma</a>&nbsp;score equal to at least 10 + the spell level. The Difficulty Class for a&nbsp;<a href=\"https://www.d20pfsrd.com/gamemastering/combat#TOC-Saving-Throws\">saving throw</a>&nbsp;against a summoner’s spell is 10 + the spell level + the summoner’s&nbsp;<a href=\"https://www.d20pfsrd.com/basics-ability-scores/ability-scores#TOC-Charisma-Cha-\">Charisma</a>&nbsp;modifier.</p>\n<p>A summoner can cast only a certain number of spells of each spell level each day. His base daily spell allotment is given on&nbsp;Table: Summoner. In addition, he receives bonus spells per day if he has a high&nbsp;<a href=\"https://www.d20pfsrd.com/basics-ability-scores/ability-scores#TOC-Charisma-Cha-\">Charisma</a>&nbsp;score (see&nbsp;<a href=\"https://www.d20pfsrd.com/basics-ability-scores/ability-scores#TOC-Abilities-and-Spellcasters\" rel=\"nofollow\">Table: Ability Modifiers and Bonus Spells</a>).</p>\n<p>A summoner’s selection of spells is extremely limited. A summoner begins play knowing four 0-level spells and two 1st-level spells of the summoner’s choice. At each new summoner level, he gains one or more new spells as indicated on&nbsp;Table: Summoner Spells Known. (Unlike spells per day, the number of spells a summoner knows is not affected by his&nbsp;<a href=\"https://www.d20pfsrd.com/basics-ability-scores/ability-scores#TOC-Charisma-Cha-\">Charisma</a>&nbsp;score. The numbers on&nbsp;Table: Summoner Spells Known&nbsp;are fixed.)</p>\n<p>Upon reaching 5th level, and at every third summoner level thereafter (8th, 11th, and so on), a summoner can choose to learn a new spell in place of one he already knows. In effect, the summoner “loses” the old spell in exchange for the new one. The new spell’s level must be the same as that of the spell being exchanged, and it must be at least one level lower than the highest-level summoner spell he can cast. A summoner may swap out only a single spell at any given level and must choose whether or not to swap the spell at the same time that he gains new spells known for the level.</p>\n<table style=\"box-sizing: border-box; border-spacing: 0px; background-color: #ffffff; margin: 10px; table-layout: fixed; border-color: #888888; min-width: 200px; color: #333333; font-family: Varela, sans-serif;\" border=\"1\" cellpadding=\"5\"><caption style=\"box-sizing: border-box; padding-top: 8px; padding-bottom: 8px; color: black; text-align: left; font-weight: bold;\">Table: Summoner Spells Known</caption>\n<thead style=\"box-sizing: border-box; background-color: #cfe2f3;\">\n<tr style=\"box-sizing: border-box;\">\n<th class=\"text\" style=\"box-sizing: border-box; padding: 2px; text-align: left; border: 1px solid #888888;\">Level</th>\n<th class=\"number\" style=\"box-sizing: border-box; padding: 2px; text-align: left; border: 1px solid #888888;\">0th</th>\n<th class=\"number\" style=\"box-sizing: border-box; padding: 2px; text-align: left; border: 1px solid #888888;\">1st</th>\n<th class=\"number\" style=\"box-sizing: border-box; padding: 2px; text-align: left; border: 1px solid #888888;\">2nd</th>\n<th class=\"number\" style=\"box-sizing: border-box; padding: 2px; text-align: left; border: 1px solid #888888;\">3rd</th>\n<th class=\"number\" style=\"box-sizing: border-box; padding: 2px; text-align: left; border: 1px solid #888888;\">4th</th>\n<th class=\"number\" style=\"box-sizing: border-box; padding: 2px; text-align: left; border: 1px solid #888888;\">5th</th>\n<th class=\"number\" style=\"box-sizing: border-box; padding: 2px; text-align: left; border: 1px solid #888888;\">6th</th>\n</tr>\n</thead>\n<tbody style=\"box-sizing: border-box;\">\n<tr style=\"box-sizing: border-box;\">\n<td class=\"number\" style=\"box-sizing: border-box; padding: 2px; vertical-align: top; text-align: center; border: 1px solid #888888;\">1st</td>\n<td class=\"number\" style=\"box-sizing: border-box; padding: 2px; vertical-align: top; text-align: center; border: 1px solid #888888;\">4</td>\n<td class=\"number\" style=\"box-sizing: border-box; padding: 2px; vertical-align: top; text-align: center; border: 1px solid #888888;\">2</td>\n<td class=\"marker\" style=\"box-sizing: border-box; padding: 2px; vertical-align: top; text-align: center; border: 1px solid #888888;\">—</td>\n<td class=\"marker\" style=\"box-sizing: border-box; padding: 2px; vertical-align: top; text-align: center; border: 1px solid #888888;\">—</td>\n<td class=\"marker\" style=\"box-sizing: border-box; padding: 2px; vertical-align: top; text-align: center; border: 1px solid #888888;\">—</td>\n<td class=\"marker\" style=\"box-sizing: border-box; padding: 2px; vertical-align: top; text-align: center; border: 1px solid #888888;\">—</td>\n<td class=\"marker\" style=\"box-sizing: border-box; padding: 2px; vertical-align: top; text-align: center; border: 1px solid #888888;\">—</td>\n</tr>\n<tr style=\"box-sizing: border-box; background-color: #f3f3f3;\">\n<td class=\"number\" style=\"box-sizing: border-box; padding: 2px; vertical-align: top; text-align: center; border: 1px solid #888888;\">2nd</td>\n<td class=\"number\" style=\"box-sizing: border-box; padding: 2px; vertical-align: top; text-align: center; border: 1px solid #888888;\">5</td>\n<td class=\"number\" style=\"box-sizing: border-box; padding: 2px; vertical-align: top; text-align: center; border: 1px solid #888888;\">3</td>\n<td class=\"marker\" style=\"box-sizing: border-box; padding: 2px; vertical-align: top; text-align: center; border: 1px solid #888888;\">—</td>\n<td class=\"marker\" style=\"box-sizing: border-box; padding: 2px; vertical-align: top; text-align: center; border: 1px solid #888888;\">—</td>\n<td class=\"marker\" style=\"box-sizing: border-box; padding: 2px; vertical-align: top; text-align: center; border: 1px solid #888888;\">—</td>\n<td class=\"marker\" style=\"box-sizing: border-box; padding: 2px; vertical-align: top; text-align: center; border: 1px solid #888888;\">—</td>\n<td class=\"marker\" style=\"box-sizing: border-box; padding: 2px; vertical-align: top; text-align: center; border: 1px solid #888888;\">—</td>\n</tr>\n<tr style=\"box-sizing: border-box;\">\n<td class=\"number\" style=\"box-sizing: border-box; padding: 2px; vertical-align: top; text-align: center; border: 1px solid #888888;\">3rd</td>\n<td class=\"number\" style=\"box-sizing: border-box; padding: 2px; vertical-align: top; text-align: center; border: 1px solid #888888;\">6</td>\n<td class=\"number\" style=\"box-sizing: border-box; padding: 2px; vertical-align: top; text-align: center; border: 1px solid #888888;\">4</td>\n<td class=\"marker\" style=\"box-sizing: border-box; padding: 2px; vertical-align: top; text-align: center; border: 1px solid #888888;\">—</td>\n<td class=\"marker\" style=\"box-sizing: border-box; padding: 2px; vertical-align: top; text-align: center; border: 1px solid #888888;\">—</td>\n<td class=\"marker\" style=\"box-sizing: border-box; padding: 2px; vertical-align: top; text-align: center; border: 1px solid #888888;\">—</td>\n<td class=\"marker\" style=\"box-sizing: border-box; padding: 2px; vertical-align: top; text-align: center; border: 1px solid #888888;\">—</td>\n<td class=\"marker\" style=\"box-sizing: border-box; padding: 2px; vertical-align: top; text-align: center; border: 1px solid #888888;\">—</td>\n</tr>\n<tr style=\"box-sizing: border-box; background-color: #f3f3f3;\">\n<td class=\"number\" style=\"box-sizing: border-box; padding: 2px; vertical-align: top; text-align: center; border: 1px solid #888888;\">4th</td>\n<td class=\"number\" style=\"box-sizing: border-box; padding: 2px; vertical-align: top; text-align: center; border: 1px solid #888888;\">6</td>\n<td class=\"number\" style=\"box-sizing: border-box; padding: 2px; vertical-align: top; text-align: center; border: 1px solid #888888;\">4</td>\n<td class=\"number\" style=\"box-sizing: border-box; padding: 2px; vertical-align: top; text-align: center; border: 1px solid #888888;\">2</td>\n<td class=\"marker\" style=\"box-sizing: border-box; padding: 2px; vertical-align: top; text-align: center; border: 1px solid #888888;\">—</td>\n<td class=\"marker\" style=\"box-sizing: border-box; padding: 2px; vertical-align: top; text-align: center; border: 1px solid #888888;\">—</td>\n<td class=\"marker\" style=\"box-sizing: border-box; padding: 2px; vertical-align: top; text-align: center; border: 1px solid #888888;\">—</td>\n<td class=\"marker\" style=\"box-sizing: border-box; padding: 2px; vertical-align: top; text-align: center; border: 1px solid #888888;\">—</td>\n</tr>\n<tr style=\"box-sizing: border-box;\">\n<td class=\"number\" style=\"box-sizing: border-box; padding: 2px; vertical-align: top; text-align: center; border: 1px solid #888888;\">5th</td>\n<td class=\"number\" style=\"box-sizing: border-box; padding: 2px; vertical-align: top; text-align: center; border: 1px solid #888888;\">6</td>\n<td class=\"number\" style=\"box-sizing: border-box; padding: 2px; vertical-align: top; text-align: center; border: 1px solid #888888;\">4</td>\n<td class=\"number\" style=\"box-sizing: border-box; padding: 2px; vertical-align: top; text-align: center; border: 1px solid #888888;\">3</td>\n<td class=\"marker\" style=\"box-sizing: border-box; padding: 2px; vertical-align: top; text-align: center; border: 1px solid #888888;\">—</td>\n<td class=\"marker\" style=\"box-sizing: border-box; padding: 2px; vertical-align: top; text-align: center; border: 1px solid #888888;\">—</td>\n<td class=\"marker\" style=\"box-sizing: border-box; padding: 2px; vertical-align: top; text-align: center; border: 1px solid #888888;\">—</td>\n<td class=\"marker\" style=\"box-sizing: border-box; padding: 2px; vertical-align: top; text-align: center; border: 1px solid #888888;\">—</td>\n</tr>\n<tr style=\"box-sizing: border-box; background-color: #f3f3f3;\">\n<td class=\"number\" style=\"box-sizing: border-box; padding: 2px; vertical-align: top; text-align: center; border: 1px solid #888888;\">6th</td>\n<td class=\"number\" style=\"box-sizing: border-box; padding: 2px; vertical-align: top; text-align: center; border: 1px solid #888888;\">6</td>\n<td class=\"number\" style=\"box-sizing: border-box; padding: 2px; vertical-align: top; text-align: center; border: 1px solid #888888;\">4</td>\n<td class=\"number\" style=\"box-sizing: border-box; padding: 2px; vertical-align: top; text-align: center; border: 1px solid #888888;\">4</td>\n<td class=\"marker\" style=\"box-sizing: border-box; padding: 2px; vertical-align: top; text-align: center; border: 1px solid #888888;\">—</td>\n<td class=\"marker\" style=\"box-sizing: border-box; padding: 2px; vertical-align: top; text-align: center; border: 1px solid #888888;\">—</td>\n<td class=\"marker\" style=\"box-sizing: border-box; padding: 2px; vertical-align: top; text-align: center; border: 1px solid #888888;\">—</td>\n<td class=\"marker\" style=\"box-sizing: border-box; padding: 2px; vertical-align: top; text-align: center; border: 1px solid #888888;\">—</td>\n</tr>\n<tr style=\"box-sizing: border-box;\">\n<td class=\"number\" style=\"box-sizing: border-box; padding: 2px; vertical-align: top; text-align: center; border: 1px solid #888888;\">7th</td>\n<td class=\"number\" style=\"box-sizing: border-box; padding: 2px; vertical-align: top; text-align: center; border: 1px solid #888888;\">6</td>\n<td class=\"number\" style=\"box-sizing: border-box; padding: 2px; vertical-align: top; text-align: center; border: 1px solid #888888;\">5</td>\n<td class=\"number\" style=\"box-sizing: border-box; padding: 2px; vertical-align: top; text-align: center; border: 1px solid #888888;\">4</td>\n<td class=\"number\" style=\"box-sizing: border-box; padding: 2px; vertical-align: top; text-align: center; border: 1px solid #888888;\">2</td>\n<td class=\"marker\" style=\"box-sizing: border-box; padding: 2px; vertical-align: top; text-align: center; border: 1px solid #888888;\">—</td>\n<td class=\"marker\" style=\"box-sizing: border-box; padding: 2px; vertical-align: top; text-align: center; border: 1px solid #888888;\">—</td>\n<td class=\"marker\" style=\"box-sizing: border-box; padding: 2px; vertical-align: top; text-align: center; border: 1px solid #888888;\">—</td>\n</tr>\n<tr style=\"box-sizing: border-box; background-color: #f3f3f3;\">\n<td class=\"number\" style=\"box-sizing: border-box; padding: 2px; vertical-align: top; text-align: center; border: 1px solid #888888;\">8th</td>\n<td class=\"number\" style=\"box-sizing: border-box; padding: 2px; vertical-align: top; text-align: center; border: 1px solid #888888;\">6</td>\n<td class=\"number\" style=\"box-sizing: border-box; padding: 2px; vertical-align: top; text-align: center; border: 1px solid #888888;\">5</td>\n<td class=\"number\" style=\"box-sizing: border-box; padding: 2px; vertical-align: top; text-align: center; border: 1px solid #888888;\">4</td>\n<td class=\"number\" style=\"box-sizing: border-box; padding: 2px; vertical-align: top; text-align: center; border: 1px solid #888888;\">3</td>\n<td class=\"marker\" style=\"box-sizing: border-box; padding: 2px; vertical-align: top; text-align: center; border: 1px solid #888888;\">—</td>\n<td class=\"marker\" style=\"box-sizing: border-box; padding: 2px; vertical-align: top; text-align: center; border: 1px solid #888888;\">—</td>\n<td class=\"marker\" style=\"box-sizing: border-box; padding: 2px; vertical-align: top; text-align: center; border: 1px solid #888888;\">—</td>\n</tr>\n<tr style=\"box-sizing: border-box;\">\n<td class=\"number\" style=\"box-sizing: border-box; padding: 2px; vertical-align: top; text-align: center; border: 1px solid #888888;\">9th</td>\n<td class=\"number\" style=\"box-sizing: border-box; padding: 2px; vertical-align: top; text-align: center; border: 1px solid #888888;\">6</td>\n<td class=\"number\" style=\"box-sizing: border-box; padding: 2px; vertical-align: top; text-align: center; border: 1px solid #888888;\">5</td>\n<td class=\"number\" style=\"box-sizing: border-box; padding: 2px; vertical-align: top; text-align: center; border: 1px solid #888888;\">4</td>\n<td class=\"number\" style=\"box-sizing: border-box; padding: 2px; vertical-align: top; text-align: center; border: 1px solid #888888;\">4</td>\n<td class=\"marker\" style=\"box-sizing: border-box; padding: 2px; vertical-align: top; text-align: center; border: 1px solid #888888;\">—</td>\n<td class=\"marker\" style=\"box-sizing: border-box; padding: 2px; vertical-align: top; text-align: center; border: 1px solid #888888;\">—</td>\n<td class=\"marker\" style=\"box-sizing: border-box; padding: 2px; vertical-align: top; text-align: center; border: 1px solid #888888;\">—</td>\n</tr>\n<tr style=\"box-sizing: border-box; background-color: #f3f3f3;\">\n<td class=\"number\" style=\"box-sizing: border-box; padding: 2px; vertical-align: top; text-align: center; border: 1px solid #888888;\">10th</td>\n<td class=\"number\" style=\"box-sizing: border-box; padding: 2px; vertical-align: top; text-align: center; border: 1px solid #888888;\">6</td>\n<td class=\"number\" style=\"box-sizing: border-box; padding: 2px; vertical-align: top; text-align: center; border: 1px solid #888888;\">5</td>\n<td class=\"number\" style=\"box-sizing: border-box; padding: 2px; vertical-align: top; text-align: center; border: 1px solid #888888;\">5</td>\n<td class=\"number\" style=\"box-sizing: border-box; padding: 2px; vertical-align: top; text-align: center; border: 1px solid #888888;\">4</td>\n<td class=\"number\" style=\"box-sizing: border-box; padding: 2px; vertical-align: top; text-align: center; border: 1px solid #888888;\">2</td>\n<td class=\"marker\" style=\"box-sizing: border-box; padding: 2px; vertical-align: top; text-align: center; border: 1px solid #888888;\">—</td>\n<td class=\"marker\" style=\"box-sizing: border-box; padding: 2px; vertical-align: top; text-align: center; border: 1px solid #888888;\">—</td>\n</tr>\n<tr style=\"box-sizing: border-box;\">\n<td class=\"number\" style=\"box-sizing: border-box; padding: 2px; vertical-align: top; text-align: center; border: 1px solid #888888;\">11th</td>\n<td class=\"number\" style=\"box-sizing: border-box; padding: 2px; vertical-align: top; text-align: center; border: 1px solid #888888;\">6</td>\n<td class=\"number\" style=\"box-sizing: border-box; padding: 2px; vertical-align: top; text-align: center; border: 1px solid #888888;\">6</td>\n<td class=\"number\" style=\"box-sizing: border-box; padding: 2px; vertical-align: top; text-align: center; border: 1px solid #888888;\">5</td>\n<td class=\"number\" style=\"box-sizing: border-box; padding: 2px; vertical-align: top; text-align: center; border: 1px solid #888888;\">4</td>\n<td class=\"number\" style=\"box-sizing: border-box; padding: 2px; vertical-align: top; text-align: center; border: 1px solid #888888;\">3</td>\n<td class=\"marker\" style=\"box-sizing: border-box; padding: 2px; vertical-align: top; text-align: center; border: 1px solid #888888;\">—</td>\n<td class=\"marker\" style=\"box-sizing: border-box; padding: 2px; vertical-align: top; text-align: center; border: 1px solid #888888;\">—</td>\n</tr>\n<tr style=\"box-sizing: border-box; background-color: #f3f3f3;\">\n<td class=\"number\" style=\"box-sizing: border-box; padding: 2px; vertical-align: top; text-align: center; border: 1px solid #888888;\">12th</td>\n<td class=\"number\" style=\"box-sizing: border-box; padding: 2px; vertical-align: top; text-align: center; border: 1px solid #888888;\">6</td>\n<td class=\"number\" style=\"box-sizing: border-box; padding: 2px; vertical-align: top; text-align: center; border: 1px solid #888888;\">6</td>\n<td class=\"number\" style=\"box-sizing: border-box; padding: 2px; vertical-align: top; text-align: center; border: 1px solid #888888;\">5</td>\n<td class=\"number\" style=\"box-sizing: border-box; padding: 2px; vertical-align: top; text-align: center; border: 1px solid #888888;\">4</td>\n<td class=\"number\" style=\"box-sizing: border-box; padding: 2px; vertical-align: top; text-align: center; border: 1px solid #888888;\">4</td>\n<td class=\"marker\" style=\"box-sizing: border-box; padding: 2px; vertical-align: top; text-align: center; border: 1px solid #888888;\">—</td>\n<td class=\"marker\" style=\"box-sizing: border-box; padding: 2px; vertical-align: top; text-align: center; border: 1px solid #888888;\">—</td>\n</tr>\n<tr style=\"box-sizing: border-box;\">\n<td class=\"number\" style=\"box-sizing: border-box; padding: 2px; vertical-align: top; text-align: center; border: 1px solid #888888;\">13th</td>\n<td class=\"number\" style=\"box-sizing: border-box; padding: 2px; vertical-align: top; text-align: center; border: 1px solid #888888;\">6</td>\n<td class=\"number\" style=\"box-sizing: border-box; padding: 2px; vertical-align: top; text-align: center; border: 1px solid #888888;\">6</td>\n<td class=\"number\" style=\"box-sizing: border-box; padding: 2px; vertical-align: top; text-align: center; border: 1px solid #888888;\">5</td>\n<td class=\"number\" style=\"box-sizing: border-box; padding: 2px; vertical-align: top; text-align: center; border: 1px solid #888888;\">5</td>\n<td class=\"number\" style=\"box-sizing: border-box; padding: 2px; vertical-align: top; text-align: center; border: 1px solid #888888;\">4</td>\n<td class=\"number\" style=\"box-sizing: border-box; padding: 2px; vertical-align: top; text-align: center; border: 1px solid #888888;\">2</td>\n<td class=\"marker\" style=\"box-sizing: border-box; padding: 2px; vertical-align: top; text-align: center; border: 1px solid #888888;\">—</td>\n</tr>\n<tr style=\"box-sizing: border-box; background-color: #f3f3f3;\">\n<td class=\"number\" style=\"box-sizing: border-box; padding: 2px; vertical-align: top; text-align: center; border: 1px solid #888888;\">14th</td>\n<td class=\"number\" style=\"box-sizing: border-box; padding: 2px; vertical-align: top; text-align: center; border: 1px solid #888888;\">6</td>\n<td class=\"number\" style=\"box-sizing: border-box; padding: 2px; vertical-align: top; text-align: center; border: 1px solid #888888;\">6</td>\n<td class=\"number\" style=\"box-sizing: border-box; padding: 2px; vertical-align: top; text-align: center; border: 1px solid #888888;\">6</td>\n<td class=\"number\" style=\"box-sizing: border-box; padding: 2px; vertical-align: top; text-align: center; border: 1px solid #888888;\">5</td>\n<td class=\"number\" style=\"box-sizing: border-box; padding: 2px; vertical-align: top; text-align: center; border: 1px solid #888888;\">4</td>\n<td class=\"number\" style=\"box-sizing: border-box; padding: 2px; vertical-align: top; text-align: center; border: 1px solid #888888;\">3</td>\n<td class=\"marker\" style=\"box-sizing: border-box; padding: 2px; vertical-align: top; text-align: center; border: 1px solid #888888;\">—</td>\n</tr>\n<tr style=\"box-sizing: border-box;\">\n<td class=\"number\" style=\"box-sizing: border-box; padding: 2px; vertical-align: top; text-align: center; border: 1px solid #888888;\">15th</td>\n<td class=\"number\" style=\"box-sizing: border-box; padding: 2px; vertical-align: top; text-align: center; border: 1px solid #888888;\">6</td>\n<td class=\"number\" style=\"box-sizing: border-box; padding: 2px; vertical-align: top; text-align: center; border: 1px solid #888888;\">6</td>\n<td class=\"number\" style=\"box-sizing: border-box; padding: 2px; vertical-align: top; text-align: center; border: 1px solid #888888;\">6</td>\n<td class=\"number\" style=\"box-sizing: border-box; padding: 2px; vertical-align: top; text-align: center; border: 1px solid #888888;\">5</td>\n<td class=\"number\" style=\"box-sizing: border-box; padding: 2px; vertical-align: top; text-align: center; border: 1px solid #888888;\">4</td>\n<td class=\"number\" style=\"box-sizing: border-box; padding: 2px; vertical-align: top; text-align: center; border: 1px solid #888888;\">4</td>\n<td class=\"marker\" style=\"box-sizing: border-box; padding: 2px; vertical-align: top; text-align: center; border: 1px solid #888888;\">—</td>\n</tr>\n<tr style=\"box-sizing: border-box; background-color: #f3f3f3;\">\n<td class=\"number\" style=\"box-sizing: border-box; padding: 2px; vertical-align: top; text-align: center; border: 1px solid #888888;\">16th</td>\n<td class=\"number\" style=\"box-sizing: border-box; padding: 2px; vertical-align: top; text-align: center; border: 1px solid #888888;\">6</td>\n<td class=\"number\" style=\"box-sizing: border-box; padding: 2px; vertical-align: top; text-align: center; border: 1px solid #888888;\">6</td>\n<td class=\"number\" style=\"box-sizing: border-box; padding: 2px; vertical-align: top; text-align: center; border: 1px solid #888888;\">6</td>\n<td class=\"number\" style=\"box-sizing: border-box; padding: 2px; vertical-align: top; text-align: center; border: 1px solid #888888;\">5</td>\n<td class=\"number\" style=\"box-sizing: border-box; padding: 2px; vertical-align: top; text-align: center; border: 1px solid #888888;\">5</td>\n<td class=\"number\" style=\"box-sizing: border-box; padding: 2px; vertical-align: top; text-align: center; border: 1px solid #888888;\">4</td>\n<td class=\"number\" style=\"box-sizing: border-box; padding: 2px; vertical-align: top; text-align: center; border: 1px solid #888888;\">2</td>\n</tr>\n<tr style=\"box-sizing: border-box;\">\n<td class=\"number\" style=\"box-sizing: border-box; padding: 2px; vertical-align: top; text-align: center; border: 1px solid #888888;\">17th</td>\n<td class=\"number\" style=\"box-sizing: border-box; padding: 2px; vertical-align: top; text-align: center; border: 1px solid #888888;\">6</td>\n<td class=\"number\" style=\"box-sizing: border-box; padding: 2px; vertical-align: top; text-align: center; border: 1px solid #888888;\">6</td>\n<td class=\"number\" style=\"box-sizing: border-box; padding: 2px; vertical-align: top; text-align: center; border: 1px solid #888888;\">6</td>\n<td class=\"number\" style=\"box-sizing: border-box; padding: 2px; vertical-align: top; text-align: center; border: 1px solid #888888;\">6</td>\n<td class=\"number\" style=\"box-sizing: border-box; padding: 2px; vertical-align: top; text-align: center; border: 1px solid #888888;\">5</td>\n<td class=\"number\" style=\"box-sizing: border-box; padding: 2px; vertical-align: top; text-align: center; border: 1px solid #888888;\">4</td>\n<td class=\"number\" style=\"box-sizing: border-box; padding: 2px; vertical-align: top; text-align: center; border: 1px solid #888888;\">3</td>\n</tr>\n<tr style=\"box-sizing: border-box; background-color: #f3f3f3;\">\n<td class=\"number\" style=\"box-sizing: border-box; padding: 2px; vertical-align: top; text-align: center; border: 1px solid #888888;\">18th</td>\n<td class=\"number\" style=\"box-sizing: border-box; padding: 2px; vertical-align: top; text-align: center; border: 1px solid #888888;\">6</td>\n<td class=\"number\" style=\"box-sizing: border-box; padding: 2px; vertical-align: top; text-align: center; border: 1px solid #888888;\">6</td>\n<td class=\"number\" style=\"box-sizing: border-box; padding: 2px; vertical-align: top; text-align: center; border: 1px solid #888888;\">6</td>\n<td class=\"number\" style=\"box-sizing: border-box; padding: 2px; vertical-align: top; text-align: center; border: 1px solid #888888;\">6</td>\n<td class=\"number\" style=\"box-sizing: border-box; padding: 2px; vertical-align: top; text-align: center; border: 1px solid #888888;\">5</td>\n<td class=\"number\" style=\"box-sizing: border-box; padding: 2px; vertical-align: top; text-align: center; border: 1px solid #888888;\">4</td>\n<td class=\"number\" style=\"box-sizing: border-box; padding: 2px; vertical-align: top; text-align: center; border: 1px solid #888888;\">4</td>\n</tr>\n<tr style=\"box-sizing: border-box;\">\n<td class=\"number\" style=\"box-sizing: border-box; padding: 2px; vertical-align: top; text-align: center; border: 1px solid #888888;\">19th</td>\n<td class=\"number\" style=\"box-sizing: border-box; padding: 2px; vertical-align: top; text-align: center; border: 1px solid #888888;\">6</td>\n<td class=\"number\" style=\"box-sizing: border-box; padding: 2px; vertical-align: top; text-align: center; border: 1px solid #888888;\">6</td>\n<td class=\"number\" style=\"box-sizing: border-box; padding: 2px; vertical-align: top; text-align: center; border: 1px solid #888888;\">6</td>\n<td class=\"number\" style=\"box-sizing: border-box; padding: 2px; vertical-align: top; text-align: center; border: 1px solid #888888;\">6</td>\n<td class=\"number\" style=\"box-sizing: border-box; padding: 2px; vertical-align: top; text-align: center; border: 1px solid #888888;\">5</td>\n<td class=\"number\" style=\"box-sizing: border-box; padding: 2px; vertical-align: top; text-align: center; border: 1px solid #888888;\">5</td>\n<td class=\"number\" style=\"box-sizing: border-box; padding: 2px; vertical-align: top; text-align: center; border: 1px solid #888888;\">4</td>\n</tr>\n<tr style=\"box-sizing: border-box; background-color: #f3f3f3;\">\n<td class=\"number\" style=\"box-sizing: border-box; padding: 2px; vertical-align: top; text-align: center; border: 1px solid #888888;\">20th</td>\n<td class=\"number\" style=\"box-sizing: border-box; padding: 2px; vertical-align: top; text-align: center; border: 1px solid #888888;\">6</td>\n<td class=\"number\" style=\"box-sizing: border-box; padding: 2px; vertical-align: top; text-align: center; border: 1px solid #888888;\">6</td>\n<td class=\"number\" style=\"box-sizing: border-box; padding: 2px; vertical-align: top; text-align: center; border: 1px solid #888888;\">6</td>\n<td class=\"number\" style=\"box-sizing: border-box; padding: 2px; vertical-align: top; text-align: center; border: 1px solid #888888;\">6</td>\n<td class=\"number\" style=\"box-sizing: border-box; padding: 2px; vertical-align: top; text-align: center; border: 1px solid #888888;\">6</td>\n<td class=\"number\" style=\"box-sizing: border-box; padding: 2px; vertical-align: top; text-align: center; border: 1px solid #888888;\">5</td>\n<td class=\"number\" style=\"box-sizing: border-box; padding: 2px; vertical-align: top; text-align: center; border: 1px solid #888888;\">5</td>\n</tr>\n</tbody>\n</table>\n<h2>Cantrips</h2>\n<p>A summoner learns a number of cantrips, or 0-level spells, as noted on&nbsp;Table: Summoner Spells Known&nbsp;under “Spells Known.” These spells are cast like any other spell, but they may be cast any number of times per day. Cantrips prepared using other spell slots, due to&nbsp;<a href=\"https://www.d20pfsrd.com/feats#TOC-Metamagic-Feats\">metamagic</a>&nbsp;feats, for example, consume spell slots as normally.</p>\n<h2>Eidolon</h2>\n<p>A summoner begins play with the ability to summon to his side a powerful outsider called an eidolon. The eidolon forms a link with the summoner, who, forever after, summons an aspect of the same creature. An eidolon has the same alignment as the summoner that calls it and can speak all of his languages. Eidolons are treated as summoned creatures, except that they are not sent back to their home plane until reduced to a number of negative hit points equal to or greater than their&nbsp;<a href=\"https://www.d20pfsrd.com/basics-ability-scores/ability-scores#TOC-Constitution-Con-\">Constitution</a>&nbsp;score. In addition, due to its tie to its summoner, an eidolon can touch and attack creatures warded by&nbsp;<a href=\"https://www.d20pfsrd.com/magic/all-spells/p/protection-from-evil\">protection from evil</a>&nbsp;and similar effects that prevent contact with summoned creatures.</p>\n<p>A summoner can summon his eidolon in a ritual that takes 1 minute to perform. When summoned in this way, the eidolon&nbsp;<a href=\"https://www.d20pfsrd.com/gamemastering/combat#TOC-Hit-Points\">hit points</a>&nbsp;are unchanged from the last time it was dismissed or banished. The only exception to this is if the eidolon was slain, in which case it returns with half its normal&nbsp;<a href=\"https://www.d20pfsrd.com/gamemastering/combat#TOC-Hit-Points\">hit points</a>. The eidolon does not heal naturally. The eidolon remains until dismissed by the summoner (a&nbsp;<a href=\"https://www.d20pfsrd.com/gamemastering/combat#TOC-Standard-Actions\">standard action</a>). If the eidolon is sent back to its home plane due to death, it cannot be summoned again until the following day. The eidolon cannot be sent back to its home plane by means of&nbsp;<a href=\"https://www.d20pfsrd.com/magic/all-spells/d/dispel-magic\">dispel magic</a>, but spells such as&nbsp;<a href=\"https://www.d20pfsrd.com/magic/all-spells/d/dismissal\">dismissal</a>&nbsp;and&nbsp;<a href=\"https://www.d20pfsrd.com/magic/all-spells/b/banishment\">banishment</a>&nbsp;work normally. If the summoner is&nbsp;<a href=\"https://www.d20pfsrd.com/gamemastering/conditions#TOC-Unconscious\">unconscious</a>, asleep, or killed, his eidolon is immediately banished. The eidolon takes a form shaped by the summoner’s desires. The eidolon’s Hit Dice,&nbsp;<a href=\"https://www.d20pfsrd.com/gamemastering/combat#TOC-Saving-Throws\">saving throws</a>, skills, feats, and abilities are tied to the summoner’s class level and increase as the summoner gains levels. In addition, each eidolon receives a pool of evolution points, based on the summoner’s class level, that can be used to give the eidolon different abilities and powers. Whenever the summoner gains a level, he must decide how these points are spent, and they are set until he gains another level of summoner.</p>\n<p>The eidolon’s physical appearance is up to the summoner, but it always appears as some sort of fantastical creature. This control is not fine enough to make the eidolon appear like a specific creature. The eidolon also bears a glowing rune that is identical to a rune that appears on the summoner’s forehead as long as the eidolon is summoned. While this rune can be hidden through mundane means, it cannot be concealed through magic that changes appearance, such as&nbsp;<a href=\"https://www.d20pfsrd.com/magic/all-spells/a/alter-self\">alter self</a>&nbsp;or&nbsp;<a href=\"https://www.d20pfsrd.com/magic/all-spells/p/polymorph\">polymorph</a>&nbsp;(although&nbsp;<a href=\"https://www.d20pfsrd.com/magic/all-spells/i/invisibility\">invisibility</a>&nbsp;does conceal it as long as the spell lasts).</p>\n<ul>\n<li>Full details on how eidolons work can be found here:&nbsp;<a href=\"https://www.d20pfsrd.com/classes/base-classes/summoner/eidolons\">Eidolons</a></li>\n</ul>\n<h2>Life Link (Su)</h2>\n<p>Starting at 1st level, a summoner forms a close bond with his eidolon. Whenever the eidolon takes enough damage to send it back to its home plane, the summoner can sacrifice any number of hit points. Each hit point sacrificed in this way prevents 1 point of damage done to the eidolon. This can prevent the eidolon from being sent back to its home plane.</p>\n<p>In addition, the eidolon and the summoner must remain within 100 feet of one another for the eidolon to remain at full strength. If the eidolon is beyond 100 feet but closer than 1,000 feet, its current and maximum hit point totals are reduced by 50%. If the eidolon is more than 1,000 feet away but closer than 10,000 feet, its current and maximum hit point totals are reduced by 75%. If the eidolon is more than 10,000 feet away, it is immediately returned to its home plane. Current&nbsp;<a href=\"https://www.d20pfsrd.com/gamemastering/combat#TOC-Hit-Points\">hit points</a>&nbsp;lost in this way are not restored when the eidolon gets closer to its summoner, but its maximum hit point total does return to normal.</p>\n<h2>Summon Monster I (Sp)</h2>\n<p>Starting at 1st level, a summoner can cast&nbsp;<a href=\"https://www.d20pfsrd.com/magic/all-spells/s/summon-monster\">summon monster I</a>&nbsp;as a&nbsp;<a href=\"https://www.d20pfsrd.com/magic#TOC-Spell-Like-Abilities-Sp-\">spell-like ability</a>&nbsp;a number of times per day equal to 3 + his&nbsp;<a href=\"https://www.d20pfsrd.com/basics-ability-scores/ability-scores#TOC-Charisma-Cha-\">Charisma</a>&nbsp;modifier. Drawing upon this ability uses up the same power as the summoner uses to call his eidolon. As a result, he can only use this ability when his eidolon is not summoned. He can cast this spell as a&nbsp;<a href=\"https://www.d20pfsrd.com/gamemastering/combat#TOC-Standard-Actions\">standard action</a>&nbsp;and the creatures remain for 1 minute per level (instead of 1 round per level). At 3rd level, and every 2 levels thereafter, the power of this ability increases by one spell level, allowing him to summon more powerful creatures (to a maximum of&nbsp;<a href=\"https://www.d20pfsrd.com/magic/all-spells/s/summon-monster\">summon monster IX</a>&nbsp;at 17th level). At 19th level, this ability can be used as&nbsp;<a href=\"https://www.d20pfsrd.com/magic/all-spells/g/gate\">gate</a>&nbsp;or&nbsp;<a href=\"https://www.d20pfsrd.com/magic/all-spells/s/summon-monster\">summon monster IX</a>. If used as&nbsp;<a href=\"https://www.d20pfsrd.com/magic/all-spells/g/gate\">gate</a>, the summoner must pay any required material&nbsp;<a href=\"https://www.d20pfsrd.com/magic#TOC-Components\">components</a>. A summoner cannot have more than one summon monster or&nbsp;<a href=\"https://www.d20pfsrd.com/magic/all-spells/g/gate\">gate</a>&nbsp;spell active in this way at one time. If this ability is used again, any existing&nbsp;<a href=\"https://www.d20pfsrd.com/magic/all-spells/s/summon-monster\">summon monster</a>&nbsp;or&nbsp;<a href=\"https://www.d20pfsrd.com/magic/all-spells/g/gate\">gate</a>&nbsp;immediately ends. These summon spells are considered to be part of his spell list for the purposes of spell trigger and spell completion items. In addition, he can expend uses of this ability to fufill the construction requirements of any magic item he creates, so long as he can use this ability to cast the required spell.</p>\n<h2>Bond Senses (Su)</h2>\n<p>Starting at 2nd level, a summoner can, as a&nbsp;<a href=\"https://www.d20pfsrd.com/gamemastering/combat#TOC-Standard-Actions\">standard action</a>, share the senses of his eidolon, hearing, seeing, smelling, tasting, and touching everything the eidolon does. He can use this ability a number of rounds per day equal to his summoner level. There is no range to this effect, but the eidolon and the summoner must be on the same plane. The summoner can end this effect as a&nbsp;<a href=\"https://www.d20pfsrd.com/gamemastering/combat#TOC-Free-Actions\">free action</a>.</p>\n<h2>Shield Ally (Ex)</h2>\n<p>At 4th level, whenever a summoner is within his eidolon’s reach, the summoner receives a +2&nbsp;<a href=\"https://www.d20pfsrd.com/basics-ability-scores/glossary#TOC-Shield-Bonus\">shield bonus</a>&nbsp;to his&nbsp;<a href=\"https://www.d20pfsrd.com/gamemastering/combat#TOC-Armor-Class\">Armor Class</a>&nbsp;and a +2&nbsp;<a href=\"https://www.d20pfsrd.com/basics-ability-scores/glossary#TOC-Circumstance-Bonus\">circumstance bonus</a>&nbsp;on his&nbsp;<a href=\"https://www.d20pfsrd.com/gamemastering/combat#TOC-Saving-Throws\">saving throws</a>. This bonus does not apply if the eidolon is&nbsp;<a href=\"https://www.d20pfsrd.com/gamemastering/conditions#TOC-Grappled\">grappled</a>,&nbsp;<a href=\"https://www.d20pfsrd.com/gamemastering/conditions#TOC-Helpless\">helpless</a>,&nbsp;<a href=\"https://www.d20pfsrd.com/gamemastering/conditions#TOC-Paralyzed\">paralyzed</a>,&nbsp;<a href=\"https://www.d20pfsrd.com/gamemastering/conditions#TOC-Stunned\">stunned</a>, or&nbsp;<a href=\"https://www.d20pfsrd.com/gamemastering/conditions#TOC-Unconscious\">unconscious</a>.</p>\n<h2>Maker's Call (Su)</h2>\n<p>At 6th level, as a&nbsp;<a href=\"https://www.d20pfsrd.com/gamemastering/combat#TOC-Standard-Actions\">standard action</a>, a summoner can call his eidolon to his side. This functions as&nbsp;<a href=\"https://www.d20pfsrd.com/magic/all-spells/d/dimension-door\">dimension door</a>, using the summoner’s&nbsp;<a href=\"https://www.d20pfsrd.com/magic#TOC-Caster-Level\">caster level</a>. When used, the eidolon appears adjacent to the summoner (or as close as possible if all adjacent spaces are occupied). If the eidolon is out of range, the ability is wasted. The summoner can use this ability once per day at 6th level, plus one additional time per day for every four levels beyond 6th.</p>\n<h2>Transposition (Su)</h2>\n<p>At 8th level, a summoner can use his maker’s call ability to swap locations with his eidolon. If it is larger than him, he can appear in any square occupied by the eidolon. The eidolon must occupy the square that was occupied by the summoner if able, or as close as possible if it is not able.</p>\n<h2>Aspect (Su)</h2>\n<p>At 10th level, a summoner can divert up to 2 points from his eidolon’s evolution pool to add evolutions to himself. He cannot select any evolution that the eidolon could not possess, and he must be able to meet the requirements as well. He cannot select the ability increase evolution through this ability. Any points spent in this way are taken from the eidolon’s evolution pool (reducing the total number available to the eidolon). The summoner can change the evolutions he receives from these points any time he can change the eidolon’s evolutions.</p>\n<h2>Greater Shield Ally (Su)</h2>\n<p>At 12th level, whenever an ally is within an eidolon’s reach, the ally receives a +2&nbsp;<a href=\"https://www.d20pfsrd.com/basics-ability-scores/glossary#TOC-Shield-Bonus\">shield bonus</a>&nbsp;to its&nbsp;<a href=\"https://www.d20pfsrd.com/gamemastering/combat#TOC-Armor-Class\">Armor Class</a>&nbsp;and a +2&nbsp;<a href=\"https://www.d20pfsrd.com/basics-ability-scores/glossary#TOC-Circumstance-Bonus\">circumstance bonus</a>&nbsp;on its&nbsp;<a href=\"https://www.d20pfsrd.com/gamemastering/combat#TOC-Saving-Throws\">saving throws</a>. If this ally is the summoner, these bonuses increase to +4. This bonus does not apply if the eidolon is&nbsp;<a href=\"https://www.d20pfsrd.com/gamemastering/conditions#TOC-Grappled\">grappled</a>,&nbsp;<a href=\"https://www.d20pfsrd.com/gamemastering/conditions#TOC-Helpless\">helpless</a>,&nbsp;<a href=\"https://www.d20pfsrd.com/gamemastering/conditions#TOC-Paralyzed\">paralyzed</a>,&nbsp;<a href=\"https://www.d20pfsrd.com/gamemastering/conditions#TOC-Stunned\">stunned</a>, or&nbsp;<a href=\"https://www.d20pfsrd.com/gamemastering/conditions#TOC-Unconscious\">unconscious</a>.</p>\n<h2>Life Bond (Su)</h2>\n<p>At 14th level, a summoner’s life becomes linked to his eidolon’s. As long as the eidolon has 1 or more hit points, the summoner is protected from harm. Damage in excess of that which would reduce the summoner to fewer than 0 hit points is instead transferred to the eidolon. This damage is transferred 1 point at a time, meaning that as soon as the eidolon is reduced to a number of negative hit points equal to its Constitution score, all excess damage remains with the summoner.</p>\n<p>Effects that cause death but not damage are unaffected by this ability. This ability does not affect spells like baleful&nbsp;<a href=\"https://www.d20pfsrd.com/magic/all-spells/p/polymorph\">polymorph</a>,&nbsp;<a href=\"https://www.d20pfsrd.com/magic/all-spells/f/flesh-to-stone\">flesh to stone</a>, or&nbsp;<a href=\"https://www.d20pfsrd.com/magic/all-spells/i/imprisonment\">imprisonment</a>, or other spells that do not cause actual damage.</p>\n<h2>Merge Forms (Su)</h2>\n<p>At 16th level, as a&nbsp;<a href=\"https://www.d20pfsrd.com/gamemastering/combat#TOC-Full-Round-Actions\">full-round action</a>, a summoner can touch his eidolon and the two can merge forms. This transformation includes all of the summoner’s gear. While merged in this way, the summoner is protected from harm and cannot be the target of spells or effects. All effects and spells currently targeting the summoner are suspended until the summoner emerges from the eidolon (although durations continue to expire).</p>\n<p>The summoner can cast spells while inside the eidolon by taking control of the eidolon for the duration of the casting. Any material&nbsp;<a href=\"https://www.d20pfsrd.com/magic#TOC-Components\">components</a>&nbsp;used for these spells are taken from the summoner’s gear, even though they are otherwise inaccessible. The summoner can direct all of the eidolon’s actions while merged, can perceive through its senses, and can speak through its voice.</p>\n<p>The summoner can use this ability for a number of rounds per day equal to his summoner level. He can end this effect at any time as a swift action. The summoner emerges in a square adjacent to the eidolon if able. If the eidolon is returned to its home plane while the summoner is merged with it, the summoner is immediately ejected, taking 4d6 points of damage, and is&nbsp;<a href=\"https://www.d20pfsrd.com/gamemastering/conditions#TOC-Stunned\">stunned</a>&nbsp;for 1 round.</p>\n<h2>Greater Aspect (Su)</h2>\n<p>At 18th level, a summoner can divert more of his eidolon’s evolutions to himself. This ability functions as the aspect ability, but up to 6 evolution points can be taken. Unlike the aspect ability, the eidolon loses 1 point from its evolution pool for every 2 points (or fraction thereof) diverted to the summoner.</p>\n<h2>Twin Eidolon (Su)</h2>\n<p>At 20th level, a summoner and his eidolon share a true connection. As a&nbsp;<a href=\"https://www.d20pfsrd.com/gamemastering/combat#TOC-Standard-Actions\">standard action</a>, the summoner can assume the shape of his eidolon, copying all of its evolutions, form, and abilities. His&nbsp;<a href=\"https://www.d20pfsrd.com/basics-ability-scores/ability-scores#TOC-Strength-Str-\">Strength</a>,&nbsp;<a href=\"https://www.d20pfsrd.com/basics-ability-scores/ability-scores#TOC-Dexterity-Dex-\">Dexterity</a>, and&nbsp;<a href=\"https://www.d20pfsrd.com/basics-ability-scores/ability-scores#TOC-Constitution-Con-\">Constitution</a>&nbsp;scores change to match the base scores of his eidolon. He can choose to have any gear that he carries become absorbed by his new form, as with spells from the polymorph subschool. Items with continuous effects continue to function while absorbed in this way. The summoner loses his natural attacks and all racial traits (except bonus feats, skills, and languages) in favor of the abilities granted by his eidolon’s evolutions. The summoner retains all of his class features. The summoner can keep this form for a number of minutes per day equal to his summoner level. This duration does not need to be consecutive, but it must be spent in 1-minute increments. The summoner can end this effect as a&nbsp;<a href=\"https://www.d20pfsrd.com/gamemastering/combat#TOC-Free-Actions\">free action</a>.</p>",
      "chat": "",
      "unidentified": ""
    },
    "damage": {
      "parts": [],
      "critParts": [],
      "nonCritParts": []
    },
    "preparation": {
      "maxAmount": 0
    },
    "weaponData": {
      "critRange": 20,
      "critMult": 2
    },
    "uses": {
      "value": 0,
      "max": 0
    }
  },
  "flags": {},
  "img": "systems/pf1/icons/skills/blue_26.jpg",
  "effects": []
}