{
  "_id": "zx3bDmMsNBEBNfIJ",
  "name": "Vampire Hunter",
  "permission": {
    "default": 0
  },
  "type": "class",
  "data": {
    "description": {
      "value": "<p>Not all beings who stalk the night hunt mortal prey. Out of honor, desperation, or tragic need, a vampire hunter pits his abilities not just against the creatures of the night, but also their terrifying undead overlords: vampires. Most vampire hunters do not survive their first encounters with vampirekind, as no amount of study or training can truly prepare one to face the Nobles of the night. Those few who survive and force themselves to carry on grow more and more like their terrible quarry, becoming dark-garbed bringers of death, feared by the dead and the living alike. Vampire hunters approach their duties with a grim but ironclad resolve so strong it resembles ecclesiastical faith, and it is from this mysterious, selfless dedication that their divine power wells.</p>\n<p><strong>Role</strong>: Vampire hunters obsessively stalk their quarry— not just vampirekind, but all those supernatural beasts and undead terrors that serve the Nobility. These champions of the living track their blasphemous prey, learn their weaknesses, and bring them low. Doing so requires more than training and guile, though. To stand against the darkness, vampire hunters adopt a measure of their foes’ unnatural power, turning vampirekind’s sinister might back against them. Vampire hunters are the vanguard in the battle against evil, but know to value the perspective, support, and magic of other expert adventurers.</p>\n<p><strong>Alignment</strong>: Any.</p>\n<p><strong>Hit Die</strong>: d8.</p>\n<p><strong>Starting Wealth</strong>: 5d6 × 10 gp (average 175 gp).</p>\n<h2><span id=\"Class_Skills\">Class Skills</span></h2>\n<p>The vampire hunter’s class skills are <a href=\"https://www.d20pfsrd.com/skills/bluff\">Bluff</a>&nbsp;(<a href=\"https://www.d20pfsrd.com/basics-ability-scores/ability-scores#TOC-Charisma-Cha-\">Cha</a>), <a href=\"https://www.d20pfsrd.com/skills/climb\">Climb</a>&nbsp;(<a href=\"https://www.d20pfsrd.com/basics-ability-scores/ability-scores#TOC-Strength-Str-\">Str</a>), <a href=\"https://www.d20pfsrd.com/skills/craft\">Craft</a>&nbsp;(<a href=\"https://www.d20pfsrd.com/basics-ability-scores/ability-scores#TOC-Intelligence-Int-\">Int</a>), <a href=\"https://www.d20pfsrd.com/skills/handle-animal\">Handle Animal</a>&nbsp;(<a href=\"https://www.d20pfsrd.com/basics-ability-scores/ability-scores#TOC-Charisma-Cha-\">Cha</a>), <a href=\"https://www.d20pfsrd.com/skills/heal\">Heal</a>&nbsp;(<a href=\"https://www.d20pfsrd.com/basics-ability-scores/ability-scores#TOC-Wisdom-Wis-\">Wis</a>), <a href=\"https://www.d20pfsrd.com/skills/intimidate\">Intimidate</a>&nbsp;(<a href=\"https://www.d20pfsrd.com/basics-ability-scores/ability-scores#TOC-Charisma-Cha-\">Cha</a>), <a href=\"https://www.d20pfsrd.com/skills/knowledge\">Knowledge</a>&nbsp;(arcana) (<a href=\"https://www.d20pfsrd.com/basics-ability-scores/ability-scores#TOC-Intelligence-Int-\">Int</a>), <a href=\"https://www.d20pfsrd.com/skills/knowledge\">Knowledge</a>&nbsp;(geography) (<a href=\"https://www.d20pfsrd.com/basics-ability-scores/ability-scores#TOC-Intelligence-Int-\">Int</a>), <a href=\"https://www.d20pfsrd.com/skills/knowledge\">Knowledge</a>&nbsp;(local) (<a href=\"https://www.d20pfsrd.com/basics-ability-scores/ability-scores#TOC-Intelligence-Int-\">Int</a>), <a href=\"https://www.d20pfsrd.com/skills/knowledge\">Knowledge</a>&nbsp;(religion) (<a href=\"https://www.d20pfsrd.com/basics-ability-scores/ability-scores#TOC-Intelligence-Int-\">Int</a>), <a href=\"https://www.d20pfsrd.com/skills/perception\">Perception</a>&nbsp;(<a href=\"https://www.d20pfsrd.com/basics-ability-scores/ability-scores#TOC-Wisdom-Wis-\">Wis</a>), <a href=\"https://www.d20pfsrd.com/skills/profession\">Profession</a>&nbsp;(<a href=\"https://www.d20pfsrd.com/basics-ability-scores/ability-scores#TOC-Wisdom-Wis-\">Wis</a>), <a href=\"https://www.d20pfsrd.com/skills/ride\">Ride</a>&nbsp;(<a href=\"https://www.d20pfsrd.com/basics-ability-scores/ability-scores#TOC-Dexterity-Dex-\">Dex</a>), <a href=\"https://www.d20pfsrd.com/skills/sense-motive\">Sense Motive</a>&nbsp;(<a href=\"https://www.d20pfsrd.com/basics-ability-scores/ability-scores#TOC-Wisdom-Wis-\">Wis</a>), <a href=\"https://www.d20pfsrd.com/skills/spellcraft\">Spellcraft</a>&nbsp;(<a href=\"https://www.d20pfsrd.com/basics-ability-scores/ability-scores#TOC-Intelligence-Int-\">Int</a>), <a href=\"https://www.d20pfsrd.com/skills/stealth\">Stealth</a>&nbsp;(<a href=\"https://www.d20pfsrd.com/basics-ability-scores/ability-scores#TOC-Dexterity-Dex-\">Dex</a>), <a href=\"https://www.d20pfsrd.com/skills/survival\">Survival</a>&nbsp;(<a href=\"https://www.d20pfsrd.com/basics-ability-scores/ability-scores#TOC-Wisdom-Wis-\">Wis</a>), and <a href=\"https://www.d20pfsrd.com/skills/swim\">Swim</a>&nbsp;(<a href=\"https://www.d20pfsrd.com/basics-ability-scores/ability-scores#TOC-Strength-Str-\">Str</a>).</p>\n<p><strong>Skill Ranks per Level</strong>: 6 +&nbsp;<a href=\"https://www.d20pfsrd.com/basics-ability-scores/ability-scores#TOC-Intelligence-Int-\">Int</a> modifier.</p>",
      "chat": "",
      "unidentified": ""
    },
    "tags": [],
    "changes": [],
    "changeFlags": {
      "loseDexToAC": false,
      "noStr": false,
      "noDex": false,
      "oneInt": false,
      "oneWis": false,
      "oneCha": false,
      "noEncumbrance": false,
      "mediumArmorFullSpeed": false,
      "heavyArmorFullSpeed": false
    },
    "links": {
      "children": [],
      "classAssociations": [
        {
          "id": "pf1.class-abilities.aQ0aWLmgTI3TIGXo",
          "dataType": "compendium",
          "name": "Detect Undead",
          "img": "systems/pf1/icons/skills/affliction_17.jpg",
          "hiddenLinks": {},
          "level": 1,
          "_index": 0
        },
        {
          "id": "pf1.class-abilities.1gKaluTk5z6U2nZM",
          "dataType": "compendium",
          "name": "Technique Feat",
          "img": "systems/pf1/icons/skills/red_11.jpg",
          "hiddenLinks": {},
          "level": 1,
          "_index": 1
        },
        {
          "id": "pf1.class-abilities.r8wPs0bB3WhOLxbX",
          "dataType": "compendium",
          "name": "Track",
          "img": "systems/pf1/icons/skills/beast_01.jpg",
          "hiddenLinks": {},
          "level": 1,
          "_index": 2
        },
        {
          "id": "pf1.class-abilities.D2Hb80tMFgnbhkeN",
          "dataType": "compendium",
          "name": "Vampiric Focus",
          "img": "systems/pf1/icons/skills/beast_02.jpg",
          "hiddenLinks": {},
          "level": 1,
          "_index": 3
        },
        {
          "id": "pf1.class-abilities.MT4AzxhNBwUsNQC0",
          "dataType": "compendium",
          "name": "Relentless",
          "img": "systems/pf1/icons/skills/blue_32.jpg",
          "hiddenLinks": {},
          "level": 2,
          "_index": 4
        },
        {
          "id": "pf1.class-abilities.VTSxRzsa79oMALLt",
          "dataType": "compendium",
          "name": "Stake",
          "img": "systems/pf1/icons/items/weapons/kobold-tail-attachment.png",
          "hiddenLinks": {},
          "level": 4,
          "_index": 5
        },
        {
          "id": "pf1.class-abilities.YaaZNCmv8kp62Wfd",
          "dataType": "compendium",
          "name": "Relentless Band",
          "img": "systems/pf1/icons/skills/nature_08.jpg",
          "hiddenLinks": {},
          "level": 5,
          "_index": 6
        },
        {
          "id": "pf1.class-abilities.9hgwz9Z4MQJfd1ph",
          "dataType": "compendium",
          "name": "Vampire Tracker",
          "img": "systems/pf1/icons/skills/affliction_21.jpg",
          "hiddenLinks": {},
          "level": 7,
          "_index": 7
        },
        {
          "id": "pf1.class-abilities.sk0HNTe9lKBpHQpN",
          "dataType": "compendium",
          "name": "Swift Tracker",
          "img": "systems/pf1/icons/skills/green_20.jpg",
          "hiddenLinks": {},
          "level": 10,
          "_index": 8
        },
        {
          "id": "pf1.class-abilities.rbsYLckukbbbHDN7",
          "dataType": "compendium",
          "name": "Vampire Bane",
          "img": "systems/pf1/icons/skills/blood_04.jpg",
          "hiddenLinks": {},
          "level": 11,
          "_index": 9
        },
        {
          "id": "pf1.class-abilities.EbMT5qliolI2BhDt",
          "dataType": "compendium",
          "name": "Remove Vampirism",
          "img": "systems/pf1/icons/skills/blood_10.jpg",
          "hiddenLinks": {},
          "level": 13,
          "_index": 10
        },
        {
          "id": "pf1.class-abilities.7hFLTBScf4tz8wXh",
          "dataType": "compendium",
          "name": "Quarry (VAM)",
          "img": "systems/pf1/icons/skills/arrow_12.jpg",
          "hiddenLinks": {},
          "level": 14,
          "_index": 11
        },
        {
          "id": "pf1.class-abilities.32nTtFqPUPWcU6gB",
          "dataType": "compendium",
          "name": "Improved Quarry (VAM)",
          "img": "systems/pf1/icons/skills/arrow_13.jpg",
          "hiddenLinks": {},
          "level": 19,
          "_index": 12
        },
        {
          "id": "pf1.class-abilities.6as0xicfWFdSV58T",
          "dataType": "compendium",
          "name": "Critical Reflexes",
          "img": "systems/pf1/icons/skills/blood_02.jpg",
          "hiddenLinks": {},
          "level": 17,
          "_index": 13
        },
        {
          "id": "pf1.class-abilities.XvyrdZjQh3Fa9mZN",
          "dataType": "compendium",
          "name": "Master Vampire Hunter",
          "img": "systems/pf1/icons/skills/red_13.jpg",
          "hiddenLinks": {},
          "level": 20,
          "_index": 14
        }
      ]
    },
    "tag": "vampireHunter",
    "useCustomTag": true,
    "armorProf": {
      "value": [
        "lgt",
        "med",
        "shl"
      ],
      "custom": ""
    },
    "weaponProf": {
      "value": [
        "sim",
        "mar"
      ],
      "custom": ""
    },
    "classType": "base",
    "levels": {
      "value": 0,
      "_deprecated": true
    },
    "level": 1,
    "hd": 8,
    "hp": 8,
    "bab": "high",
    "skillsPerLevel": 6,
    "savingThrows": {
      "fort": {
        "value": "low"
      },
      "ref": {
        "value": "high"
      },
      "will": {
        "value": "high"
      }
    },
    "fc": {
      "hp": {
        "value": 0
      },
      "skill": {
        "value": 0
      },
      "alt": {
        "value": 0
      }
    },
    "classSkills": {
      "acr": false,
      "apr": false,
      "art": false,
      "blf": true,
      "clm": true,
      "crf": true,
      "dip": false,
      "dev": false,
      "dis": false,
      "esc": false,
      "fly": false,
      "han": true,
      "hea": true,
      "int": true,
      "kar": true,
      "kdu": false,
      "ken": false,
      "kge": true,
      "khi": false,
      "klo": true,
      "kna": false,
      "kno": false,
      "kpl": false,
      "kre": true,
      "lin": false,
      "lor": false,
      "per": true,
      "prf": false,
      "pro": true,
      "rid": true,
      "sen": true,
      "slt": false,
      "spl": true,
      "ste": true,
      "sur": true,
      "swm": true,
      "umd": false
    },
    "extraDescription": {
      "value": "<h2>Weapon and Armor Proficiency</h2>\n<p>A vampire hunter is proficient with all simple and martial weapons, as well as light&nbsp;<a href=\"https://www.d20pfsrd.com/basics-ability-scores/glossary#TOC-Armor-Bonus\">armor</a>, medium&nbsp;<a href=\"https://www.d20pfsrd.com/basics-ability-scores/glossary#TOC-Armor-Bonus\">armor</a>, and shields (except tower shields).</p>\n<h2>Detect Undead (Sp)</h2>\n<p>At will, a vampire hunter can use&nbsp;<a href=\"https://www.d20pfsrd.com/magic/all-spells/d/detect-undead\">detect undead</a>, as the spell. A vampire hunter can, as a&nbsp;<a href=\"https://www.d20pfsrd.com/gamemastering/combat#TOC-Move-Actions\">move action</a>, concentrate on a single item or individual within 60 feet and determine if it is&nbsp;<a href=\"https://www.d20pfsrd.com/bestiary/rules-for-monsters/creature-types#TOC-Undead\">undead</a>, learning the strength of its aura as if he had studied it for 3 rounds. While focusing on one individual or object, the vampire hunter does not&nbsp;<a href=\"https://www.d20pfsrd.com/magic/all-spells/d/detect-undead\">detect undead</a>&nbsp;in any other object or individual within range.</p>\n<h2>Technique Feat</h2>\n<p>Due to the inherent deadliness of hunting vampires, the methods and traditions of vampire hunters are rare and little understood. This often makes vampire hunters just as feared as the&nbsp;<a href=\"https://www.d20pfsrd.com/bestiary/rules-for-monsters/creature-types#TOC-Undead\">undead</a>&nbsp;they hunt. As vampire hunters study and train, they develop their skills, mastering ancient fighting techniques and drawing upon mystical arts feared by both the living and the&nbsp;<a href=\"https://www.d20pfsrd.com/gamemastering/conditions#TOC-Dead\">dead</a>.</p>\n<p>At 1st level, a vampire hunter gains a bonus feat. This new feat can be selected from either those listed as&nbsp;<a href=\"https://www.d20pfsrd.com/feats/combat-feats\">combat feats</a>&nbsp;or as vampire hunting technique feats (see page 14). A vampire hunter must meet the prerequisites for these feats to select them. The vampire hunter gains an additional bonus feat at 3rd level and every three levels thereafter.</p>\n<p>Upon reaching 6th level, and every six levels thereafter (12th and 18th), a vampire hunter can choose to learn a new combat or technique feat in place of a combat or technique feat he has already learned. In effect, the vampire hunter loses the old feat in exchange for the new one. The old feat cannot be one that was used as a prerequisite for another feat, prestige class, or another ability the vampire hunter knows. A vampire hunter can exchange only one feat at any given level and must choose whether or not to swap the feat at the time he gains a new bonus feat for the level.</p>\n<p><a href=\"https://cse.google.com/cse?q=%22Pathfinder+Roleplaying+Game%3A+The+World+of+Vampire+Hunter+D%22&amp;cx=006680642033474972217%3A6zo0hx_wle8#gsc.tab=0&amp;gsc.q=%22Pathfinder%20Roleplaying%20Game%3A%20The%20World%20of%20Vampire%20Hunter%20D%22&amp;gsc.ref=more%3Afeats&amp;gsc.sort=\">Technique Feats (and other Feats from this source)</a></p>\n<h2>Track (Ex)</h2>\n<p>A vampire hunter adds half his level to&nbsp;<a href=\"https://www.d20pfsrd.com/skills/survival\">Survival</a>&nbsp;skill checks to follow tracks.</p>\n<h2>Vampiric Focus (Su)</h2>\n<p>A vampire hunter knows the sinister power of the&nbsp;<a href=\"https://www.d20pfsrd.com/bestiary/rules-for-monsters/creature-types#TOC-Undead\">undead</a>. Through discipline and precision, he can temporarily turn the unholy powers of the&nbsp;<a href=\"https://www.d20pfsrd.com/bestiary/rules-for-monsters/creature-types#TOC-Undead\">undead</a>&nbsp;against them.</p>\n<p>At 1st level, the vampire hunter must select one common vampiric power to mimic from the vampiric foci listed below. Each vampiric focus grants the vampire hunter a bonus or special ability. Once this decision is made, the vampire hunter cannot change which vampiric focus he knows. At 8th and 16th level, the vampire hunter learns an additional vampiric focus.</p>\n<p>As a&nbsp;<a href=\"https://www.d20pfsrd.com/gamemastering/combat#TOC-Swift-Actions\">swift action</a>, the vampire hunter can&nbsp;<a href=\"https://www.d20pfsrd.com/gamemastering/combat#TOC-Activate-Magic-Item\">activate</a>&nbsp;his vampiric focus. Ending the vampiric focus is a&nbsp;<a href=\"https://www.d20pfsrd.com/gamemastering/combat#TOC-Free-Actions\">free action</a>.</p>\n<p>He can use each vampiric focus for a number of minutes per day equal to his level. This duration does not need to be consecutive, but it must be spent in 1-minute increments.</p>\n<p>Once the vampire hunter ends a focus, it cannot be reactivated for 1 minute. The vampire hunter can have only one vampiric focus active at a time. Benefits from different vampiric foci do not stack with one another, including&nbsp;<a href=\"https://www.d20pfsrd.com/gamemastering/combat#TOC-Temporary-Hit-Points\">temporary hit points</a>&nbsp;from multiple foci.</p>\n<div>\n<p><strong>Vampiric Agility</strong>: All of the vampire hunter’s movement speeds are increased by 5 feet. At 8th level, his movement speeds are increased by 10 feet and he gains&nbsp;<a href=\"https://www.d20pfsrd.com/classes/core-classes/rogue#TOC-Evasion-Ex-\">evasion</a>, as the&nbsp;<a href=\"https://www.d20pfsrd.com/classes/core-classes/rogue\">rogue</a>&nbsp;class feature. At 16th level, the vampire hunter gains&nbsp;<a href=\"https://www.d20pfsrd.com/classes/core-classes/rogue#TOC-Improved-Evasion-Ex-\">improved evasion</a>, as the&nbsp;<a href=\"https://www.d20pfsrd.com/classes/core-classes/rogue\">rogue</a>&nbsp;<a href=\"https://www.d20pfsrd.com/classes/core-classes/rogue#TOC-Rogue-Talents\">advanced talent</a>.</p>\n<p><strong>Vampiric Call</strong>: The vampire hunter summons base creatures of the night—bats, rats, insects, and the like—to swarm around him. These creatures provide a measure of defense against damage, granting the vampire hunter a number of&nbsp;<a href=\"https://www.d20pfsrd.com/gamemastering/combat#TOC-Temporary-Hit-Points\">temporary hit points</a>&nbsp;equal to his level. At 8th level, he also gains a +2&nbsp;<a href=\"https://www.d20pfsrd.com/basics-ability-scores/glossary#TOC-Deflection-Bonus\">deflection bonus</a>&nbsp;to AC. At 16th level, the&nbsp;<a href=\"https://www.d20pfsrd.com/basics-ability-scores/glossary#TOC-Deflection-Bonus\">deflection bonus</a>&nbsp;increases to +4.</p>\n<p><strong>Vampiric Cunning</strong>: The vampire hunter gains a bonus on&nbsp;<a href=\"https://www.d20pfsrd.com/skills/perception\">Perception</a>&nbsp;and&nbsp;<a href=\"https://www.d20pfsrd.com/skills/stealth\">Stealth</a>&nbsp;checks equal to half his level. At 8th level, he can move at his normal&nbsp;<a href=\"https://www.d20pfsrd.com/magic-items/magic-weapons/magic-weapon-special-abilities/speed\">speed</a>&nbsp;while using&nbsp;<a href=\"https://www.d20pfsrd.com/skills/stealth\">Stealth</a>&nbsp;with no penalty. At 16th level, the vampire hunter can use&nbsp;<a href=\"https://www.d20pfsrd.com/skills/stealth\">Stealth</a>&nbsp;while charging (but not while making any other attack); when charging (and only when charging), he can attempt a&nbsp;<a href=\"https://www.d20pfsrd.com/skills/stealth\">Stealth</a>&nbsp;check even if he lacks&nbsp;<a href=\"https://www.d20pfsrd.com/gamemastering/combat#TOC-Cover\">cover</a>&nbsp;relative to his target.</p>\n<p><strong>Vampiric Heart</strong>: The vampire hunter gains&nbsp;<a href=\"https://www.d20pfsrd.com/gamemastering/special-abilities#TOC-Energy-Resistance\">energy resistance</a>&nbsp;equal to half his level against cold and electricity. Additionally, the vampire hunter’s heartbeat is undetectable. Any ability that detects or identifies the living, such as the&nbsp;<a href=\"https://www.d20pfsrd.com/bestiary/rules-for-monsters/universal-monster-rules#TOC-Lifesense-Su-\">lifesense</a>&nbsp;ability, does not perceive him. At 16th level, once per day when reduced to 0 or fewer&nbsp;<a href=\"https://www.d20pfsrd.com/gamemastering/combat#TOC-Hit-Points\">hit points</a>&nbsp;while this focus is activated, the vampire hunter immediately turns gaseous (as the spell&nbsp;<a href=\"https://www.d20pfsrd.com/magic/all-spells/g/gaseous-form\">gaseous form</a>) for up to a number of rounds equal to half his level and he gains a number of&nbsp;<a href=\"https://www.d20pfsrd.com/gamemastering/combat#TOC-Temporary-Hit-Points\">temporary hit points</a>&nbsp;equal to half his level. The vampire hunter can leave&nbsp;<a href=\"https://www.d20pfsrd.com/magic/all-spells/g/gaseous-form\">gaseous form</a>&nbsp;at any time without losing these&nbsp;<a href=\"https://www.d20pfsrd.com/gamemastering/combat#TOC-Temporary-Hit-Points\">temporary hit points</a>. This effect ends after these rounds have elapsed, after the vampire hunter loses the&nbsp;<a href=\"https://www.d20pfsrd.com/gamemastering/combat#TOC-Temporary-Hit-Points\">temporary hit points</a>, or once this focus is no longer active, at which point the vampire hunter immediately becomes corporeal and loses these&nbsp;<a href=\"https://www.d20pfsrd.com/gamemastering/combat#TOC-Temporary-Hit-Points\">temporary hit points</a>. If he has not received&nbsp;<a href=\"https://www.d20pfsrd.com/magic#TOC-Conjuration-Healing\">healing</a>&nbsp;in the interim, this returns the vampire hunter to the number of&nbsp;<a href=\"https://www.d20pfsrd.com/gamemastering/combat#TOC-Hit-Points\">hit points</a>&nbsp;he had after the attack or effect that triggered this ability.</p>\n<p>Vampiric Might: The vampire hunter gains a +2&nbsp;<a href=\"https://www.d20pfsrd.com/basics-ability-scores/glossary#TOC-Enhancement-Bonus\">enhancement bonus</a>&nbsp;to&nbsp;<a href=\"https://www.d20pfsrd.com/basics-ability-scores/ability-scores#TOC-Strength-Str-\">Strength</a>&nbsp;and his weapons are always treated as magical for the purpose of overcoming&nbsp;<a href=\"https://www.d20pfsrd.com/gamemastering/special-abilities#TOC-Damage-Reduction\">damage reduction</a>. This bonus increases to +4 at 8th level and +6 at 16th level.</p>\n<p><strong>Vampiric Momentum</strong>: The vampire hunter is treated as being under the effects of the spell&nbsp;<a href=\"https://www.d20pfsrd.com/magic/all-spells/f/feather-fall\">feather fall</a>. At 8th level, he is also affected as if by the spell&nbsp;<a href=\"https://www.d20pfsrd.com/magic/all-spells/s/spider-climb\">spider climb</a>&nbsp;and can move normally through difficult terrain. At 16th level, he is treated as being under the effects of the spell&nbsp;<a href=\"https://www.d20pfsrd.com/magic/all-spells/f/freedom-of-movement\">freedom of movement</a>, and can use up to two consecutive move actions in the same turn to cross areas of open air or calm water (or similar substances) as if they were solid ground, though the vampire hunter must begin and end this movement on solid ground. This allows the vampire hunter to cross water, open air, lava (though he takes fire damage as normal if not immune), and the like without falling or sinking.</p>\n<p><strong>Vampiric Presence</strong>: The vampire hunter gains a +2&nbsp;<a href=\"https://www.d20pfsrd.com/basics-ability-scores/glossary#TOC-Enhancement-Bonus\">enhancement bonus</a>&nbsp;to&nbsp;<a href=\"https://www.d20pfsrd.com/basics-ability-scores/ability-scores#TOC-Charisma-Cha-\">Charisma</a>. At 8th level, this bonus increases to +4, and he can cast&nbsp;<a href=\"https://www.d20pfsrd.com/magic/all-spells/c/charm-person\">charm person</a>&nbsp;as a&nbsp;<a href=\"https://www.d20pfsrd.com/magic#TOC-Spell-Like-Abilities-Sp-\">spell-like ability</a>&nbsp;a number of times per day equal to his adjusted&nbsp;<a href=\"https://www.d20pfsrd.com/basics-ability-scores/ability-scores#TOC-Charisma-Cha-\">Charisma</a>&nbsp;modifier. At 16th level, the&nbsp;<a href=\"https://www.d20pfsrd.com/basics-ability-scores/glossary#TOC-Enhancement-Bonus\">enhancement bonus</a>&nbsp;to&nbsp;<a href=\"https://www.d20pfsrd.com/basics-ability-scores/ability-scores#TOC-Charisma-Cha-\">Charisma</a>&nbsp;increases to +6, and the vampire hunter can cast&nbsp;<a href=\"https://www.d20pfsrd.com/magic/all-spells/d/dominate-person\">dominate person</a>&nbsp;as a&nbsp;<a href=\"https://www.d20pfsrd.com/magic#TOC-Spell-Like-Abilities-Sp-\">spell-like ability</a>&nbsp;a number of times per day equal to his adjusted&nbsp;<a href=\"https://www.d20pfsrd.com/basics-ability-scores/ability-scores#TOC-Charisma-Cha-\">Charisma</a>&nbsp;modifier. The vampire hunter treats his level as his&nbsp;<a href=\"https://www.d20pfsrd.com/magic#TOC-Caster-Level\">caster level</a>&nbsp;when using the&nbsp;<a href=\"https://www.d20pfsrd.com/magic#TOC-Spell-Like-Abilities-Sp-\">spell-like abilities</a>&nbsp;this ability grants.</p>\n<p><strong>Vampiric Resilience</strong>: The vampire hunter gains protection against&nbsp;<a href=\"https://www.d20pfsrd.com/magic/all-spells/e/energy-drain\">energy drain</a>. Each time this vampiric focus is activated, the first two times he would gain a&nbsp;<a href=\"https://www.d20pfsrd.com/gamemastering/special-abilities#TOC-Energy-Drain-and-Negative-Levels\">negative level</a>, he instead does not. At 8th level, the first four times he would gain a&nbsp;<a href=\"https://www.d20pfsrd.com/gamemastering/special-abilities#TOC-Energy-Drain-and-Negative-Levels\">negative level</a>&nbsp;while this focus is activated, he does not. At 16th level, the first six times he would gain a&nbsp;<a href=\"https://www.d20pfsrd.com/gamemastering/special-abilities#TOC-Energy-Drain-and-Negative-Levels\">negative level</a>&nbsp;while this focus is activated, he does not gain any&nbsp;<a href=\"https://www.d20pfsrd.com/gamemastering/special-abilities#TOC-Energy-Drain-and-Negative-Levels\">negative levels</a>.</p>\n<p><strong>Vampiric Resolve</strong>: The vampire hunter gains a +2 bonus on&nbsp;<a href=\"https://www.d20pfsrd.com/gamemastering/combat#TOC-Will\">Will</a>&nbsp;saving throws against&nbsp;<a href=\"https://www.d20pfsrd.com/magic#TOC-Magic-Descriptor-Mind-Affecting\">mind-affecting</a>&nbsp;effects. If he has already been affected by a&nbsp;<a href=\"https://www.d20pfsrd.com/magic#TOC-Magic-Descriptor-Mind-Affecting\">mind-affecting</a>&nbsp;effect when he activates this focus, he can immediately reroll his saving throw against that effect with a bonus equal to half his vampire hunter level. At 16th level, he is immune to mindaffecting effects.</p>\n<p><strong>Vampiric Sight</strong>: The vampire hunter gains&nbsp;<a href=\"https://www.d20pfsrd.com/gamemastering/special-abilities#TOC-Darkvision\">darkvision</a>&nbsp;to a range of 60 feet (if he already has&nbsp;<a href=\"https://www.d20pfsrd.com/gamemastering/special-abilities#TOC-Darkvision\">darkvision</a>, its range increases by 30 feet). At 8th level, the range of the vampire hunter’s&nbsp;<a href=\"https://www.d20pfsrd.com/gamemastering/special-abilities#TOC-Darkvision\">darkvision</a>&nbsp;increases by 30 feet. At 16th level, the vampire hunter also gains&nbsp;<a href=\"https://www.d20pfsrd.com/gamemastering/special-abilities#TOC-Blindsight-and-Blindsense\">blindsense</a>&nbsp;to a range of 30 feet.</p>\n<h2>Relentless (Ex)</h2>\n<p>At 2nd level, a vampire hunter can travel for an extended period of time without rest. The vampire hunter (and his mount, if he has one) can walk 16 hours in a day of travel without it being considered a forced march, but at the end of that day, he must attempt a DC 15&nbsp;<a href=\"https://www.d20pfsrd.com/gamemastering/combat#TOC-Fortitude\">Fortitude</a>&nbsp;saving throw. If he fails, he can travel for 8 hours the following day, and he (as well as his mount, if he has one) is&nbsp;<a href=\"https://www.d20pfsrd.com/gamemastering/conditions#TOC-Fatigued\">fatigued</a>&nbsp;for the following 24 hours. If he succeeds at the saving throw, he can use this ability again the following day. The DC of the&nbsp;<a href=\"https://www.d20pfsrd.com/gamemastering/combat#TOC-Fortitude\">Fortitude</a>&nbsp;saving throw increases by 2 for every additional day the vampire hunter has been traveling for more than 8 hours. The vampire hunter does not need to attempt a separate saving throw for his mount. After the vampire hunter rests for 24 hours, the saving throw DC resets to 15.</p>\n<h2>Stake (Su)</h2>\n<p>At 4th level, any piercing weapon or sharp tool (such as a piton) a vampire hunter drives through a vampire’s heart is treated as a&nbsp;<a href=\"https://www.d20pfsrd.com/equipment/weapons/weapon-descriptions/stake-wooden\">wooden stake</a>&nbsp;for purposes of creatures who are vulnerable to them. If this improvised stake is removed, the vampire returns to life as normal.</p>\n<h2>Spellcasting</h2>\n<p>At 4th level, a vampire hunter gains the ability to cast a small number of divine spells drawn from the&nbsp;<a href=\"https://www.d20pfsrd.com/magic/spell-lists-and-domains/spell-lists-inquisitor\">inquisitor spell list</a>. He can cast any spell he knows at any time without preparing it ahead of time, assuming he has not yet used up his allotment of spells per day for the spell’s level. A vampire hunter cannot cast&nbsp;<a href=\"https://www.d20pfsrd.com/classes/base-classes/inquisitor\">inquisitor</a>&nbsp;orisons or&nbsp;<a href=\"https://www.d20pfsrd.com/classes/base-classes/inquisitor\">inquisitor</a>&nbsp;spells that are higher than 4th level using this class feature.</p>\n<p>To learn or cast a spell, a vampire hunter must have a&nbsp;<a href=\"https://www.d20pfsrd.com/basics-ability-scores/ability-scores#TOC-Wisdom-Wis-\">Wisdom</a>&nbsp;score equal to at least 10 + the spell level. The&nbsp;<a href=\"https://www.d20pfsrd.com/basics-ability-scores/glossary#TOC-Difficulty-Class-DC-\">Difficulty Class</a>&nbsp;for a saving throw against a vampire hunter’s spell is 10 + the spell level + the vampire hunter’s&nbsp;<a href=\"https://www.d20pfsrd.com/basics-ability-scores/ability-scores#TOC-Wisdom-Wis-\">Wisdom</a>&nbsp;modifier.</p>\n<p>A vampire hunter can cast can a certain number of spells of each spell level each day. His base daily spell allotment is given on Table 1–1: Vampire Hunter. In addition, he receives bonus spells per day if he has a high&nbsp;<a href=\"https://www.d20pfsrd.com/basics-ability-scores/ability-scores#TOC-Wisdom-Wis-\">Wisdom</a>&nbsp;score. When Table 1–1: Vampire Hunter indicates that vampire hunter can cast 0 spells per day of a given spell level, he can cast the number of bonus spells per day he would be entitled to based on his&nbsp;<a href=\"https://www.d20pfsrd.com/basics-ability-scores/ability-scores#TOC-Wisdom-Wis-\">Wisdom</a>&nbsp;score for that spell level.</p>\n<p>A vampire hunter’s selection of spells is limited. At 4th level, a vampire hunter knows two 1st-level spells of the vampire hunter’s choice. At each new vampire hunter level, he gains one or more new spells as indicated on Table 1–2: Vampire Hunter Spells Known. (Unlike spells per day, the number of spells a vampire hunter knows is not affected by his&nbsp;<a href=\"https://www.d20pfsrd.com/basics-ability-scores/ability-scores#TOC-Wisdom-Wis-\">Wisdom</a>&nbsp;score. The numbers on Table 1–2 are fixed.) Upon reaching 7th level, and at every third vampire hunter level thereafter (7th and 13th), a vampire hunter can choose to learn a new spell in place of one he already knows. In effect, the vampire hunter “loses” the old spell in exchange for the new one. The new spell’s level must be the same as that of the spell being exchanged, and it must be at least one level lower than the highest-level spell he can cast.</p>\n<p>The vampire hunter can swap out a single spell at any given level and must choose whether or not to swap the spell at the same time that he gains new spells known for the level.</p>\n<table style=\"box-sizing: border-box; border-spacing: 0px; background-color: #ffffff; margin: 10px; table-layout: fixed; border-color: #888888; min-width: 200px; color: #333333; font-family: Varela, sans-serif;\" border=\"1\" cellpadding=\"5\" data-ognbot=\"1\"><caption style=\"box-sizing: border-box; padding-top: 8px; padding-bottom: 8px; color: black; text-align: left; font-weight: bold;\">Table 1–2: Vampire Hunter Spells Known</caption>\n<thead style=\"box-sizing: border-box; background-color: #cfe2f3;\">\n<tr style=\"box-sizing: border-box;\">\n<th class=\"text\" style=\"box-sizing: border-box; padding: 2px; text-align: left; border: 1px solid #888888;\">Level</th>\n<th class=\"number\" style=\"box-sizing: border-box; padding: 2px; text-align: left; border: 1px solid #888888;\">1st</th>\n<th class=\"number\" style=\"box-sizing: border-box; padding: 2px; text-align: left; border: 1px solid #888888;\">2nd</th>\n<th class=\"number\" style=\"box-sizing: border-box; padding: 2px; text-align: left; border: 1px solid #888888;\">3rd</th>\n<th class=\"number\" style=\"box-sizing: border-box; padding: 2px; text-align: left; border: 1px solid #888888;\">4th</th>\n</tr>\n</thead>\n<tbody style=\"box-sizing: border-box;\">\n<tr style=\"box-sizing: border-box;\">\n<td class=\"number\" style=\"box-sizing: border-box; padding: 2px; vertical-align: top; text-align: center; border: 1px solid #888888;\">1st</td>\n<td class=\"marker\" style=\"box-sizing: border-box; padding: 2px; vertical-align: top; text-align: center; border: 1px solid #888888;\">—</td>\n<td class=\"marker\" style=\"box-sizing: border-box; padding: 2px; vertical-align: top; text-align: center; border: 1px solid #888888;\">—</td>\n<td class=\"marker\" style=\"box-sizing: border-box; padding: 2px; vertical-align: top; text-align: center; border: 1px solid #888888;\">—</td>\n<td class=\"marker\" style=\"box-sizing: border-box; padding: 2px; vertical-align: top; text-align: center; border: 1px solid #888888;\">—</td>\n</tr>\n<tr style=\"box-sizing: border-box; background-color: #f3f3f3;\">\n<td class=\"number\" style=\"box-sizing: border-box; padding: 2px; vertical-align: top; text-align: center; border: 1px solid #888888;\">2nd</td>\n<td class=\"marker\" style=\"box-sizing: border-box; padding: 2px; vertical-align: top; text-align: center; border: 1px solid #888888;\">—</td>\n<td class=\"marker\" style=\"box-sizing: border-box; padding: 2px; vertical-align: top; text-align: center; border: 1px solid #888888;\">—</td>\n<td class=\"marker\" style=\"box-sizing: border-box; padding: 2px; vertical-align: top; text-align: center; border: 1px solid #888888;\">—</td>\n<td class=\"marker\" style=\"box-sizing: border-box; padding: 2px; vertical-align: top; text-align: center; border: 1px solid #888888;\">—</td>\n</tr>\n<tr style=\"box-sizing: border-box;\">\n<td class=\"number\" style=\"box-sizing: border-box; padding: 2px; vertical-align: top; text-align: center; border: 1px solid #888888;\">3rd</td>\n<td class=\"marker\" style=\"box-sizing: border-box; padding: 2px; vertical-align: top; text-align: center; border: 1px solid #888888;\">—</td>\n<td class=\"marker\" style=\"box-sizing: border-box; padding: 2px; vertical-align: top; text-align: center; border: 1px solid #888888;\">—</td>\n<td class=\"marker\" style=\"box-sizing: border-box; padding: 2px; vertical-align: top; text-align: center; border: 1px solid #888888;\">—</td>\n<td class=\"marker\" style=\"box-sizing: border-box; padding: 2px; vertical-align: top; text-align: center; border: 1px solid #888888;\">—</td>\n</tr>\n<tr style=\"box-sizing: border-box; background-color: #f3f3f3;\">\n<td class=\"number\" style=\"box-sizing: border-box; padding: 2px; vertical-align: top; text-align: center; border: 1px solid #888888;\">4th</td>\n<td class=\"number\" style=\"box-sizing: border-box; padding: 2px; vertical-align: top; text-align: center; border: 1px solid #888888;\">2</td>\n<td class=\"marker\" style=\"box-sizing: border-box; padding: 2px; vertical-align: top; text-align: center; border: 1px solid #888888;\">—</td>\n<td class=\"marker\" style=\"box-sizing: border-box; padding: 2px; vertical-align: top; text-align: center; border: 1px solid #888888;\">—</td>\n<td class=\"marker\" style=\"box-sizing: border-box; padding: 2px; vertical-align: top; text-align: center; border: 1px solid #888888;\">—</td>\n</tr>\n<tr style=\"box-sizing: border-box;\">\n<td class=\"number\" style=\"box-sizing: border-box; padding: 2px; vertical-align: top; text-align: center; border: 1px solid #888888;\">5th</td>\n<td class=\"number\" style=\"box-sizing: border-box; padding: 2px; vertical-align: top; text-align: center; border: 1px solid #888888;\">3</td>\n<td class=\"marker\" style=\"box-sizing: border-box; padding: 2px; vertical-align: top; text-align: center; border: 1px solid #888888;\">—</td>\n<td class=\"marker\" style=\"box-sizing: border-box; padding: 2px; vertical-align: top; text-align: center; border: 1px solid #888888;\">—</td>\n<td class=\"marker\" style=\"box-sizing: border-box; padding: 2px; vertical-align: top; text-align: center; border: 1px solid #888888;\">—</td>\n</tr>\n<tr style=\"box-sizing: border-box; background-color: #f3f3f3;\">\n<td class=\"number\" style=\"box-sizing: border-box; padding: 2px; vertical-align: top; text-align: center; border: 1px solid #888888;\">6th</td>\n<td class=\"number\" style=\"box-sizing: border-box; padding: 2px; vertical-align: top; text-align: center; border: 1px solid #888888;\">4</td>\n<td class=\"marker\" style=\"box-sizing: border-box; padding: 2px; vertical-align: top; text-align: center; border: 1px solid #888888;\">—</td>\n<td class=\"marker\" style=\"box-sizing: border-box; padding: 2px; vertical-align: top; text-align: center; border: 1px solid #888888;\">—</td>\n<td class=\"marker\" style=\"box-sizing: border-box; padding: 2px; vertical-align: top; text-align: center; border: 1px solid #888888;\">—</td>\n</tr>\n<tr style=\"box-sizing: border-box;\">\n<td class=\"number\" style=\"box-sizing: border-box; padding: 2px; vertical-align: top; text-align: center; border: 1px solid #888888;\">7th</td>\n<td class=\"number\" style=\"box-sizing: border-box; padding: 2px; vertical-align: top; text-align: center; border: 1px solid #888888;\">4</td>\n<td class=\"number\" style=\"box-sizing: border-box; padding: 2px; vertical-align: top; text-align: center; border: 1px solid #888888;\">2</td>\n<td class=\"marker\" style=\"box-sizing: border-box; padding: 2px; vertical-align: top; text-align: center; border: 1px solid #888888;\">—</td>\n<td class=\"marker\" style=\"box-sizing: border-box; padding: 2px; vertical-align: top; text-align: center; border: 1px solid #888888;\">—</td>\n</tr>\n<tr style=\"box-sizing: border-box; background-color: #f3f3f3;\">\n<td class=\"number\" style=\"box-sizing: border-box; padding: 2px; vertical-align: top; text-align: center; border: 1px solid #888888;\">8th</td>\n<td class=\"number\" style=\"box-sizing: border-box; padding: 2px; vertical-align: top; text-align: center; border: 1px solid #888888;\">4</td>\n<td class=\"number\" style=\"box-sizing: border-box; padding: 2px; vertical-align: top; text-align: center; border: 1px solid #888888;\">3</td>\n<td class=\"marker\" style=\"box-sizing: border-box; padding: 2px; vertical-align: top; text-align: center; border: 1px solid #888888;\">—</td>\n<td class=\"marker\" style=\"box-sizing: border-box; padding: 2px; vertical-align: top; text-align: center; border: 1px solid #888888;\">—</td>\n</tr>\n<tr style=\"box-sizing: border-box;\">\n<td class=\"number\" style=\"box-sizing: border-box; padding: 2px; vertical-align: top; text-align: center; border: 1px solid #888888;\">9th</td>\n<td class=\"number\" style=\"box-sizing: border-box; padding: 2px; vertical-align: top; text-align: center; border: 1px solid #888888;\">4</td>\n<td class=\"number\" style=\"box-sizing: border-box; padding: 2px; vertical-align: top; text-align: center; border: 1px solid #888888;\">4</td>\n<td class=\"marker\" style=\"box-sizing: border-box; padding: 2px; vertical-align: top; text-align: center; border: 1px solid #888888;\">—</td>\n<td class=\"marker\" style=\"box-sizing: border-box; padding: 2px; vertical-align: top; text-align: center; border: 1px solid #888888;\">—</td>\n</tr>\n<tr style=\"box-sizing: border-box; background-color: #f3f3f3;\">\n<td class=\"number\" style=\"box-sizing: border-box; padding: 2px; vertical-align: top; text-align: center; border: 1px solid #888888;\">10th</td>\n<td class=\"number\" style=\"box-sizing: border-box; padding: 2px; vertical-align: top; text-align: center; border: 1px solid #888888;\">5</td>\n<td class=\"number\" style=\"box-sizing: border-box; padding: 2px; vertical-align: top; text-align: center; border: 1px solid #888888;\">4</td>\n<td class=\"number\" style=\"box-sizing: border-box; padding: 2px; vertical-align: top; text-align: center; border: 1px solid #888888;\">2</td>\n<td class=\"marker\" style=\"box-sizing: border-box; padding: 2px; vertical-align: top; text-align: center; border: 1px solid #888888;\">—</td>\n</tr>\n<tr style=\"box-sizing: border-box;\">\n<td class=\"number\" style=\"box-sizing: border-box; padding: 2px; vertical-align: top; text-align: center; border: 1px solid #888888;\">11th</td>\n<td class=\"number\" style=\"box-sizing: border-box; padding: 2px; vertical-align: top; text-align: center; border: 1px solid #888888;\">5</td>\n<td class=\"number\" style=\"box-sizing: border-box; padding: 2px; vertical-align: top; text-align: center; border: 1px solid #888888;\">4</td>\n<td class=\"number\" style=\"box-sizing: border-box; padding: 2px; vertical-align: top; text-align: center; border: 1px solid #888888;\">3</td>\n<td class=\"marker\" style=\"box-sizing: border-box; padding: 2px; vertical-align: top; text-align: center; border: 1px solid #888888;\">—</td>\n</tr>\n<tr style=\"box-sizing: border-box; background-color: #f3f3f3;\">\n<td class=\"number\" style=\"box-sizing: border-box; padding: 2px; vertical-align: top; text-align: center; border: 1px solid #888888;\">12th</td>\n<td class=\"number\" style=\"box-sizing: border-box; padding: 2px; vertical-align: top; text-align: center; border: 1px solid #888888;\">5</td>\n<td class=\"number\" style=\"box-sizing: border-box; padding: 2px; vertical-align: top; text-align: center; border: 1px solid #888888;\">4</td>\n<td class=\"number\" style=\"box-sizing: border-box; padding: 2px; vertical-align: top; text-align: center; border: 1px solid #888888;\">4</td>\n<td class=\"marker\" style=\"box-sizing: border-box; padding: 2px; vertical-align: top; text-align: center; border: 1px solid #888888;\">—</td>\n</tr>\n<tr style=\"box-sizing: border-box;\">\n<td class=\"number\" style=\"box-sizing: border-box; padding: 2px; vertical-align: top; text-align: center; border: 1px solid #888888;\">13th</td>\n<td class=\"number\" style=\"box-sizing: border-box; padding: 2px; vertical-align: top; text-align: center; border: 1px solid #888888;\">5</td>\n<td class=\"number\" style=\"box-sizing: border-box; padding: 2px; vertical-align: top; text-align: center; border: 1px solid #888888;\">5</td>\n<td class=\"number\" style=\"box-sizing: border-box; padding: 2px; vertical-align: top; text-align: center; border: 1px solid #888888;\">4</td>\n<td class=\"number\" style=\"box-sizing: border-box; padding: 2px; vertical-align: top; text-align: center; border: 1px solid #888888;\">2</td>\n</tr>\n<tr style=\"box-sizing: border-box; background-color: #f3f3f3;\">\n<td class=\"number\" style=\"box-sizing: border-box; padding: 2px; vertical-align: top; text-align: center; border: 1px solid #888888;\">14th</td>\n<td class=\"number\" style=\"box-sizing: border-box; padding: 2px; vertical-align: top; text-align: center; border: 1px solid #888888;\">6</td>\n<td class=\"number\" style=\"box-sizing: border-box; padding: 2px; vertical-align: top; text-align: center; border: 1px solid #888888;\">5</td>\n<td class=\"number\" style=\"box-sizing: border-box; padding: 2px; vertical-align: top; text-align: center; border: 1px solid #888888;\">4</td>\n<td class=\"number\" style=\"box-sizing: border-box; padding: 2px; vertical-align: top; text-align: center; border: 1px solid #888888;\">3</td>\n</tr>\n<tr style=\"box-sizing: border-box;\">\n<td class=\"number\" style=\"box-sizing: border-box; padding: 2px; vertical-align: top; text-align: center; border: 1px solid #888888;\">15th</td>\n<td class=\"number\" style=\"box-sizing: border-box; padding: 2px; vertical-align: top; text-align: center; border: 1px solid #888888;\">6</td>\n<td class=\"number\" style=\"box-sizing: border-box; padding: 2px; vertical-align: top; text-align: center; border: 1px solid #888888;\">5</td>\n<td class=\"number\" style=\"box-sizing: border-box; padding: 2px; vertical-align: top; text-align: center; border: 1px solid #888888;\">4</td>\n<td class=\"number\" style=\"box-sizing: border-box; padding: 2px; vertical-align: top; text-align: center; border: 1px solid #888888;\">4</td>\n</tr>\n<tr style=\"box-sizing: border-box; background-color: #f3f3f3;\">\n<td class=\"number\" style=\"box-sizing: border-box; padding: 2px; vertical-align: top; text-align: center; border: 1px solid #888888;\">16th</td>\n<td class=\"number\" style=\"box-sizing: border-box; padding: 2px; vertical-align: top; text-align: center; border: 1px solid #888888;\">6</td>\n<td class=\"number\" style=\"box-sizing: border-box; padding: 2px; vertical-align: top; text-align: center; border: 1px solid #888888;\">5</td>\n<td class=\"number\" style=\"box-sizing: border-box; padding: 2px; vertical-align: top; text-align: center; border: 1px solid #888888;\">5</td>\n<td class=\"number\" style=\"box-sizing: border-box; padding: 2px; vertical-align: top; text-align: center; border: 1px solid #888888;\">4</td>\n</tr>\n<tr style=\"box-sizing: border-box;\">\n<td class=\"number\" style=\"box-sizing: border-box; padding: 2px; vertical-align: top; text-align: center; border: 1px solid #888888;\">17th</td>\n<td class=\"number\" style=\"box-sizing: border-box; padding: 2px; vertical-align: top; text-align: center; border: 1px solid #888888;\">6</td>\n<td class=\"number\" style=\"box-sizing: border-box; padding: 2px; vertical-align: top; text-align: center; border: 1px solid #888888;\">6</td>\n<td class=\"number\" style=\"box-sizing: border-box; padding: 2px; vertical-align: top; text-align: center; border: 1px solid #888888;\">5</td>\n<td class=\"number\" style=\"box-sizing: border-box; padding: 2px; vertical-align: top; text-align: center; border: 1px solid #888888;\">4</td>\n</tr>\n<tr style=\"box-sizing: border-box; background-color: #f3f3f3;\">\n<td class=\"number\" style=\"box-sizing: border-box; padding: 2px; vertical-align: top; text-align: center; border: 1px solid #888888;\">18th</td>\n<td class=\"number\" style=\"box-sizing: border-box; padding: 2px; vertical-align: top; text-align: center; border: 1px solid #888888;\">6</td>\n<td class=\"number\" style=\"box-sizing: border-box; padding: 2px; vertical-align: top; text-align: center; border: 1px solid #888888;\">6</td>\n<td class=\"number\" style=\"box-sizing: border-box; padding: 2px; vertical-align: top; text-align: center; border: 1px solid #888888;\">5</td>\n<td class=\"number\" style=\"box-sizing: border-box; padding: 2px; vertical-align: top; text-align: center; border: 1px solid #888888;\">4</td>\n</tr>\n<tr style=\"box-sizing: border-box;\">\n<td class=\"number\" style=\"box-sizing: border-box; padding: 2px; vertical-align: top; text-align: center; border: 1px solid #888888;\">19th</td>\n<td class=\"number\" style=\"box-sizing: border-box; padding: 2px; vertical-align: top; text-align: center; border: 1px solid #888888;\">6</td>\n<td class=\"number\" style=\"box-sizing: border-box; padding: 2px; vertical-align: top; text-align: center; border: 1px solid #888888;\">6</td>\n<td class=\"number\" style=\"box-sizing: border-box; padding: 2px; vertical-align: top; text-align: center; border: 1px solid #888888;\">5</td>\n<td class=\"number\" style=\"box-sizing: border-box; padding: 2px; vertical-align: top; text-align: center; border: 1px solid #888888;\">5</td>\n</tr>\n<tr style=\"box-sizing: border-box; background-color: #f3f3f3;\">\n<td class=\"number\" style=\"box-sizing: border-box; padding: 2px; vertical-align: top; text-align: center; border: 1px solid #888888;\">20th</td>\n<td class=\"number\" style=\"box-sizing: border-box; padding: 2px; vertical-align: top; text-align: center; border: 1px solid #888888;\">6</td>\n<td class=\"number\" style=\"box-sizing: border-box; padding: 2px; vertical-align: top; text-align: center; border: 1px solid #888888;\">6</td>\n<td class=\"number\" style=\"box-sizing: border-box; padding: 2px; vertical-align: top; text-align: center; border: 1px solid #888888;\">6</td>\n<td class=\"number\" style=\"box-sizing: border-box; padding: 2px; vertical-align: top; text-align: center; border: 1px solid #888888;\">\n<p>5</p>\n</td>\n</tr>\n</tbody>\n</table>\n<h2>Relentless Band (Ex)</h2>\n<p>At 5th level, a vampire hunter’s resolve infects his traveling companions, increasing how many hours the group can spend traveling in a day. Every day the vampire hunter can allow a number of companions equal to half his level (plus their mounts) to also benefit from his relentless ability. The vampire hunter rolls saving throws to determine whether the group can carry on in its extended travels.</p>\n<h2>Vampire Tracker (Ex)</h2>\n<p>At 7th level, the vampire hunter can track gaseous creatures—such as&nbsp;<a href=\"https://www.d20pfsrd.com/bestiary/monster-listings/templates/vampire/vampire\">vampires</a>&nbsp;flying or moving in&nbsp;<a href=\"https://www.d20pfsrd.com/magic/all-spells/g/gaseous-form\">gaseous form</a>—as though they were leaving physical tracks. The base DC of&nbsp;<a href=\"https://www.d20pfsrd.com/skills/survival\">Survival</a>&nbsp;checks to track gaseous creatures is 20. The modifiers for surfaces don’t apply (as a gaseous creature leaves no impressions during its passage) but other conditions do.</p>\n<h2>Swift Tracker (Ex)</h2>\n<p>At 10th level, a vampire hunter can move at his normal speed while using&nbsp;<a href=\"https://www.d20pfsrd.com/skills/survival\">Survival</a>&nbsp;to follow tracks without taking the normal –5 penalty. He takes a –10 penalty (instead of the normal –20) when moving at up to twice normal speed while tracking.</p>\n<h2>Vampire Bane (Su)</h2>\n<p>At 11th level, a vampire hunter can intensify a vampire’s revulsion to strongly presented holy symbols. When a vampire hunter uses a&nbsp;<a href=\"https://www.d20pfsrd.com/gamemastering/combat#TOC-Standard-Actions\">standard action</a>&nbsp;to confront a&nbsp;<a href=\"https://www.d20pfsrd.com/bestiary/monster-listings/templates/vampire\">vampire</a>&nbsp;with a presented&nbsp;<a href=\"https://www.d20pfsrd.com/equipment/goods-and-services/toys-games-puzzles#TOC-Holy-Symbol\">holy symbol</a>, the vampire must attempt a&nbsp;<a href=\"https://www.d20pfsrd.com/gamemastering/combat#TOC-Will\">Will</a>&nbsp;saving throw (DC = 15 + the vampire hunter’s class level + the vampire hunter’s&nbsp;<a href=\"https://www.d20pfsrd.com/basics-ability-scores/ability-scores#TOC-Charisma-Cha-\">Charisma</a>&nbsp;modifier). On a failed save, the vampire is repulsed and must stay a number of feet from the vampire hunter equal to 5 times the vampire hunter’s&nbsp;<a href=\"https://www.d20pfsrd.com/basics-ability-scores/ability-scores#TOC-Charisma-Cha-\">Charisma</a>&nbsp;modifier. Additionally, a vampire repulsed in this way cannot touch or make melee attacks against the vampire hunter (although the vampire can still touch and make melee attacks against the vampire hunter’s allies as normal). A vampire continues to be repulsed for every round the vampire hunter spends presenting a&nbsp;<a href=\"https://www.d20pfsrd.com/equipment/goods-and-services/toys-games-puzzles#TOC-Holy-Symbol\">holy symbol</a>&nbsp;(a&nbsp;<a href=\"https://www.d20pfsrd.com/gamemastering/combat#TOC-Standard-Actions\">standard action</a>), though it can attempt a new&nbsp;<a href=\"https://www.d20pfsrd.com/gamemastering/combat#TOC-Will\">Will</a>&nbsp;save every round to overcome its revulsion and act normally.</p>\n<p>The vampire hunter can use any&nbsp;<a href=\"https://www.d20pfsrd.com/equipment/goods-and-services/toys-games-puzzles#TOC-Holy-Symbol\">holy symbol</a>&nbsp;to repulse a vampire, but for the purposes of this ability, the vampire hunter treats his&nbsp;<a href=\"https://www.d20pfsrd.com/basics-ability-scores/ability-scores#TOC-Charisma-Cha-\">Charisma</a>&nbsp;modifier as being 2 higher when he employs the symbol of the deity he worships.</p>\n<h2>Remove Vampirism (Su)</h2>\n<p>At 13th level, the vampire hunter can prevent a creature killed by a vampire from returning to life as a vampire itself. By spending 10 minutes and dousing a body with a&nbsp;<a href=\"https://www.d20pfsrd.com/equipment/goods-and-services/containers-bags-boxes-more#TOC-Vial\">vial</a>&nbsp;of&nbsp;<a href=\"https://www.d20pfsrd.com/equipment/goods-and-services/toys-games-puzzles#TOC-Holy-Water\">holy water</a>, the vampire hunter removes the infection of vampirism from a creature slain by a vampire’s&nbsp;<a href=\"https://www.d20pfsrd.com/bestiary/rules-for-monsters/universal-monster-rules#TOC-Blood-Drain-Ex-\">blood drain</a>&nbsp;or&nbsp;<a href=\"https://www.d20pfsrd.com/magic/all-spells/e/energy-drain\">energy drain</a>&nbsp;ability, preventing it from rising as a&nbsp;<a href=\"https://www.d20pfsrd.com/bestiary/monster-listings/templates/vampire/vampire-spawn\">vampire spawn</a>&nbsp;via a vampire’s create spawn ability. This effect cannot be undone with any magic weaker than a&nbsp;<a href=\"https://www.d20pfsrd.com/magic/all-spells/m/miracle\">miracle</a>&nbsp;or&nbsp;<a href=\"https://www.d20pfsrd.com/magic/all-spells/w/wish\">wish</a>. If the corpse is returned to life and subsequently killed by a vampire again might it become a&nbsp;<a href=\"https://www.d20pfsrd.com/bestiary/monster-listings/templates/vampire/vampire-spawn\">vampire spawn</a>.</p>\n<h2>Quarry (Ex)</h2>\n<p>At 14th level, as a&nbsp;<a href=\"https://www.d20pfsrd.com/gamemastering/combat#TOC-Standard-Actions\">standard action</a>&nbsp;a vampire hunter can denote one target within his line of sight that he knows is&nbsp;<a href=\"https://www.d20pfsrd.com/bestiary/rules-for-monsters/creature-types#TOC-Undead\">undead</a>&nbsp;as his quarry. Whenever he is following the tracks of his quarry, a vampire hunter can take 10 on his&nbsp;<a href=\"https://www.d20pfsrd.com/skills/survival\">Survival</a>&nbsp;skill checks while moving at normal speed, without penalty. In addition, he gains a +2&nbsp;<a href=\"https://www.d20pfsrd.com/basics-ability-scores/glossary#TOC-Insight-Bonus\">insight bonus</a>&nbsp;on&nbsp;<a href=\"https://www.d20pfsrd.com/gamemastering/combat#TOC-Attack-Roll\">attack rolls</a>&nbsp;against his quarry, and all critical threats against his quarry are automatically confirmed. A vampire hunter can have no more than one quarry at a time. He can dismiss this effect at any time as a&nbsp;<a href=\"https://www.d20pfsrd.com/gamemastering/combat#TOC-Free-Actions\">free action</a>, but he cannot select a new quarry for 24 hours. If the vampire hunter sees proof that his quarry is&nbsp;<a href=\"https://www.d20pfsrd.com/gamemastering/conditions#TOC-Dead\">dead</a>&nbsp;or (somehow) was not actually&nbsp;<a href=\"https://www.d20pfsrd.com/bestiary/rules-for-monsters/creature-types#TOC-Undead\">undead</a>, he can select a new quarry after 1 hour.</p>\n<h2>Critical Reflexes (Su)</h2>\n<p>At 17th level, upon confirming a&nbsp;<a href=\"https://www.d20pfsrd.com/gamemastering/combat#TOC-Critical-Hits\">critical hit</a>&nbsp;against an&nbsp;<a href=\"https://www.d20pfsrd.com/bestiary/rules-for-monsters/creature-types#TOC-Undead\">undead</a>&nbsp;creature, the vampire hunter can attempt a special&nbsp;<a href=\"https://www.d20pfsrd.com/gamemastering/combat#TOC-Combat-Maneuvers\">combat maneuver</a>&nbsp;check to produce an item and immediately use it upon that foe. The vampire hunter decides whether or not to use this ability after dealing additional damage for his&nbsp;<a href=\"https://www.d20pfsrd.com/gamemastering/combat#TOC-Critical-Hits\">critical hit</a>. At that point, he can attempt a&nbsp;<a href=\"https://www.d20pfsrd.com/gamemastering/combat#TOC-Combat-Maneuvers\">combat maneuver</a>&nbsp;check against the target’s&nbsp;<a href=\"https://www.d20pfsrd.com/gamemastering/combat#TOC-Combat-Maneuver-Defense\">CMD</a>&nbsp;(the target is denied its&nbsp;<a href=\"https://www.d20pfsrd.com/basics-ability-scores/ability-scores#TOC-Dexterity-Dex-\">Dexterity</a>&nbsp;modifier to resist this attack). If the vampire hunter succeeds, he produces a piece of equipment he has on his person and immediately uses that item upon the target creature. This ability does not provoke an&nbsp;<a href=\"https://www.d20pfsrd.com/gamemastering/combat#TOC-Attacks-of-Opportunity\">attack of opportunity</a>.</p>\n<p>Items used in this manner are typically alchemical items, such as&nbsp;<a href=\"https://www.d20pfsrd.com/equipment/goods-and-services/herbs-oils-other-substances#TOC-Acid\">acid</a>&nbsp;or&nbsp;<a href=\"https://www.d20pfsrd.com/equipment/goods-and-services/toys-games-puzzles#TOC-Holy-Water\">holy water</a>. Items that require attacks against the target automatically hit and deal damage as normal (potentially to the vampire hunter, as well, if the item affects an area). Items that would have no direct effect against the target (such as a fishing hook or a&nbsp;<a href=\"https://www.d20pfsrd.com/equipment/goods-and-services/hunting-camping-survival-gear#TOC-Lantern\">lantern</a>) or that require another&nbsp;<a href=\"https://www.d20pfsrd.com/gamemastering/combat#TOC-Combat-Maneuvers\">combat maneuver</a>&nbsp;to use (such as a&nbsp;<a href=\"https://www.d20pfsrd.com/equipment/goods-and-services/hunting-camping-survival-gear#TOC-Rope\">rope</a>&nbsp;or&nbsp;<a href=\"https://www.d20pfsrd.com/equipment/goods-and-services/tools-kits#TOC-Manacles\">manacles</a>) cannot be used as part of this ability. Other melee and ranged weapons cannot be used with this ability (with the exception of using a stake against a&nbsp;<a href=\"https://www.d20pfsrd.com/bestiary/monster-listings/templates/vampire\">vampire</a>; see below).</p>\n<p>This ability can be used against&nbsp;<a href=\"https://www.d20pfsrd.com/bestiary/rules-for-monsters/creature-types#TOC-Incorporeal\">incorporeal</a>&nbsp;creatures.</p>\n<p>If the target creature is a&nbsp;<a href=\"https://www.d20pfsrd.com/bestiary/monster-listings/templates/vampire\">vampire</a>&nbsp;and the vampire hunter has a&nbsp;<a href=\"https://www.d20pfsrd.com/equipment/weapons/weapon-descriptions/stake-wooden\">wooden stake</a>&nbsp;in his possession (or a similar item affected by his stake ability), he can drive the stake through the vampire’s heart as though it were&nbsp;<a href=\"https://www.d20pfsrd.com/gamemastering/conditions#TOC-Helpless\">helpless</a>, slaying it immediately. If the creature is not a&nbsp;<a href=\"https://www.d20pfsrd.com/bestiary/monster-listings/templates/vampire\">vampire</a>, this attempt fails at the last moment; the vampire hunter realizes that the target is not a&nbsp;<a href=\"https://www.d20pfsrd.com/bestiary/monster-listings/templates/vampire\">vampire</a>. A vampire hunter cannot drive a stake through the heart of a non-<a href=\"https://www.d20pfsrd.com/bestiary/monster-listings/templates/vampire\">vampire</a>&nbsp;using this ability.</p>\n<h2>Improved Quarry (Ex)</h2>\n<p>At 19th level, the vampire hunter’s ability to hunt his&nbsp;<a href=\"https://www.d20pfsrd.com/bestiary/rules-for-monsters/creature-types#TOC-Undead\">undead</a>&nbsp;quarry improves. He can now select a quarry as a&nbsp;<a href=\"https://www.d20pfsrd.com/gamemastering/combat#TOC-Free-Actions\">free action</a>, and can now&nbsp;<a href=\"https://www.d20pfsrd.com/basics-ability-scores/glossary#TOC-Take-20\">take 20</a>&nbsp;while using&nbsp;<a href=\"https://www.d20pfsrd.com/skills/survival\">Survival</a>&nbsp;to track his quarry while moving at normal speed, without penalty. His&nbsp;<a href=\"https://www.d20pfsrd.com/basics-ability-scores/glossary#TOC-Insight-Bonus\">insight bonus</a>&nbsp;to attack his quarry increases to +4. If his quarry is killed or dismissed, he can select a new one after 10 minutes have passed.</p>\n<h2>Master Vampire Hunter (Ex)</h2>\n<p>At 20th level, the vampire hunter becomes the&nbsp;<a href=\"https://www.d20pfsrd.com/magic/all-spells/b/bane\">bane</a>&nbsp;of the&nbsp;<a href=\"https://www.d20pfsrd.com/bestiary/rules-for-monsters/creature-types#TOC-Undead\">undead</a>. As a&nbsp;<a href=\"https://www.d20pfsrd.com/gamemastering/combat#TOC-Standard-Actions\">standard action</a>, he can make a single attack against his&nbsp;<a href=\"https://www.d20pfsrd.com/bestiary/rules-for-monsters/creature-types#TOC-Undead\">undead</a>&nbsp;quarry at his full&nbsp;<a href=\"https://www.d20pfsrd.com/gamemastering/combat#TOC-Attack-Bonus\">attack bonus</a>&nbsp;while choosing one of the following effects: destroy, stake, or paralyze for 2d6 rounds.</p>\n<p>If the attack hits, the target takes damage normally and must succeed at a&nbsp;<a href=\"https://www.d20pfsrd.com/gamemastering/combat#TOC-Fortitude\">Fortitude</a>&nbsp;saving throw or suffer the additional effect. The DC for this save is 10 + 1/2 the vampire hunter’s level + the vampire hunter’s&nbsp;<a href=\"https://www.d20pfsrd.com/basics-ability-scores/ability-scores#TOC-Wisdom-Wis-\">Wisdom</a>&nbsp;modifier. Whether or not the attack succeeds, the creature cannot be targeted by this ability again (by any vampire hunter) for 24 hours.</p>\n<p>If the vampire hunter chooses to destroy the target, the target is killed. If the target is a&nbsp;<a href=\"https://www.d20pfsrd.com/bestiary/monster-listings/templates/vampire\">vampire</a>, it does not assume&nbsp;<a href=\"https://www.d20pfsrd.com/magic/all-spells/g/gaseous-form\">gaseous form</a>, and its&nbsp;<a href=\"https://www.d20pfsrd.com/magic#TOC-Conjuration-Healing\">healing</a>&nbsp;powers do not come into effect; it is destroyed outright. If the vampire hunter chooses to stake his target, the target is killed if it’s a non-<a href=\"https://www.d20pfsrd.com/bestiary/monster-listings/templates/vampire\">vampire</a>. If it’s a&nbsp;<a href=\"https://www.d20pfsrd.com/bestiary/monster-listings/templates/vampire\">vampire</a>&nbsp;(or similar creature affected by having a stake driven through its heart) it is killed, but returns to life if the stake is removed. The vampire hunter can use his 4th-level stake ability to employ any piercing weapon or sharp tool as though it were a&nbsp;<a href=\"https://www.d20pfsrd.com/equipment/weapons/weapon-descriptions/stake-wooden\">wooden stake</a>.</p>\n<p>Additionally, at 20th level, each day when the vampire hunter regains his spells per day, he chooses one vampiric focus to be active on himself for the entire day. This focus is in addition to uses of his vampiric focus class ability.</p>\n</div>",
      "chat": "",
      "unidentified": ""
    },
    "damage": {
      "parts": [],
      "critParts": [],
      "nonCritParts": []
    },
    "preparation": {
      "maxAmount": 0
    },
    "weaponData": {
      "critRange": 20,
      "critMult": 2
    },
    "uses": {
      "value": 0,
      "max": 0
    }
  },
  "flags": {},
  "img": "systems/pf1/icons/items/inventory/stake.jpg",
  "effects": []
}